{
 "name": "miranda-roar",
 "onset_time": 11300,
 "prior_common": 0.004318549911967439,
 "duration_stroke_target": 1000,
 "stroke_rate": 0.5,
 "duration_trial_target": 18300,
 "duration_unit": 75,
 "sensitivity_tac": 0.5897170163571986,
 "specificity_tac": 0.28026124311062217,
 "sensitivity_vis": 0.3209693817283626,
 "specificity_vis": 0.16164355842648104,
 "debug": false,
 "duration_stroke": 975,
 "duration_stroke_units": 13,
 "duration_trial": 17550,
 "duration_trial_units": 234,
 "duration_trial_cycles": 9,
 "prior_separate": 0.9956814500880325,
 "shift": 975,
 "shift_units": 13
}
