{
  "alpha": 1e-10,
  "copy_X_train": true,
  "k1_initial": "1**2 * RBF(length_scale=1)",
  "k2_initial": "WhiteKernel(noise_level=1)",
  "k1_k1_initial": "1**2",
  "k1_k2_initial": "RBF(length_scale=1)",
  "k1_k1_constant_value_initial": 1.0,
  "k1_k1_constant_value_bounds": [
    0.001,
    1000.0
  ],
  "k1_k2_length_scale_initial": 1.0,
  "k1_k2_length_scale_bounds": [
    0.001,
    1000.0
  ],
  "k2_noise_level_initial": 1.0,
  "k2_noise_level_bounds": [
    0.001,
    1000.0
  ],
  "kernel": "1**2 * RBF(length_scale=1) + WhiteKernel(noise_level=1)",
  "n_restarts_optimizer": 0,
  "normalize_y": false,
  "optimizer": "fmin_l_bfgs_b",
  "random_state": null,
  "k1": "0.448**2 * RBF(length_scale=0.137)",
  "k2": "WhiteKernel(noise_level=0.00436)",
  "k1_k1_fitted": "0.448**2",
  "k1_k2_fitted": "RBF(length_scale=0.137)",
  "k1_k1_constant_value_fitted": 0.20083501253799751,
  "k1_k2_length_scale_fitted": 0.13745574081611164,
  "k2_noise_level_fitted": 0.004360344068121547
}
