input_visual,input_tactile,prob_c1,slope
,,2.2955358196514122e-11,
0.0,1.0,1.3589407787954115e-12,-2.159641741771871e-11
1.0,1.0,3.178248182488878e-13,-1.0411159605465237e-12
0.0,1.0,5.303577632175907e-15,-3.125212406167119e-13
1.0,1.0,5.6528858524168e-16,-4.738289046934227e-15
0.0,0.0,3.31101263863667e-16,-2.34187321378013e-16
1.0,0.0,1.9510989140155116e-17,-3.1159027472351185e-16
0.0,1.0,1.3593568365570248e-18,-1.815163230359809e-17
1.0,0.0,3.2609910751699926e-20,-1.3267469258053248e-18
0.0,0.0,4.1489225533452776e-21,-2.846098819835465e-20
0.0,0.0,6.093332423225187e-22,-3.539589311022759e-21
1.0,1.0,7.685772981050784e-22,1.5924405578255966e-22
0.0,1.0,7.939238052375954e-23,-6.891849175813188e-22
1.0,0.0,1.0505125297880321e-23,-6.888725522587922e-23
0.0,0.0,2.220324935487113e-24,-8.28480036239321e-24
0.0,0.0,5.4151636834735775e-25,-1.678808567139755e-24
0.0,1.0,2.7186066814775874e-26,-5.143303015325819e-25
0.0,1.0,3.7020694259720197e-29,-2.7149046120516154e-26
1.0,0.0,5.798857783320475e-32,-3.696270568188699e-29
0.0,1.0,3.7349956046732937e-35,-5.795122787715801e-32
1.0,0.0,1.4514461550339756e-38,-3.73354415851826e-35
1.0,1.0,1.2953831448747695e-41,-1.4501507718891007e-38
1.0,0.0,1.4316556407174262e-45,-1.295239979310698e-41
1.0,0.0,3.956272454220321e-51,-1.431651684444972e-45
1.0,0.0,2.47746850243665e-58,-3.9562722064734706e-51
0.0,0.0,2.603049474776313e-65,-2.4774682421317024e-58
0.0,1.0,6.172770300242688e-73,-2.60304941304861e-65
1.0,1.0,2.413855117467814e-80,-6.172770058857176e-73
1.0,0.0,2.058368241007509e-88,-2.4138550968841317e-80
1.0,0.0,4.731864340387557e-98,-2.0583682405343226e-88
0.0,0.0,1.7358307197385118e-107,-4.731864338651726e-98
1.0,1.0,2.981733297525947e-116,-1.7358307167567785e-107
0.0,0.0,1.3252978273249683e-124,-2.9817332842729685e-116
0.0,0.0,7.206754477149768e-133,-1.3252978201182139e-124
1.0,1.0,3.330348064567728e-140,-7.206754144114962e-133
1.0,1.0,2.1781969666683404e-147,-3.330347846748031e-140
0.0,0.0,1.1798110470010869e-153,-2.1781957868572936e-147
0.0,0.0,8.999088980579053e-160,-1.1798101470921889e-153
1.0,0.0,8.739403908307703e-167,-8.999088106638662e-160
1.0,0.0,1.3603550761072005e-175,-8.739403894704153e-167
0.0,0.0,1.5257292851270998e-183,-1.3603550608499078e-175
1.0,0.0,1.1791622272103755e-192,-1.5257292839479375e-183
1.0,1.0,2.1353319385341964e-201,-1.1791622250750436e-192
1.0,1.0,5.012595597313592e-210,-2.135331933521601e-201
1.0,0.0,2.343178775328027e-219,-5.012595594970413e-210
1.0,1.0,4.315816380059351e-228,-2.3431787710122106e-219
0.0,1.0,1.0780923616576386e-237,-4.315816378981259e-228
0.0,1.0,4.3257586004916454e-249,-1.0780923616533128e-237
0.0,0.0,6.908655054089362e-260,-4.325758600422559e-249
1.0,0.0,1.6798988565425333e-271,-6.908655054072564e-260
1.0,1.0,9.731136785148646e-283,-1.6798988565328022e-271
1.0,1.0,7.260466721497605e-294,-9.73113678507604e-283
1.0,0.0,1.080278074951098e-305,-7.260466721486802e-294
1.0,0.0,4.33167e-319,-1.0802780749510548e-305
1.0,0.0,0.0,-4.33167e-319
1.0,1.0,0.0,0.0
0.0,1.0,0.0,0.0
1.0,1.0,0.0,0.0
1.0,0.0,0.0,0.0
1.0,0.0,0.0,0.0
0.0,0.0,0.0,0.0
0.0,0.0,0.0,0.0
0.0,1.0,0.0,0.0
0.0,0.0,0.0,0.0
0.0,1.0,0.0,0.0
1.0,1.0,0.0,0.0
1.0,0.0,0.0,0.0
0.0,0.0,0.0,0.0
1.0,1.0,0.0,0.0
0.0,1.0,0.0,0.0
1.0,1.0,0.0,0.0
1.0,1.0,0.0,0.0
0.0,0.0,0.0,0.0
0.0,0.0,0.0,0.0
1.0,0.0,0.0,0.0
0.0,0.0,0.0,0.0
0.0,0.0,0.0,0.0
1.0,1.0,0.0,0.0
0.0,0.0,0.0,0.0
0.0,0.0,0.0,0.0
0.0,0.0,0.0,0.0
1.0,0.0,0.0,0.0
1.0,1.0,0.0,0.0
0.0,1.0,0.0,0.0
1.0,1.0,0.0,0.0
0.0,1.0,0.0,0.0
1.0,0.0,0.0,0.0
0.0,0.0,0.0,0.0
0.0,1.0,0.0,0.0
1.0,1.0,0.0,0.0
1.0,1.0,0.0,0.0
1.0,0.0,0.0,0.0
1.0,0.0,0.0,0.0
1.0,1.0,0.0,0.0
0.0,0.0,0.0,0.0
1.0,0.0,0.0,0.0
0.0,0.0,0.0,0.0
0.0,0.0,0.0,0.0
0.0,1.0,0.0,0.0
0.0,0.0,0.0,0.0
1.0,1.0,0.0,0.0
0.0,0.0,0.0,0.0
1.0,1.0,0.0,0.0
1.0,1.0,0.0,0.0
1.0,1.0,0.0,0.0
0.0,0.0,0.0,0.0
0.0,1.0,0.0,0.0
0.0,1.0,0.0,0.0
1.0,1.0,0.0,0.0
1.0,1.0,0.0,0.0
1.0,1.0,0.0,0.0
1.0,0.0,0.0,0.0
1.0,0.0,0.0,0.0
0.0,1.0,0.0,0.0
0.0,1.0,0.0,0.0
1.0,1.0,0.0,0.0
1.0,1.0,0.0,0.0
1.0,0.0,0.0,0.0
1.0,1.0,0.0,0.0
0.0,0.0,0.0,0.0
1.0,0.0,0.0,0.0
1.0,0.0,0.0,0.0
0.0,0.0,0.0,0.0
1.0,0.0,0.0,0.0
0.0,0.0,0.0,0.0
0.0,0.0,0.0,0.0
0.0,1.0,0.0,0.0
0.0,0.0,0.0,0.0
0.0,1.0,0.0,0.0
1.0,1.0,0.0,0.0
0.0,1.0,0.0,0.0
1.0,0.0,0.0,0.0
1.0,0.0,0.0,0.0
1.0,0.0,0.0,0.0
0.0,1.0,0.0,0.0
0.0,0.0,0.0,0.0
1.0,1.0,0.0,0.0
0.0,1.0,0.0,0.0
0.0,1.0,0.0,0.0
0.0,1.0,0.0,0.0
1.0,1.0,0.0,0.0
0.0,1.0,0.0,0.0
1.0,1.0,0.0,0.0
0.0,1.0,0.0,0.0
1.0,0.0,0.0,0.0
0.0,1.0,0.0,0.0
1.0,0.0,0.0,0.0
1.0,1.0,0.0,0.0
1.0,1.0,0.0,0.0
0.0,1.0,0.0,0.0
1.0,1.0,0.0,0.0
0.0,1.0,0.0,0.0
0.0,1.0,0.0,0.0
1.0,1.0,0.0,0.0
1.0,1.0,0.0,0.0
0.0,0.0,0.0,0.0
1.0,0.0,0.0,0.0
1.0,0.0,0.0,0.0
0.0,0.0,0.0,0.0
0.0,1.0,0.0,0.0
0.0,1.0,0.0,0.0
1.0,0.0,0.0,0.0
0.0,1.0,0.0,0.0
1.0,1.0,0.0,0.0
0.0,1.0,0.0,0.0
1.0,1.0,0.0,0.0
0.0,1.0,0.0,0.0
1.0,0.0,0.0,0.0
1.0,0.0,0.0,0.0
0.0,1.0,0.0,0.0
1.0,1.0,0.0,0.0
1.0,1.0,0.0,0.0
0.0,0.0,0.0,0.0
1.0,0.0,0.0,0.0
0.0,1.0,0.0,0.0
1.0,0.0,0.0,0.0
1.0,1.0,0.0,0.0
1.0,1.0,0.0,0.0
1.0,0.0,0.0,0.0
1.0,1.0,0.0,0.0
1.0,1.0,0.0,0.0
1.0,0.0,0.0,0.0
0.0,1.0,0.0,0.0
0.0,0.0,0.0,0.0
1.0,1.0,0.0,0.0
1.0,1.0,0.0,0.0
0.0,0.0,0.0,0.0
0.0,1.0,0.0,0.0
0.0,1.0,0.0,0.0
1.0,0.0,0.0,0.0
1.0,0.0,0.0,0.0
0.0,0.0,0.0,0.0
1.0,1.0,0.0,0.0
0.0,0.0,0.0,0.0
0.0,0.0,0.0,0.0
1.0,1.0,0.0,0.0
0.0,0.0,0.0,0.0
1.0,0.0,0.0,0.0
0.0,1.0,0.0,0.0
1.0,1.0,0.0,0.0
1.0,0.0,0.0,0.0
0.0,0.0,0.0,0.0
1.0,1.0,0.0,0.0
1.0,0.0,0.0,0.0
1.0,0.0,0.0,0.0
1.0,0.0,0.0,0.0
0.0,1.0,0.0,0.0
1.0,1.0,0.0,0.0
0.0,1.0,0.0,0.0
0.0,0.0,0.0,0.0
0.0,1.0,0.0,0.0
0.0,0.0,0.0,0.0
0.0,0.0,0.0,0.0
0.0,1.0,0.0,0.0
1.0,0.0,0.0,0.0
0.0,0.0,0.0,0.0
0.0,0.0,0.0,0.0
0.0,0.0,0.0,0.0
0.0,1.0,0.0,0.0
1.0,1.0,0.0,0.0
1.0,1.0,0.0,0.0
1.0,1.0,0.0,0.0
1.0,1.0,0.0,0.0
1.0,0.0,0.0,0.0
0.0,1.0,0.0,0.0
1.0,1.0,0.0,0.0
0.0,0.0,0.0,0.0
1.0,0.0,0.0,0.0
0.0,1.0,0.0,0.0
0.0,1.0,0.0,0.0
1.0,0.0,0.0,0.0
1.0,1.0,0.0,0.0
0.0,1.0,0.0,0.0
0.0,0.0,0.0,0.0
0.0,1.0,0.0,0.0
