input_visual,input_tactile,prob_c1,slope
,,2.2955358196514122e-11,
1.0,0.0,1.3589407787954115e-12,-2.159641741771871e-11
1.0,0.0,1.6385579249241474e-15,-1.3573022208704873e-12
1.0,1.0,1.526349266604566e-17,-1.6232944322581017e-15
1.0,1.0,1.842284132330144e-19,-1.5079264252812644e-17
1.0,1.0,2.4344071267884865e-21,-1.8179400610622592e-19
1.0,1.0,3.508660252259928e-23,-2.3993205242658873e-21
1.0,1.0,5.515284900712265e-25,-3.4535074032528056e-23
1.0,1.0,9.455236355471528e-27,-5.42073253715755e-25
1.0,1.0,1.767887945363736e-28,-9.278447560935154e-27
1.0,1.0,3.6050815234802055e-30,-1.731837130128934e-28
1.0,1.0,8.017763636612149e-32,-3.524903887114084e-30
1.0,1.0,1.9447743219883574e-33,-7.823286204413313e-32
1.0,1.0,5.144734620811264e-35,-1.8933269757802448e-33
0.0,1.0,1.7427614266458068e-37,-5.127307006544805e-35
0.0,1.0,9.471135762275623e-42,-1.742666715288184e-37
0.0,0.0,2.0491235282994252e-45,-9.469086638747323e-42
0.0,0.0,5.746647993223989e-49,-2.048548863500103e-45
0.0,0.0,1.7644198073835673e-52,-5.744883573416606e-49
0.0,0.0,5.908825637851246e-56,-1.763828924819782e-52
0.0,0.0,2.1581390300576437e-59,-5.906667498821188e-56
0.0,0.0,8.596763928392191e-63,-2.1572793536648047e-59
0.0,0.0,3.734812027459626e-66,-8.593029116364731e-63
0.0,0.0,1.7696234694994094e-69,-3.733042403990127e-66
0.0,0.0,9.144735657961545e-73,-1.7687089959336133e-69
0.0,0.0,5.1539429690899745e-76,-9.139581714992454e-73
0.0,0.0,3.1680076885363005e-79,-5.150774961401438e-76
1.0,0.0,2.4935291798807223e-83,-3.167758335618312e-79
1.0,0.0,3.148708566192323e-89,-2.493526031172156e-83
1.0,1.0,1.582894672176904e-94,-3.148692737245602e-89
1.0,1.0,1.0314604206227436e-99,-1.582884357572698e-94
1.0,1.0,7.358586610115426e-105,-1.0314530620361335e-99
1.0,1.0,5.725958091728673e-110,-7.358529350534508e-105
1.0,1.0,4.859382951022206e-115,-5.725909497899163e-110
1.0,1.0,4.497724741737933e-120,-4.859337973774788e-115
1.0,1.0,4.540292394920639e-125,-4.4976793388139836e-120
1.0,1.0,4.998659547125428e-130,-4.540242408325168e-125
1.0,1.0,6.002084174164421e-135,-4.998599526283687e-130
1.0,1.0,7.860108912255873e-140,-6.002005573075299e-135
1.0,1.0,1.122616310913305e-144,-7.859996650624782e-140
0.0,1.0,2.0531158873955694e-150,-1.1226142577974176e-144
0.0,1.0,6.0239825568786295e-158,-2.053115827155744e-150
0.0,0.0,7.036493920330457e-165,-6.0239818532292376e-158
0.0,0.0,1.0653891510711328e-171,-7.036492854941306e-165
0.0,0.0,1.766033859128046e-178,-1.0653889744677468e-171
0.0,0.0,3.1930021994083925e-185,-1.766033539827826e-178
0.0,0.0,6.296165363030645e-192,-3.193001569791856e-185
0.0,0.0,1.3540332717020748e-198,-6.296164008997373e-192
0.0,0.0,3.1758417113836795e-205,-1.3540329541179036e-198
0.0,0.0,8.123901757495464e-212,-3.1758408989935037e-205
0.0,0.0,2.2664533231207343e-218,-8.123899491042141e-212
0.0,0.0,6.896132735065735e-225,-2.266452633507461e-218
0.0,0.0,2.288446411061904e-231,-6.896130446619324e-225
1.0,0.0,9.72423907213774e-239,-2.2884463138195132e-231
1.0,0.0,6.629162032931364e-248,-9.724239065508578e-239
1.0,1.0,1.799134353189591e-256,-6.629162014940021e-248
1.0,1.0,6.32918056694105e-265,-1.7991343468604105e-256
1.0,1.0,2.4376434266823295e-273,-6.329180542564616e-265
1.0,1.0,1.0240074941610905e-281,-2.4376434164422547e-273
1.0,1.0,4.6915251691380717e-290,-1.0240074894695653e-281
1.0,1.0,2.344235660887983e-298,-4.691525145695715e-290
1.0,1.0,1.2775126290604528e-306,-2.3442356481128567e-298
1.0,1.0,7.59285356e-315,-1.2775126214675993e-306
1.0,1.0,5e-323,-7.592853513e-315
1.0,1.0,0.0,-5e-323
1.0,1.0,0.0,0.0
0.0,1.0,0.0,0.0
0.0,1.0,0.0,0.0
0.0,0.0,0.0,0.0
0.0,0.0,0.0,0.0
0.0,0.0,0.0,0.0
0.0,0.0,0.0,0.0
0.0,0.0,0.0,0.0
0.0,0.0,0.0,0.0
0.0,0.0,0.0,0.0
0.0,0.0,0.0,0.0
0.0,0.0,0.0,0.0
0.0,0.0,0.0,0.0
0.0,0.0,0.0,0.0
1.0,0.0,0.0,0.0
1.0,0.0,0.0,0.0
1.0,1.0,0.0,0.0
1.0,1.0,0.0,0.0
1.0,1.0,0.0,0.0
1.0,1.0,0.0,0.0
1.0,1.0,0.0,0.0
1.0,1.0,0.0,0.0
1.0,1.0,0.0,0.0
1.0,1.0,0.0,0.0
1.0,1.0,0.0,0.0
1.0,1.0,0.0,0.0
1.0,1.0,0.0,0.0
0.0,1.0,0.0,0.0
0.0,1.0,0.0,0.0
0.0,0.0,0.0,0.0
0.0,0.0,0.0,0.0
0.0,0.0,0.0,0.0
0.0,0.0,0.0,0.0
0.0,0.0,0.0,0.0
0.0,0.0,0.0,0.0
0.0,0.0,0.0,0.0
0.0,0.0,0.0,0.0
0.0,0.0,0.0,0.0
0.0,0.0,0.0,0.0
0.0,0.0,0.0,0.0
1.0,0.0,0.0,0.0
1.0,0.0,0.0,0.0
1.0,1.0,0.0,0.0
1.0,1.0,0.0,0.0
1.0,1.0,0.0,0.0
1.0,1.0,0.0,0.0
1.0,1.0,0.0,0.0
1.0,1.0,0.0,0.0
1.0,1.0,0.0,0.0
1.0,1.0,0.0,0.0
1.0,1.0,0.0,0.0
1.0,1.0,0.0,0.0
1.0,1.0,0.0,0.0
0.0,1.0,0.0,0.0
0.0,1.0,0.0,0.0
0.0,0.0,0.0,0.0
0.0,0.0,0.0,0.0
0.0,0.0,0.0,0.0
0.0,0.0,0.0,0.0
0.0,0.0,0.0,0.0
0.0,0.0,0.0,0.0
0.0,0.0,0.0,0.0
0.0,0.0,0.0,0.0
0.0,0.0,0.0,0.0
0.0,0.0,0.0,0.0
0.0,0.0,0.0,0.0
1.0,0.0,0.0,0.0
1.0,0.0,0.0,0.0
1.0,1.0,0.0,0.0
1.0,1.0,0.0,0.0
1.0,1.0,0.0,0.0
1.0,1.0,0.0,0.0
1.0,1.0,0.0,0.0
1.0,1.0,0.0,0.0
1.0,1.0,0.0,0.0
1.0,1.0,0.0,0.0
1.0,1.0,0.0,0.0
1.0,1.0,0.0,0.0
1.0,1.0,0.0,0.0
0.0,1.0,0.0,0.0
0.0,1.0,0.0,0.0
0.0,0.0,0.0,0.0
0.0,0.0,0.0,0.0
0.0,0.0,0.0,0.0
0.0,0.0,0.0,0.0
0.0,0.0,0.0,0.0
0.0,0.0,0.0,0.0
0.0,0.0,0.0,0.0
0.0,0.0,0.0,0.0
0.0,0.0,0.0,0.0
0.0,0.0,0.0,0.0
0.0,0.0,0.0,0.0
1.0,0.0,0.0,0.0
1.0,0.0,0.0,0.0
1.0,1.0,0.0,0.0
1.0,1.0,0.0,0.0
1.0,1.0,0.0,0.0
1.0,1.0,0.0,0.0
1.0,1.0,0.0,0.0
1.0,1.0,0.0,0.0
1.0,1.0,0.0,0.0
1.0,1.0,0.0,0.0
1.0,1.0,0.0,0.0
1.0,1.0,0.0,0.0
1.0,1.0,0.0,0.0
0.0,1.0,0.0,0.0
0.0,1.0,0.0,0.0
0.0,0.0,0.0,0.0
0.0,0.0,0.0,0.0
0.0,0.0,0.0,0.0
0.0,0.0,0.0,0.0
0.0,0.0,0.0,0.0
0.0,0.0,0.0,0.0
0.0,0.0,0.0,0.0
0.0,0.0,0.0,0.0
0.0,0.0,0.0,0.0
0.0,0.0,0.0,0.0
0.0,0.0,0.0,0.0
1.0,0.0,0.0,0.0
1.0,0.0,0.0,0.0
1.0,1.0,0.0,0.0
1.0,1.0,0.0,0.0
1.0,1.0,0.0,0.0
1.0,1.0,0.0,0.0
1.0,1.0,0.0,0.0
1.0,1.0,0.0,0.0
1.0,1.0,0.0,0.0
1.0,1.0,0.0,0.0
1.0,1.0,0.0,0.0
1.0,1.0,0.0,0.0
1.0,1.0,0.0,0.0
0.0,1.0,0.0,0.0
0.0,1.0,0.0,0.0
0.0,0.0,0.0,0.0
0.0,0.0,0.0,0.0
0.0,0.0,0.0,0.0
0.0,0.0,0.0,0.0
0.0,0.0,0.0,0.0
0.0,0.0,0.0,0.0
0.0,0.0,0.0,0.0
0.0,0.0,0.0,0.0
0.0,0.0,0.0,0.0
0.0,0.0,0.0,0.0
0.0,0.0,0.0,0.0
1.0,0.0,0.0,0.0
1.0,0.0,0.0,0.0
1.0,1.0,0.0,0.0
1.0,1.0,0.0,0.0
1.0,1.0,0.0,0.0
1.0,1.0,0.0,0.0
1.0,1.0,0.0,0.0
1.0,1.0,0.0,0.0
1.0,1.0,0.0,0.0
1.0,1.0,0.0,0.0
1.0,1.0,0.0,0.0
1.0,1.0,0.0,0.0
1.0,1.0,0.0,0.0
0.0,1.0,0.0,0.0
0.0,1.0,0.0,0.0
0.0,0.0,0.0,0.0
0.0,0.0,0.0,0.0
0.0,0.0,0.0,0.0
0.0,0.0,0.0,0.0
0.0,0.0,0.0,0.0
0.0,0.0,0.0,0.0
0.0,0.0,0.0,0.0
0.0,0.0,0.0,0.0
0.0,0.0,0.0,0.0
0.0,0.0,0.0,0.0
0.0,0.0,0.0,0.0
