input_visual,input_tactile,prob_c1,slope
,,2.2955358196514122e-11,
1.0,0.0,1.3589407787954115e-12,-2.159641741771871e-11
1.0,1.0,4.79012469980561e-13,-8.799283088148505e-13
1.0,1.0,2.1325357233789617e-13,-2.6575889764266485e-13
0.0,0.0,7.975651171979752e-13,5.843115448600791e-13
0.0,0.0,4.209011943986102e-12,3.4114468267881267e-12
0.0,0.0,2.4338570151184836e-11,2.0129558207198736e-11
0.0,1.0,2.895431611402255e-11,4.615745962837715e-12
0.0,0.0,1.32853009765214e-10,1.0389869365119144e-10
1.0,1.0,3.5583720071252823e-09,3.4255189973600684e-09
1.0,1.0,1.2653646992619198e-07,1.229780979190667e-07
0.0,0.0,3.7745431962105766e-05,3.761889549217957e-05
1.0,1.0,0.022038144135147587,0.02200039870318548
0.0,1.0,0.5623586710151068,0.5403205268799592
0.0,0.0,0.994313581445934,0.4319549104308271
1.0,1.0,0.9999883878758148,0.00567480642988083
1.0,1.0,0.999999981318741,1.159344292622766e-05
1.0,0.0,0.9999999998526405,1.8533899526218534e-08
0.0,0.0,0.9999999999992966,1.4665602066088468e-10
0.0,1.0,0.9999999999999858,6.892264536872972e-13
0.0,0.0,1.0,1.4210854715202004e-14
1.0,1.0,1.0,0.0
1.0,1.0,1.0,0.0
1.0,1.0,1.0,0.0
0.0,1.0,1.0,0.0
1.0,1.0,1.0,0.0
1.0,0.0,1.0,0.0
0.0,1.0,1.0,0.0
0.0,0.0,1.0,0.0
0.0,0.0,1.0,0.0
1.0,0.0,1.0,0.0
1.0,0.0,1.0,0.0
0.0,0.0,1.0,0.0
0.0,0.0,1.0,0.0
1.0,0.0,1.0,0.0
1.0,1.0,1.0,0.0
1.0,0.0,0.9999999999999858,-1.4210854715202004e-14
1.0,0.0,0.9999999999949694,-5.016431714466307e-12
1.0,0.0,0.9999999212851836,-7.87097858001573e-08
0.0,0.0,0.9992666407468042,-0.0007332805383793994
0.0,1.0,0.031931210250831774,-0.9673354304959724
1.0,0.0,3.8530846786246964e-07,-0.03193082494236391
1.0,1.0,9.233323204290422e-12,-3.8529923453926534e-07
0.0,0.0,1.0063573687893201e-15,-9.232316846921633e-12
1.0,0.0,8.17942222993901e-21,-1.0063491893670902e-15
1.0,0.0,1.0198386552601374e-27,-8.179421210100355e-21
0.0,0.0,9.163708165832053e-34,-1.0198377388893208e-27
0.0,1.0,1.8583867496516302e-40,-9.163706307445303e-34
1.0,0.0,1.8181028906851507e-47,-1.858386567841341e-40
1.0,0.0,3.1396126586133517e-56,-1.8181028875455381e-47
1.0,0.0,9.40637538665249e-67,-3.139612658519288e-56
0.0,0.0,1.3569832442024363e-76,-9.406375385295506e-67
1.0,1.0,9.080959082794089e-86,-1.3569832432943403e-76
0.0,1.0,6.531635427622784e-96,-9.080959082140926e-86
0.0,0.0,1.0962268926938296e-105,-6.531635426526557e-96
1.0,1.0,6.758730048245483e-115,-1.0962268920179565e-105
0.0,0.0,1.322910502058447e-123,-6.758730035016378e-115
0.0,1.0,2.956791298808887e-133,-1.322910501762768e-123
0.0,1.0,1.630234715537335e-144,-2.9567912987925845e-133
1.0,1.0,1.4327759560317694e-155,-1.630234715523007e-144
0.0,1.0,8.643918553517092e-168,-1.432775956030905e-155
1.0,0.0,6.9175659112850916e-180,-8.643918553510175e-168
0.0,1.0,1.8016549915481883e-192,-6.91756591128329e-180
1.0,1.0,2.521818830277959e-204,-1.8016549915456665e-192
1.0,1.0,4.0783905717748895e-216,-2.5218188302738806e-204
0.0,1.0,8.398095390182787e-229,-4.0783905717740496e-216
0.0,1.0,2.7726762334756475e-243,-8.39809539018276e-229
1.0,0.0,1.5488657047585404e-257,-2.772676233475632e-243
0.0,1.0,2.5900552263757286e-272,-1.5488657047585378e-257
0.0,1.0,8.365162760025225e-289,-2.5900552263757286e-272
1.0,1.0,1.2617034875671523e-304,-8.365162760025223e-289
0.0,0.0,8.8467e-320,-1.2617034875671515e-304
0.0,1.0,0.0,-8.8467e-320
1.0,0.0,0.0,0.0
0.0,0.0,0.0,0.0
1.0,0.0,0.0,0.0
1.0,0.0,0.0,0.0
0.0,1.0,0.0,0.0
0.0,0.0,0.0,0.0
0.0,0.0,0.0,0.0
0.0,0.0,0.0,0.0
0.0,1.0,0.0,0.0
0.0,0.0,0.0,0.0
1.0,1.0,0.0,0.0
0.0,1.0,0.0,0.0
1.0,0.0,0.0,0.0
0.0,1.0,0.0,0.0
0.0,0.0,0.0,0.0
1.0,0.0,0.0,0.0
0.0,1.0,0.0,0.0
0.0,0.0,0.0,0.0
1.0,0.0,0.0,0.0
0.0,0.0,0.0,0.0
0.0,0.0,0.0,0.0
1.0,1.0,0.0,0.0
0.0,0.0,0.0,0.0
1.0,0.0,0.0,0.0
1.0,1.0,0.0,0.0
1.0,1.0,0.0,0.0
1.0,1.0,0.0,0.0
0.0,1.0,0.0,0.0
1.0,0.0,0.0,0.0
0.0,1.0,0.0,0.0
0.0,0.0,0.0,0.0
0.0,0.0,0.0,0.0
1.0,1.0,0.0,0.0
1.0,0.0,0.0,0.0
0.0,0.0,0.0,0.0
1.0,1.0,0.0,0.0
0.0,0.0,0.0,0.0
0.0,0.0,0.0,0.0
1.0,1.0,0.0,0.0
0.0,1.0,0.0,0.0
0.0,1.0,0.0,0.0
0.0,1.0,0.0,0.0
0.0,0.0,0.0,0.0
0.0,0.0,0.0,0.0
0.0,1.0,0.0,0.0
0.0,0.0,0.0,0.0
0.0,0.0,0.0,0.0
0.0,1.0,0.0,0.0
1.0,0.0,0.0,0.0
1.0,1.0,0.0,0.0
0.0,1.0,0.0,0.0
0.0,0.0,0.0,0.0
1.0,1.0,0.0,0.0
0.0,1.0,0.0,0.0
0.0,0.0,0.0,0.0
1.0,1.0,0.0,0.0
0.0,1.0,0.0,0.0
0.0,1.0,0.0,0.0
1.0,1.0,0.0,0.0
1.0,0.0,0.0,0.0
0.0,0.0,0.0,0.0
1.0,0.0,0.0,0.0
1.0,1.0,0.0,0.0
1.0,0.0,0.0,0.0
0.0,1.0,0.0,0.0
1.0,1.0,0.0,0.0
0.0,1.0,0.0,0.0
1.0,0.0,0.0,0.0
1.0,0.0,0.0,0.0
0.0,1.0,0.0,0.0
0.0,0.0,0.0,0.0
1.0,0.0,0.0,0.0
1.0,0.0,0.0,0.0
0.0,1.0,0.0,0.0
1.0,1.0,0.0,0.0
0.0,0.0,0.0,0.0
0.0,0.0,0.0,0.0
0.0,1.0,0.0,0.0
1.0,1.0,0.0,0.0
1.0,0.0,0.0,0.0
0.0,0.0,0.0,0.0
1.0,0.0,0.0,0.0
1.0,0.0,0.0,0.0
1.0,0.0,0.0,0.0
1.0,1.0,0.0,0.0
1.0,1.0,0.0,0.0
1.0,1.0,0.0,0.0
0.0,0.0,0.0,0.0
1.0,1.0,0.0,0.0
1.0,0.0,0.0,0.0
0.0,0.0,0.0,0.0
1.0,0.0,0.0,0.0
1.0,0.0,0.0,0.0
0.0,1.0,0.0,0.0
0.0,1.0,0.0,0.0
1.0,1.0,0.0,0.0
1.0,1.0,0.0,0.0
0.0,0.0,0.0,0.0
1.0,0.0,0.0,0.0
1.0,0.0,0.0,0.0
1.0,0.0,0.0,0.0
1.0,1.0,0.0,0.0
1.0,0.0,0.0,0.0
1.0,0.0,0.0,0.0
0.0,1.0,0.0,0.0
0.0,0.0,0.0,0.0
1.0,0.0,0.0,0.0
0.0,0.0,0.0,0.0
1.0,0.0,0.0,0.0
0.0,1.0,0.0,0.0
1.0,1.0,0.0,0.0
1.0,1.0,0.0,0.0
0.0,1.0,0.0,0.0
1.0,0.0,0.0,0.0
1.0,0.0,0.0,0.0
0.0,1.0,0.0,0.0
1.0,0.0,0.0,0.0
0.0,1.0,0.0,0.0
1.0,1.0,0.0,0.0
1.0,1.0,0.0,0.0
0.0,1.0,0.0,0.0
1.0,0.0,0.0,0.0
1.0,1.0,0.0,0.0
0.0,0.0,0.0,0.0
0.0,1.0,0.0,0.0
1.0,0.0,0.0,0.0
0.0,1.0,0.0,0.0
1.0,1.0,0.0,0.0
0.0,0.0,0.0,0.0
0.0,0.0,0.0,0.0
1.0,1.0,0.0,0.0
1.0,0.0,0.0,0.0
1.0,1.0,0.0,0.0
0.0,0.0,0.0,0.0
1.0,1.0,0.0,0.0
0.0,0.0,0.0,0.0
0.0,0.0,0.0,0.0
1.0,0.0,0.0,0.0
0.0,1.0,0.0,0.0
1.0,1.0,0.0,0.0
0.0,0.0,0.0,0.0
1.0,0.0,0.0,0.0
0.0,0.0,0.0,0.0
1.0,0.0,0.0,0.0
1.0,1.0,0.0,0.0
1.0,0.0,0.0,0.0
0.0,1.0,0.0,0.0
1.0,1.0,0.0,0.0
1.0,1.0,0.0,0.0
0.0,0.0,0.0,0.0
0.0,1.0,0.0,0.0
0.0,0.0,0.0,0.0
1.0,1.0,0.0,0.0
1.0,1.0,0.0,0.0
0.0,1.0,0.0,0.0
1.0,0.0,0.0,0.0
1.0,1.0,0.0,0.0
0.0,1.0,0.0,0.0
1.0,1.0,0.0,0.0
0.0,1.0,0.0,0.0
0.0,1.0,0.0,0.0
1.0,1.0,0.0,0.0
