input_visual,input_tactile,prob_c1,slope
,,2.2955358196514122e-11,
0.0,0.0,4.4551219386028205e-11,2.1595861189514084e-11
0.0,0.0,9.661830922358224e-11,5.2067089837554033e-11
1.0,1.0,1.8033509542868663e-09,1.7067326450632841e-09
1.0,0.0,3.16182159465239e-09,1.3584706403655238e-09
0.0,1.0,4.347548472384871e-09,1.1857268777324808e-09
0.0,1.0,1.1106724627063435e-10,-4.236481226114236e-09
1.0,1.0,1.8670061864660714e-11,-9.239718440597364e-11
0.0,1.0,2.1627545853363276e-13,-1.8453786406127082e-11
1.0,1.0,1.621178995581952e-14,-2.0006366857781323e-13
0.0,1.0,9.841803307126381e-17,-1.6113371922748258e-14
0.0,0.0,1.4131113612935303e-18,-9.700492170997027e-17
0.0,0.0,2.630429124308152e-20,-1.3868070700504488e-18
0.0,0.0,5.360688765307858e-22,-2.5768222366550736e-20
0.0,1.0,2.2475209329569128e-24,-5.338213555978288e-22
1.0,1.0,1.5625372302403952e-26,-2.231895560654509e-24
0.0,0.0,4.933761256894302e-28,-1.5131996176714521e-26
0.0,0.0,2.0910901171535346e-29,-4.724652245178948e-28
0.0,0.0,9.705687010921193e-31,-1.9940332470443227e-29
0.0,1.0,9.267919039098587e-33,-9.613007820530208e-31
0.0,0.0,3.4133010851356683e-34,-8.926588930585021e-33
1.0,0.0,1.702025404838105e-36,-3.3962808310872872e-34
1.0,1.0,2.0653729765360237e-38,-1.681371675072745e-36
0.0,1.0,3.7733700978534034e-41,-2.0615996064381702e-38
0.0,1.0,1.109860683878181e-45,-3.773259111785016e-41
1.0,0.0,5.516364113270485e-50,-1.1098055202370484e-45
0.0,1.0,8.215168501284696e-55,-5.516281961585473e-50
0.0,1.0,2.364057596184947e-61,-8.2151661372271e-55
0.0,1.0,1.3199509206773815e-69,-2.3640575829854377e-61
0.0,0.0,5.50715273299576e-77,-1.3199508656058542e-69
0.0,0.0,2.9788816697218266e-84,-5.5071524351075934e-77
1.0,0.0,2.07120200307006e-92,-2.9788816490098065e-84
0.0,1.0,1.4516600947495544e-100,-2.071201988553459e-92
1.0,1.0,1.8102380344656036e-108,-1.4516600766471741e-100
1.0,1.0,2.6250481812565844e-116,-1.8102380082151217e-108
0.0,1.0,4.844720461652255e-125,-2.625048176411864e-116
1.0,0.0,9.047981058427694e-134,-4.844720452604274e-125
1.0,1.0,6.324101816242702e-142,-9.047980995186675e-134
1.0,0.0,6.152435554249689e-151,-6.3241018100902665e-142
1.0,0.0,1.5189107301702023e-161,-6.152435554097798e-151
1.0,0.0,8.500558940791286e-174,-1.5189107301693522e-161
0.0,0.0,7.980858437829755e-186,-8.500558940783305e-174
1.0,0.0,5.142760792699859e-199,-7.98085843782924e-186
0.0,1.0,4.3962239378929994e-212,-5.142760792699419e-199
1.0,1.0,6.020932080783163e-225,-4.3962239378923973e-212
1.0,1.0,9.516705484966334e-238,-6.020932080782212e-225
1.0,0.0,3.0962676919493633e-251,-9.516705484966024e-238
0.0,1.0,4.9074849551755277e-265,-3.096267691949314e-251
0.0,0.0,1.593222638404828e-278,-4.9074849551753685e-265
0.0,0.0,6.276251635755295e-292,-1.5932226384047654e-278
1.0,1.0,2.0936009083490703e-304,-6.276251635753201e-292
0.0,1.0,5.679744e-318,-2.0936009083490137e-304
1.0,1.0,0.0,-5.679744e-318
1.0,1.0,0.0,0.0
1.0,0.0,0.0,0.0
1.0,0.0,0.0,0.0
1.0,0.0,0.0,0.0
0.0,0.0,0.0,0.0
0.0,0.0,0.0,0.0
1.0,0.0,0.0,0.0
1.0,1.0,0.0,0.0
1.0,0.0,0.0,0.0
1.0,1.0,0.0,0.0
0.0,0.0,0.0,0.0
0.0,0.0,0.0,0.0
0.0,1.0,0.0,0.0
1.0,1.0,0.0,0.0
1.0,1.0,0.0,0.0
0.0,1.0,0.0,0.0
0.0,0.0,0.0,0.0
1.0,1.0,0.0,0.0
0.0,0.0,0.0,0.0
0.0,1.0,0.0,0.0
0.0,1.0,0.0,0.0
0.0,0.0,0.0,0.0
0.0,0.0,0.0,0.0
0.0,0.0,0.0,0.0
1.0,0.0,0.0,0.0
0.0,1.0,0.0,0.0
1.0,0.0,0.0,0.0
1.0,1.0,0.0,0.0
0.0,1.0,0.0,0.0
1.0,0.0,0.0,0.0
0.0,1.0,0.0,0.0
0.0,1.0,0.0,0.0
0.0,1.0,0.0,0.0
0.0,1.0,0.0,0.0
1.0,0.0,0.0,0.0
0.0,1.0,0.0,0.0
0.0,0.0,0.0,0.0
0.0,0.0,0.0,0.0
1.0,0.0,0.0,0.0
0.0,1.0,0.0,0.0
1.0,1.0,0.0,0.0
0.0,1.0,0.0,0.0
1.0,1.0,0.0,0.0
1.0,0.0,0.0,0.0
1.0,0.0,0.0,0.0
0.0,0.0,0.0,0.0
1.0,1.0,0.0,0.0
1.0,1.0,0.0,0.0
1.0,1.0,0.0,0.0
0.0,1.0,0.0,0.0
0.0,0.0,0.0,0.0
0.0,1.0,0.0,0.0
1.0,0.0,0.0,0.0
0.0,0.0,0.0,0.0
0.0,1.0,0.0,0.0
0.0,1.0,0.0,0.0
1.0,0.0,0.0,0.0
0.0,1.0,0.0,0.0
0.0,1.0,0.0,0.0
1.0,0.0,0.0,0.0
0.0,0.0,0.0,0.0
0.0,0.0,0.0,0.0
0.0,1.0,0.0,0.0
0.0,0.0,0.0,0.0
0.0,1.0,0.0,0.0
1.0,1.0,0.0,0.0
1.0,1.0,0.0,0.0
1.0,0.0,0.0,0.0
0.0,1.0,0.0,0.0
1.0,1.0,0.0,0.0
0.0,1.0,0.0,0.0
1.0,0.0,0.0,0.0
0.0,1.0,0.0,0.0
0.0,0.0,0.0,0.0
1.0,1.0,0.0,0.0
1.0,0.0,0.0,0.0
0.0,1.0,0.0,0.0
1.0,0.0,0.0,0.0
1.0,1.0,0.0,0.0
0.0,0.0,0.0,0.0
0.0,0.0,0.0,0.0
0.0,0.0,0.0,0.0
1.0,0.0,0.0,0.0
0.0,0.0,0.0,0.0
0.0,0.0,0.0,0.0
1.0,0.0,0.0,0.0
1.0,0.0,0.0,0.0
0.0,1.0,0.0,0.0
1.0,0.0,0.0,0.0
1.0,1.0,0.0,0.0
0.0,1.0,0.0,0.0
1.0,0.0,0.0,0.0
0.0,1.0,0.0,0.0
1.0,1.0,0.0,0.0
1.0,0.0,0.0,0.0
0.0,1.0,0.0,0.0
0.0,1.0,0.0,0.0
1.0,0.0,0.0,0.0
0.0,1.0,0.0,0.0
0.0,0.0,0.0,0.0
0.0,1.0,0.0,0.0
1.0,1.0,0.0,0.0
1.0,1.0,0.0,0.0
1.0,0.0,0.0,0.0
0.0,0.0,0.0,0.0
0.0,0.0,0.0,0.0
0.0,1.0,0.0,0.0
1.0,1.0,0.0,0.0
1.0,0.0,0.0,0.0
1.0,1.0,0.0,0.0
0.0,1.0,0.0,0.0
0.0,0.0,0.0,0.0
1.0,0.0,0.0,0.0
0.0,1.0,0.0,0.0
1.0,0.0,0.0,0.0
0.0,0.0,0.0,0.0
1.0,0.0,0.0,0.0
1.0,0.0,0.0,0.0
0.0,1.0,0.0,0.0
0.0,0.0,0.0,0.0
1.0,0.0,0.0,0.0
0.0,0.0,0.0,0.0
1.0,0.0,0.0,0.0
1.0,0.0,0.0,0.0
1.0,1.0,0.0,0.0
0.0,0.0,0.0,0.0
0.0,1.0,0.0,0.0
1.0,0.0,0.0,0.0
1.0,0.0,0.0,0.0
0.0,0.0,0.0,0.0
1.0,1.0,0.0,0.0
0.0,0.0,0.0,0.0
1.0,1.0,0.0,0.0
0.0,1.0,0.0,0.0
1.0,1.0,0.0,0.0
1.0,0.0,0.0,0.0
1.0,0.0,0.0,0.0
1.0,0.0,0.0,0.0
0.0,1.0,0.0,0.0
1.0,1.0,0.0,0.0
1.0,0.0,0.0,0.0
0.0,1.0,0.0,0.0
0.0,0.0,0.0,0.0
0.0,1.0,0.0,0.0
1.0,0.0,0.0,0.0
0.0,1.0,0.0,0.0
1.0,1.0,0.0,0.0
1.0,0.0,0.0,0.0
0.0,1.0,0.0,0.0
0.0,0.0,0.0,0.0
1.0,1.0,0.0,0.0
0.0,0.0,0.0,0.0
1.0,1.0,0.0,0.0
0.0,1.0,0.0,0.0
0.0,0.0,0.0,0.0
1.0,1.0,0.0,0.0
1.0,0.0,0.0,0.0
1.0,0.0,0.0,0.0
0.0,0.0,0.0,0.0
1.0,1.0,0.0,0.0
1.0,0.0,0.0,0.0
1.0,0.0,0.0,0.0
1.0,0.0,0.0,0.0
1.0,1.0,0.0,0.0
0.0,1.0,0.0,0.0
0.0,1.0,0.0,0.0
0.0,1.0,0.0,0.0
0.0,1.0,0.0,0.0
0.0,1.0,0.0,0.0
1.0,1.0,0.0,0.0
0.0,1.0,0.0,0.0
0.0,0.0,0.0,0.0
1.0,1.0,0.0,0.0
0.0,0.0,0.0,0.0
1.0,0.0,0.0,0.0
1.0,1.0,0.0,0.0
1.0,0.0,0.0,0.0
0.0,0.0,0.0,0.0
0.0,1.0,0.0,0.0
1.0,0.0,0.0,0.0
1.0,0.0,0.0,0.0
0.0,0.0,0.0,0.0
