input_visual,input_tactile,prob_c1,slope
,,2.2955358196514122e-11,
1.0,0.0,1.3589407787954115e-12,-2.159641741771871e-11
1.0,0.0,1.6385579249241474e-15,-1.3573022208704873e-12
1.0,0.0,4.1585055385584194e-20,-1.6385163398687619e-15
1.0,1.0,8.789391966821554e-24,-4.1576265993617374e-20
1.0,1.0,2.408593729792542e-27,-8.786983373091762e-24
1.0,1.0,7.2261757928098105e-31,-2.407871112213261e-27
1.0,1.0,2.3646401123204104e-34,-7.2238111526974905e-31
1.0,1.0,8.439177289043818e-38,-2.363796194591506e-34
1.0,1.0,3.284831341339957e-41,-8.435892457702477e-38
1.0,1.0,1.3944532150438558e-44,-3.2834368881249133e-41
1.0,1.0,6.456135305394326e-48,-1.3938076015133165e-44
1.0,1.0,3.2600112796452354e-51,-6.452875294114681e-48
1.0,1.0,1.7953262684035415e-54,-3.258215953376832e-51
0.0,1.0,1.2660466010622223e-58,-1.7951996637434354e-54
0.0,1.0,1.4323381975358382e-64,-1.2660451687240248e-58
0.0,1.0,2.7003572384192947e-72,-1.4323381705322658e-64
0.0,0.0,2.907423763508078e-79,-2.7003569476769185e-72
0.0,0.0,4.058238243395783e-86,-2.9074233576842537e-79
0.0,0.0,6.201652233534283e-93,-4.05823762323056e-86
0.0,0.0,1.0336873458966677e-99,-6.2016511998469365e-93
0.0,0.0,1.8790968155606975e-106,-1.033687157986986e-99
0.0,0.0,3.725523259888238e-113,-1.8790964430083716e-106
0.0,0.0,8.05570909652759e-120,-3.7255224543173284e-113
0.0,0.0,1.8997586748415124e-126,-8.055707196768914e-120
0.0,0.0,4.886200273233942e-133,-1.899758186221485e-126
0.0,0.0,1.3706363864032165e-139,-4.886198902597555e-133
1.0,0.0,4.9232836693722226e-147,-1.37063633717038e-139
1.0,0.0,2.837106172833628e-156,-4.9232836665351167e-147
1.0,0.0,2.724440491635931e-167,-2.837106172806383e-156
1.0,1.0,1.49413879936677e-177,-2.7244404914865172e-167
1.0,1.0,1.0622921161238058e-187,-1.4941387992605408e-177
1.0,1.0,8.26867220760205e-198,-1.0622921160411191e-187
1.0,1.0,7.019998658252e-208,-8.26867220690005e-198
1.0,1.0,6.500024578412922e-218,-7.019998657601998e-208
1.0,1.0,6.564016813438197e-228,-6.500024577756521e-218
1.0,1.0,7.229373667321842e-238,-6.56401681271526e-228
1.0,1.0,8.683763019378887e-248,-7.229373666453466e-238
1.0,1.0,1.1376051651290308e-257,-8.683763018241281e-248
1.0,1.0,1.6253670433228452e-267,-1.137605164966494e-257
0.0,1.0,2.9736556481226474e-278,-1.6253670432931086e-267
0.0,1.0,8.728066119160426e-291,-2.9736556481217744e-278
0.0,1.0,4.269002295427596e-305,-8.728066119160383e-291
0.0,0.0,1.19247e-318,-4.2690022954274767e-305
0.0,0.0,0.0,-1.19247e-318
0.0,0.0,0.0,0.0
0.0,0.0,0.0,0.0
0.0,0.0,0.0,0.0
0.0,0.0,0.0,0.0
0.0,0.0,0.0,0.0
0.0,0.0,0.0,0.0
0.0,0.0,0.0,0.0
0.0,0.0,0.0,0.0
1.0,0.0,0.0,0.0
1.0,0.0,0.0,0.0
1.0,0.0,0.0,0.0
1.0,1.0,0.0,0.0
1.0,1.0,0.0,0.0
1.0,1.0,0.0,0.0
1.0,1.0,0.0,0.0
1.0,1.0,0.0,0.0
1.0,1.0,0.0,0.0
1.0,1.0,0.0,0.0
1.0,1.0,0.0,0.0
1.0,1.0,0.0,0.0
1.0,1.0,0.0,0.0
0.0,1.0,0.0,0.0
0.0,1.0,0.0,0.0
0.0,1.0,0.0,0.0
0.0,0.0,0.0,0.0
0.0,0.0,0.0,0.0
0.0,0.0,0.0,0.0
0.0,0.0,0.0,0.0
0.0,0.0,0.0,0.0
0.0,0.0,0.0,0.0
0.0,0.0,0.0,0.0
0.0,0.0,0.0,0.0
0.0,0.0,0.0,0.0
0.0,0.0,0.0,0.0
1.0,0.0,0.0,0.0
1.0,0.0,0.0,0.0
1.0,0.0,0.0,0.0
1.0,1.0,0.0,0.0
1.0,1.0,0.0,0.0
1.0,1.0,0.0,0.0
1.0,1.0,0.0,0.0
1.0,1.0,0.0,0.0
1.0,1.0,0.0,0.0
1.0,1.0,0.0,0.0
1.0,1.0,0.0,0.0
1.0,1.0,0.0,0.0
1.0,1.0,0.0,0.0
0.0,1.0,0.0,0.0
0.0,1.0,0.0,0.0
0.0,1.0,0.0,0.0
0.0,0.0,0.0,0.0
0.0,0.0,0.0,0.0
0.0,0.0,0.0,0.0
0.0,0.0,0.0,0.0
0.0,0.0,0.0,0.0
0.0,0.0,0.0,0.0
0.0,0.0,0.0,0.0
0.0,0.0,0.0,0.0
0.0,0.0,0.0,0.0
0.0,0.0,0.0,0.0
1.0,0.0,0.0,0.0
1.0,0.0,0.0,0.0
1.0,0.0,0.0,0.0
1.0,1.0,0.0,0.0
1.0,1.0,0.0,0.0
1.0,1.0,0.0,0.0
1.0,1.0,0.0,0.0
1.0,1.0,0.0,0.0
1.0,1.0,0.0,0.0
1.0,1.0,0.0,0.0
1.0,1.0,0.0,0.0
1.0,1.0,0.0,0.0
1.0,1.0,0.0,0.0
0.0,1.0,0.0,0.0
0.0,1.0,0.0,0.0
0.0,1.0,0.0,0.0
0.0,0.0,0.0,0.0
0.0,0.0,0.0,0.0
0.0,0.0,0.0,0.0
0.0,0.0,0.0,0.0
0.0,0.0,0.0,0.0
0.0,0.0,0.0,0.0
0.0,0.0,0.0,0.0
0.0,0.0,0.0,0.0
0.0,0.0,0.0,0.0
0.0,0.0,0.0,0.0
1.0,0.0,0.0,0.0
1.0,0.0,0.0,0.0
1.0,0.0,0.0,0.0
1.0,1.0,0.0,0.0
1.0,1.0,0.0,0.0
1.0,1.0,0.0,0.0
1.0,1.0,0.0,0.0
1.0,1.0,0.0,0.0
1.0,1.0,0.0,0.0
1.0,1.0,0.0,0.0
1.0,1.0,0.0,0.0
1.0,1.0,0.0,0.0
1.0,1.0,0.0,0.0
0.0,1.0,0.0,0.0
0.0,1.0,0.0,0.0
0.0,1.0,0.0,0.0
0.0,0.0,0.0,0.0
0.0,0.0,0.0,0.0
0.0,0.0,0.0,0.0
0.0,0.0,0.0,0.0
0.0,0.0,0.0,0.0
0.0,0.0,0.0,0.0
0.0,0.0,0.0,0.0
0.0,0.0,0.0,0.0
0.0,0.0,0.0,0.0
0.0,0.0,0.0,0.0
1.0,0.0,0.0,0.0
1.0,0.0,0.0,0.0
1.0,0.0,0.0,0.0
1.0,1.0,0.0,0.0
1.0,1.0,0.0,0.0
1.0,1.0,0.0,0.0
1.0,1.0,0.0,0.0
1.0,1.0,0.0,0.0
1.0,1.0,0.0,0.0
1.0,1.0,0.0,0.0
1.0,1.0,0.0,0.0
1.0,1.0,0.0,0.0
1.0,1.0,0.0,0.0
0.0,1.0,0.0,0.0
0.0,1.0,0.0,0.0
0.0,1.0,0.0,0.0
0.0,0.0,0.0,0.0
0.0,0.0,0.0,0.0
0.0,0.0,0.0,0.0
0.0,0.0,0.0,0.0
0.0,0.0,0.0,0.0
0.0,0.0,0.0,0.0
0.0,0.0,0.0,0.0
0.0,0.0,0.0,0.0
0.0,0.0,0.0,0.0
0.0,0.0,0.0,0.0
1.0,0.0,0.0,0.0
1.0,0.0,0.0,0.0
1.0,0.0,0.0,0.0
1.0,1.0,0.0,0.0
1.0,1.0,0.0,0.0
1.0,1.0,0.0,0.0
1.0,1.0,0.0,0.0
1.0,1.0,0.0,0.0
1.0,1.0,0.0,0.0
1.0,1.0,0.0,0.0
1.0,1.0,0.0,0.0
1.0,1.0,0.0,0.0
1.0,1.0,0.0,0.0
0.0,1.0,0.0,0.0
0.0,1.0,0.0,0.0
0.0,1.0,0.0,0.0
0.0,0.0,0.0,0.0
0.0,0.0,0.0,0.0
0.0,0.0,0.0,0.0
0.0,0.0,0.0,0.0
0.0,0.0,0.0,0.0
0.0,0.0,0.0,0.0
0.0,0.0,0.0,0.0
0.0,0.0,0.0,0.0
0.0,0.0,0.0,0.0
0.0,0.0,0.0,0.0
1.0,0.0,0.0,0.0
1.0,0.0,0.0,0.0
1.0,0.0,0.0,0.0
1.0,1.0,0.0,0.0
1.0,1.0,0.0,0.0
1.0,1.0,0.0,0.0
1.0,1.0,0.0,0.0
1.0,1.0,0.0,0.0
1.0,1.0,0.0,0.0
1.0,1.0,0.0,0.0
1.0,1.0,0.0,0.0
1.0,1.0,0.0,0.0
1.0,1.0,0.0,0.0
0.0,1.0,0.0,0.0
0.0,1.0,0.0,0.0
0.0,1.0,0.0,0.0
0.0,0.0,0.0,0.0
0.0,0.0,0.0,0.0
0.0,0.0,0.0,0.0
0.0,0.0,0.0,0.0
0.0,0.0,0.0,0.0
0.0,0.0,0.0,0.0
0.0,0.0,0.0,0.0
0.0,0.0,0.0,0.0
0.0,0.0,0.0,0.0
0.0,0.0,0.0,0.0
