{
  "synch": {
    "name": "synch",
    "mean": [
      -1.6094379124341003,
      -1.11875170329913,
      -0.6680100249753833,
      -0.3376364467739992,
      -0.14464410624921897,
      -0.05381863872830439,
      -0.017852322768498796,
      -0.005365854769334488,
      -0.001472429543146303,
      -0.0003699523448559283,
      -0.00008519253464300824,
      -0.000017985900901074103,
      -3.4815577638624973e-6,
      -6.179233111858196e-7,
      -1.2695499762571671e-8,
      -1.837738849985726e-10,
      -2.4273916210404423e-12,
      -2.930988785010413e-14,
      0.0,
      0.0,
      0.0,
      0.0,
      0.0,
      0.0,
      0.0,
      0.0,
      0.0,
      0.0,
      0.0,
      0.0,
      0.0,
      0.0,
      0.0,
      0.0,
      0.0,
      0.0,
      0.0,
      0.0,
      0.0,
      0.0,
      0.0,
      0.0,
      0.0,
      0.0,
      0.0,
      0.0,
      0.0,
      0.0,
      0.0,
      0.0,
      0.0,
      0.0,
      0.0,
      0.0,
      0.0,
      0.0,
      0.0,
      0.0,
      0.0,
      0.0,
      0.0,
      0.0,
      0.0,
      0.0,
      0.0,
      0.0,
      0.0,
      0.0,
      0.0,
      0.0,
      0.0,
      0.0,
      0.0,
      0.0,
      0.0,
      0.0,
      0.0,
      0.0,
      0.0,
      0.0,
      0.0,
      0.0,
      0.0,
      0.0,
      0.0,
      0.0,
      0.0,
      0.0,
      0.0,
      0.0,
      0.0,
      0.0,
      0.0,
      0.0,
      0.0,
      0.0,
      0.0,
      0.0,
      0.0,
      0.0,
      0.0,
      0.0,
      0.0,
      0.0,
      0.0,
      0.0,
      0.0,
      0.0,
      0.0,
      0.0,
      0.0,
      0.0,
      0.0,
      0.0,
      0.0,
      0.0,
      0.0,
      0.0,
      0.0,
      0.0,
      0.0,
      0.0,
      0.0,
      0.0,
      0.0,
      0.0,
      0.0,
      0.0,
      0.0,
      0.0,
      0.0,
      0.0,
      0.0,
      0.0,
      0.0,
      0.0,
      0.0,
      0.0,
      0.0,
      0.0,
      0.0,
      0.0,
      0.0,
      0.0,
      0.0,
      0.0,
      0.0,
      0.0,
      0.0,
      0.0,
      0.0,
      0.0,
      0.0,
      0.0,
      0.0,
      0.0,
      0.0,
      0.0,
      0.0,
      0.0,
      0.0,
      0.0,
      0.0,
      0.0,
      0.0,
      0.0,
      0.0,
      0.0,
      0.0,
      0.0,
      0.0,
      0.0,
      0.0,
      0.0,
      0.0,
      0.0,
      0.0,
      0.0,
      0.0,
      0.0,
      0.0,
      0.0,
      0.0,
      0.0,
      0.0,
      0.0,
      0.0,
      0.0,
      0.0,
      0.0,
      0.0,
      0.0,
      0.0,
      0.0,
      0.0,
      0.0,
      0.0,
      0.0,
      0.0,
      0.0,
      0.0,
      0.0,
      0.0,
      0.0,
      0.0,
      0.0,
      0.0,
      0.0,
      0.0,
      0.0,
      0.0,
      0.0,
      0.0,
      0.0,
      0.0,
      0.0,
      0.0,
      0.0,
      0.0,
      0.0,
      0.0,
      0.0,
      0.0,
      0.0,
      0.0,
      0.0,
      0.0,
      0.0,
      0.0,
      0.0,
      0.0,
      0.0,
      0.0,
      0.0,
      0.0
    ],
    "is_0": [
      false,
      false,
      false,
      false,
      false,
      false,
      false,
      false,
      false,
      false,
      false,
      false,
      false,
      false,
      false,
      false,
      false,
      false,
      true,
      true,
      true,
      true,
      true,
      true,
      true,
      true,
      true,
      true,
      true,
      true,
      true,
      true,
      true,
      true,
      true,
      true,
      true,
      true,
      true,
      true,
      true,
      true,
      true,
      true,
      true,
      true,
      true,
      true,
      true,
      true,
      true,
      true,
      true,
      true,
      true,
      true,
      true,
      true,
      true,
      true,
      true,
      true,
      true,
      true,
      true,
      true,
      true,
      true,
      true,
      true,
      true,
      true,
      true,
      true,
      true,
      true,
      true,
      true,
      true,
      true,
      true,
      true,
      true,
      true,
      true,
      true,
      true,
      true,
      true,
      true,
      true,
      true,
      true,
      true,
      true,
      true,
      true,
      true,
      true,
      true,
      true,
      true,
      true,
      true,
      true,
      true,
      true,
      true,
      true,
      true,
      true,
      true,
      true,
      true,
      true,
      true,
      true,
      true,
      true,
      true,
      true,
      true,
      true,
      true,
      true,
      true,
      true,
      true,
      true,
      true,
      true,
      true,
      true,
      true,
      true,
      true,
      true,
      true,
      true,
      true,
      true,
      true,
      true,
      true,
      true,
      true,
      true,
      true,
      true,
      true,
      true,
      true,
      true,
      true,
      true,
      true,
      true,
      true,
      true,
      true,
      true,
      true,
      true,
      true,
      true,
      true,
      true,
      true,
      true,
      true,
      true,
      true,
      true,
      true,
      true,
      true,
      true,
      true,
      true,
      true,
      true,
      true,
      true,
      true,
      true,
      true,
      true,
      true,
      true,
      true,
      true,
      true,
      true,
      true,
      true,
      true,
      true,
      true,
      true,
      true,
      true,
      true,
      true,
      true,
      true,
      true,
      true,
      true,
      true,
      true,
      true,
      true,
      true,
      true,
      true,
      true,
      true,
      true,
      true,
      true,
      true,
      true,
      true,
      true,
      true,
      true,
      true,
      true,
      true,
      true,
      true,
      true,
      true,
      true,
      true
    ]
  },
  "asynch": {
    "name": "asynch",
    "mean": [
      -1.6094379124341003,
      -4.2278315582945964,
      -10.93380232594329,
      -15.609892590342147,
      -20.026935217961782,
      -24.35340833285661,
      -28.593047495847753,
      -32.745928641324674,
      -36.81205343819204,
      -40.791421648030905,
      -44.68403303242269,
      -48.48988806820455,
      -52.208986755376486,
      -55.8413290939385,
      -61.529002185826926,
      -71.34914970017019,
      -79.78774165726247,
      -87.96687745667043,
      -96.05542754746023,
      -104.05714273071828,
      -111.97209882355276,
      -119.80029964066091,
      -127.54174327469411,
      -135.1964292488152,
      -142.76435803986135,
      -150.24552964783254,
      -157.63994407272878,
      -167.08968829727712,
      -180.67190551376882,
      -192.87256812668386,
      -204.8137731514031,
      -216.66439151382986,
      -228.42817496872487,
      -240.10519885635915,
      -251.695464130407,
      -263.1989698371941,
      -274.6157169303948,
      -285.94570541000905,
      -297.1889371833855,
      -308.34541606522146,
      -321.55722999191823,
      -338.90152072525564,
      -354.86425494766775,
      -370.5675353965813,
      -386.1802349052483,
      -401.70610522842946,
      -417.1452217063958,
      -432.49758529282155,
      -447.7631959877068,
      -462.94205379105153,
      -478.03415870285573,
      -493.0395097694451,
      -507.9581079444939,
      -524.9320402107293,
      -546.0384492836052,
      -565.7633027992302,
      -585.228703495031,
      -604.6035232505852,
      -623.891511913305,
      -643.0927438697869,
      -662.2072229347283,
      -681.2349481544549,
      -700.1759214363152,
      -719.0301427803093,
      -737.7976121864373,
      -756.478329654699,
      -777.2143812141472,
      -802.0829095802361,
      -825.5698881111199,
      -848.7974195442254,
      -871.9343671760613,
      -894.9844808540398,
      -917.9478368721062,
      -940.8244371376092,
      -963.6142816505486,
      -986.3173704109245,
      -1008.933703418737,
      -1031.463280673986,
      -1053.9061021766715,
      -1078.4042539558463,
      -1107.034886356359,
      -1134.2839612922721,
      -1161.273589130407,
      -1188.1726331672721,
      -1214.98484325028,
      -1241.7102956733756,
      -1268.3489923439079,
      -1294.9009332618766,
      -1321.366118427282,
      -1347.7445478401237,
      -1374.036221500402,
      -1400.2411375007682,
      -1428.5013837776237,
      -1460.894110675817,
      -1491.9052801094108,
      -1522.6570024452262,
      -1553.3181409797721,
      -1583.8924455604606,
      -1614.379992481237,
      -1644.7807836494499,
      -1675.0948190650993,
      -1705.3220987281852,
      -1735.4626226387077,
      -1765.5163907966667,
      -1795.4834032020622,
      -1827.505745883947,
      -1863.6605691871696,
      -1898.433833118444,
      -1932.9476461372428,
      -1967.3708753547721,
      -2001.7072668037467,
      -2035.9569005928092,
      -2070.1197767219596,
      -2104.195895191198,
      -2138.185256000524,
      -2172.087859149938,
      -2205.90370463944,
      -2239.63279246903,
      -2275.417204853063,
      -2315.334082599645,
      -2353.869406696325,
      -2392.145274158483,
      -2430.3305540046745,
      -2468.428992267614,
      -2506.440669055944,
      -2544.3655843696647,
      -2582.203738208776,
      -2619.955130573278,
      -2657.6197614631706,
      -2695.1976308784538,
      -2732.6887388191276,
      -2772.235175128942,
      -2815.9140768013053,
      -2858.2114248237663,
      -2900.2493162117057,
      -2942.1966199836784,
      -2984.057082172399,
      -3025.8307828865104,
      -3067.5177221260124,
      -3109.1178960762077,
      -3150.6313085517936,
      -3192.05795955277,
      -3233.3978490791374,
      -3274.650977130895,
      -3317.9594335517936,
      -3365.4003477058463,
      -3411.4597158393913,
      -3457.25961970902,
      -3502.9689359626823,
      -3548.5914106330924,
      -3594.127123828893,
      -3639.5760755500846,
      -3684.9382657966667,
      -3730.2136945686393,
      -3775.4023618660026,
      -3820.5042676887565,
      -3865.519412036901,
      -3912.589869495397,
      -3963.7927846870475,
      -4013.6141538581905,
      -4063.176058765417,
      -4112.647376056677,
      -4162.031851764685,
      -4211.329565998083,
      -4260.540518756872,
      -4309.664710041052,
      -4358.702139850622,
      -4407.652808185583,
      -4456.516715045935,
      -4505.293860431677,
      -4556.126318927771,
      -4611.091235157019,
      -4664.674605365759,
      -4717.998511310583,
      -4771.231829639441,
      -4824.378306385046,
      -4877.438021656042,
      -4930.410975452429,
      -4983.297167774206,
      -5036.096598621374,
      -5088.809267993933,
      -5141.435175891882,
      -5193.974322315222,
      -5248.568781848913,
      -5307.295699115759,
      -5364.641070362097,
      -5421.726977344519,
      -5478.722296710974,
      -5535.630774494177,
      -5592.452490802771,
      -5649.187445636755,
      -5705.83563899613,
      -5762.397070880896,
      -5818.871741291052,
      -5875.259650226599,
      -5931.560797687536,
      -5989.917258258825,
      -6052.406176563269,
      -6113.513548847204,
      -6174.361456867224,
      -6235.1187772712765,
      -6295.789256092077,
      -6356.372973438269,
      -6416.869925495153,
      -6477.280116077429,
      -6537.603545185095,
      -6597.8402128181515,
      -6657.990118976599,
      -6718.053263660437,
      -6780.171721454626,
      -6846.42263698197,
      -6911.292006488806,
      -6975.901911731726,
      -7040.421229358679,
      -7104.85370540238,
      -7169.199419971472,
      -7233.458373065954,
      -7297.630564685827,
      -7361.715994831091,
      -7425.7146673164425,
      -7489.626582141882,
      -7553.451739307409,
      -7619.3322133979855,
      -7689.345149036413,
      -7757.976534839636,
      -7826.34846019364,
      -7894.629790302282,
      -7962.8242864570675,
      -8030.932024951941,
      -8098.9530057869015,
      -8166.88722896195,
      -8234.734694477087,
      -8302.495402332312,
      -8370.169352527624,
      -8437.756545063025
    ],
    "is_0": [
      false,
      false,
      false,
      false,
      false,
      false,
      false,
      false,
      false,
      false,
      false,
      false,
      false,
      false,
      false,
      false,
      false,
      false,
      false,
      false,
      false,
      false,
      false,
      false,
      false,
      false,
      false,
      false,
      false,
      false,
      false,
      false,
      false,
      false,
      false,
      false,
      false,
      false,
      false,
      false,
      false,
      false,
      false,
      false,
      false,
      false,
      false,
      false,
      false,
      false,
      false,
      false,
      false,
      false,
      false,
      false,
      false,
      false,
      false,
      false,
      false,
      false,
      false,
      false,
      false,
      false,
      false,
      false,
      false,
      false,
      false,
      false,
      false,
      false,
      false,
      false,
      false,
      false,
      false,
      false,
      false,
      false,
      false,
      false,
      false,
      false,
      false,
      false,
      false,
      false,
      false,
      false,
      false,
      false,
      false,
      false,
      false,
      false,
      false,
      false,
      false,
      false,
      false,
      false,
      false,
      false,
      false,
      false,
      false,
      false,
      false,
      false,
      false,
      false,
      false,
      false,
      false,
      false,
      false,
      false,
      false,
      false,
      false,
      false,
      false,
      false,
      false,
      false,
      false,
      false,
      false,
      false,
      false,
      false,
      false,
      false,
      false,
      false,
      false,
      false,
      false,
      false,
      false,
      false,
      false,
      false,
      false,
      false,
      false,
      false,
      false,
      false,
      false,
      false,
      false,
      false,
      false,
      false,
      false,
      false,
      false,
      false,
      false,
      false,
      false,
      false,
      false,
      false,
      false,
      false,
      false,
      false,
      false,
      false,
      false,
      false,
      false,
      false,
      false,
      false,
      false,
      false,
      false,
      false,
      false,
      false,
      false,
      false,
      false,
      false,
      false,
      false,
      false,
      false,
      false,
      false,
      false,
      false,
      false,
      false,
      false,
      false,
      false,
      false,
      false,
      false,
      false,
      false,
      false,
      false,
      false,
      false,
      false,
      false,
      false,
      false,
      false,
      false,
      false,
      false,
      false,
      false,
      false,
      false,
      false,
      false,
      false,
      false,
      false,
      false,
      false,
      false,
      false,
      false,
      false
    ]
  },
  "random": {
    "name": "random",
    "mean": [
      -1.6094379124341003,
      -4.2278315582945964,
      -10.93380232594329,
      -15.609892590342147,
      -19.00523120341297,
      -21.239493664866835,
      -23.23928147181545,
      -23.107039745905237,
      -25.481880482210773,
      -27.60803156710312,
      -30.834692295556724,
      -33.12461310244145,
      -35.22260027742924,
      -35.18402605867924,
      -37.499549206262245,
      -43.53797083712162,
      -53.36444598055424,
      -60.99180346346439,
      -68.35948496676029,
      -73.60416918612064,
      -81.36096506929935,
      -87.24821024752202,
      -95.64959841585699,
      -103.19020968294683,
      -109.45052080965581,
      -115.47847491121831,
      -119.36981135225835,
      -125.76361208773199,
      -131.91008120394292,
      -141.6444371304566,
      -155.18039446688238,
      -166.53499728060308,
      -177.63001757479253,
      -190.77654391146245,
      -203.91507464266363,
      -216.47742968416753,
      -227.36665087557378,
      -240.64000445223394,
      -254.1612141690308,
      -268.33227282381597,
      -283.1263592801148,
      -301.8667347989136,
      -320.2006085476929,
      -337.4743016324097,
      -354.61401110506597,
      -369.60253649569097,
      -387.0941022000367,
      -404.33781176424566,
      -422.6814702115113,
      -441.283631618982,
      -463.57984286165777,
      -489.69986086702886,
      -513.6607373318726,
      -540.0798237881714,
      -566.1101735196168,
      -591.961495693689,
      -619.3925717434937,
      -645.4740536770875,
      -671.4130642972046,
      -697.2641537747437,
      -720.9592068753296,
      -747.0210736355835,
      -771.2474606595093,
      -797.6920178494507,
      -827.8393872342164,
      -857.5232556424195,
      -885.662942226892,
      -912.8521435818725,
      -939.8397229275756,
      -964.6874478421264,
      -991.896081264978,
      -1018.7179425320678,
      -1043.9988415799194,
      -1068.3244870266967,
      -1095.1056302151733,
      -1121.0242932400756,
      -1146.68551760531,
      -1174.3983319363647,
      -1202.1031201443725,
      -1233.40573244906,
      -1262.5680554471069,
      -1294.1670849881225,
      -1326.0093091092162,
      -1361.8382962307983,
      -1401.720414455896,
      -1445.5538647732787,
      -1487.3867123684936,
      -1531.678048428064,
      -1579.69381838656,
      -1631.4974606595092,
      -1681.1017697415405,
      -1733.164422329431,
      -1784.838364895349,
      -1839.1898511014037,
      -1897.721177395349,
      -1954.2759335598998,
      -2009.2956784329467,
      -2066.7311337552123,
      -2122.3315747342162,
      -2177.7390072903686,
      -2233.0573971829467,
      -2290.4310467801147,
      -2347.795998867517,
      -2406.175118740564,
      -2464.8473218045287,
      -2522.7406170926147,
      -2580.488786037927,
      -2638.149545010095,
      -2697.3908169827514,
      -2760.2392819485717,
      -2822.947770412927,
      -2886.544907864099,
      -2949.4893048367553,
      -3012.2852490506225,
      -3074.993752773767,
      -3137.6154873929077,
      -3198.080956753259,
      -3260.913384731775,
      -3327.469743069177,
      -3397.814133938318,
      -3467.9783948025756,
      -3539.059006985193,
      -3613.879479702478,
      -3686.564194973474,
      -3757.9636700711303,
      -3828.2041485867558,
      -3898.2103894314823,
      -3970.274049099451,
      -4046.4706280789433,
      -4122.141312893396,
      -4197.088258083826,
      -4271.901231106287,
      -4346.626908596521,
      -4422.933106716639,
      -4498.733399685389,
      -4577.208588894373,
      -4654.825471218592,
      -4731.160661037928,
      -4807.26332217074,
      -4884.955720242029,
      -4963.3610699734745,
      -5045.80189638949,
      -5127.761552151209,
      -5213.347932156092,
      -5298.7175152859745,
      -5387.906327541834,
      -5476.724854763514,
      -5566.628022488123,
      -5655.208573635584,
      -5745.319260891443,
      -5839.038758572107,
      -5936.54359560824,
      -6033.530869778162,
      -6128.974458034998,
      -6226.648454006678,
      -6328.480241116053,
      -6428.338700588709,
      -6526.661210354334,
      -6627.39938479281,
      -6726.30255251742,
      -6827.154832180506,
      -6927.1274273953495,
      -7026.844132717615,
      -7128.6125348172245,
      -7229.482087429529,
      -7329.074952419764,
      -7427.501359280115,
      -7528.226746853357,
      -7627.192185696131,
      -7724.415162380701,
      -7821.323899563318,
      -7919.845795925623,
      -8021.981797512537,
      -8127.903199490076,
      -8231.625687893396,
      -8337.806199368006,
      -8442.151383694178,
      -8544.977784451014,
      -8647.54960757113,
      -8747.988938625818,
      -8847.738145168787,
      -8949.421006496912,
      -9049.512284573084,
      -9149.439225491053,
      -9251.419831570154,
      -9353.392030056482,
      -9454.787980373865,
      -9554.510804470545,
      -9653.929276760584,
      -9754.959550198084,
      -9854.619523342615,
      -9956.261262234217,
      -10061.578187283045,
      -10166.74150210238,
      -10275.810456570154,
      -10383.34585696078,
      -10493.318696316248,
      -10602.900422390467,
      -10712.303178127771,
      -10823.770722683435,
      -10939.371812160975,
      -11059.067414577967,
      -11177.020676907068,
      -11293.69415407992,
      -11412.990144070154,
      -11532.014436062342,
      -11649.69658022738,
      -11767.235200222498,
      -11884.685960110193,
      -12004.192017849451,
      -12122.103593166834,
      -12242.420335110193,
      -12362.56280642367,
      -12482.192429836756,
      -12604.304963406092,
      -12725.550721462732,
      -12846.537034328943,
      -12969.13717776156,
      -13090.366135891443,
      -13211.450928982264,
      -13330.390046413904,
      -13448.981293972498,
      -13567.48109560824,
      -13685.894120510584,
      -13806.362473782068,
      -13930.96334963656,
      -14054.182648952967,
      -14176.120637234217,
      -14299.939576443201,
      -14424.246491726404,
      -14546.943284328943,
      -14667.849244411951,
      -14791.097031887537,
      -14912.539109524256,
      -15036.468385036951
    ],
    "is_0": [
      false,
      false,
      false,
      false,
      false,
      false,
      false,
      false,
      false,
      false,
      false,
      false,
      false,
      false,
      false,
      false,
      false,
      false,
      false,
      false,
      false,
      false,
      false,
      false,
      false,
      false,
      false,
      false,
      false,
      false,
      false,
      false,
      false,
      false,
      false,
      false,
      false,
      false,
      false,
      false,
      false,
      false,
      false,
      false,
      false,
      false,
      false,
      false,
      false,
      false,
      false,
      false,
      false,
      false,
      false,
      false,
      false,
      false,
      false,
      false,
      false,
      false,
      false,
      false,
      false,
      false,
      false,
      false,
      false,
      false,
      false,
      false,
      false,
      false,
      false,
      false,
      false,
      false,
      false,
      false,
      false,
      false,
      false,
      false,
      false,
      false,
      false,
      false,
      false,
      false,
      false,
      false,
      false,
      false,
      false,
      false,
      false,
      false,
      false,
      false,
      false,
      false,
      false,
      false,
      false,
      false,
      false,
      false,
      false,
      false,
      false,
      false,
      false,
      false,
      false,
      false,
      false,
      false,
      false,
      false,
      false,
      false,
      false,
      false,
      false,
      false,
      false,
      false,
      false,
      false,
      false,
      false,
      false,
      false,
      false,
      false,
      false,
      false,
      false,
      false,
      false,
      false,
      false,
      false,
      false,
      false,
      false,
      false,
      false,
      false,
      false,
      false,
      false,
      false,
      false,
      false,
      false,
      false,
      false,
      false,
      false,
      false,
      false,
      false,
      false,
      false,
      false,
      false,
      false,
      false,
      false,
      false,
      false,
      false,
      false,
      false,
      false,
      false,
      false,
      false,
      false,
      false,
      false,
      false,
      false,
      false,
      false,
      false,
      false,
      false,
      false,
      false,
      false,
      false,
      false,
      false,
      false,
      false,
      false,
      false,
      false,
      false,
      false,
      false,
      false,
      false,
      false,
      false,
      false,
      false,
      false,
      false,
      false,
      false,
      false,
      false,
      false,
      false,
      false,
      false,
      false,
      false,
      false,
      false,
      false,
      false,
      false,
      false,
      false,
      false,
      false,
      false,
      false,
      false,
      false
    ]
  }
}
