prior,sens_tac,spec_tac,sens_vis,spec_vis,density
0.013282349625732704,0.5494063545463925,0.31526950901256473,0.39172604514793463,0.15089317022417914,0.782513587811589
0.08145471861109668,0.5269101986495426,0.3039679483131008,0.2868585002991051,0.1688497043157217,0.6756864695900832
0.05880128520846943,0.5950825676349065,0.28147179241625087,0.27555693959964117,0.06398215946689212,0.7208682444529823
0.03614785180584218,0.6632549366202705,0.2589756365194009,0.26425537890017725,0.08193869355843467,0.8672973680420736
0.013494418403214931,0.7314273056056344,0.236479480622551,0.25295381820071333,0.09989522764997721,0.6131615332012357
0.08166678738857891,0.7089311497087845,0.22517791992308708,0.14808627335188376,0.11785176174151976,0.8242415893684889
0.05901335398595166,0.7771035186941484,0.20268176402623717,0.13678471265241984,0.012984216892690192,0.6765831001739715
0.03635992058332441,0.8452758876795123,0.18018560812938725,0.12548315195295592,0.030940750984232733,0.46068959591938125
0.013706487180697158,0.9134482566648763,0.15768945223253733,0.114181591253492,0.048897285075775274,0.46067832169759104
0.08187885616606114,0.8909521007680263,0.1463878915330734,0.009314046404662435,0.06685381916731781,0.4606563332426185
0.059225422763433885,0.9591244697533903,0.1238917356362235,0.027270580496204976,0.05905688920646847,0.4606731286742057
0.036571989360806634,0.9366283138565403,0.11259017493675957,0.045227114587747516,0.05125995924561913,0.46067597145863154
0.013918555958179386,0.9141321579596904,0.10128861423729565,0.06318364867929005,0.04346302928476979,0.460683211910651
0.08209092494354336,0.8916360020628404,0.08998705353783173,0.0811401827708326,0.03566609932392045,0.67033971470081
0.05943749154091611,0.9598083710482044,0.06749089764098182,0.06983862207136868,0.05362263341546299,0.4606704755736861
0.03678405813828886,0.9373122151513544,0.0561893369415179,0.08779515616291123,0.045825703454613655,0.5093056574363833
0.014130624735661613,0.9148160592545045,0.04488777624205398,0.10575169025445377,0.038028773493764316,0.6318504166071228
0.08230299372102559,0.8923199033576545,0.03358621554259006,0.0008841454056242037,0.05598530758530686,0.8392460835987895
0.05964956031839834,0.9604922723430185,0.011090059645740141,0.018840679497166744,0.04818837762445752,0.6624279009392325
0.03699612691577109,0.9379961164461685,0.029046593737282682,0.011043749536317406,0.05625660805894257,0.6594040937456925
0.01434269351314384,0.9154999605493186,0.017745033037818762,0.029000283627859946,0.048459678098093234,0.7928765205131812
0.08251506249850782,0.8930038046524686,0.006443472338354845,0.04695681771940249,0.040662748137243895,0.7850686807334099
0.05986162909588057,0.9611761736378326,0.024400006429897383,0.03915988775855315,0.04873097857172895,0.5728004212161453
0.037208195693253315,0.9386800177409826,0.013098445730433466,0.05711642185009569,0.04093404861087961,0.7732142317869782
0.014554762290626067,0.9161838618441327,0.001796885030969548,0.07507295594163824,0.03313711865003027,0.8666612569307939
0.08272713127599005,0.8936877059472828,0.01975341912251209,0.0672760259807889,0.04120534908451533,0.8116052869281168
0.060073697873362794,0.9618600749326467,0.00845185842304817,0.08523256007233143,0.03340841912366599,0.6838077641748379
0.03742026447073554,0.9393639190357967,0.026408392514590713,0.07743563011148209,0.041476649558151044,0.6772576447264715
0.014766831068108294,0.9168677631389468,0.015106831815126795,0.09539216420302463,0.033679719597301705,0.8094986162464989
0.08293920005347227,0.8943716072420969,0.0038052711156628775,0.11334869829456717,0.025882789636452366,0.7805662292376581
0.06028576665084502,0.9625439762274608,0.021761805207205418,0.10555176833371784,0.03395102007093742,0.5860579547517965
0.03763233324821777,0.9400478203306109,0.0104602445077415,0.0006842234848882661,0.05190755416247996,0.7710507718100766
0.014978899845590522,0.9175516644337609,0.028416778599284043,0.008752453919373317,0.12005263879858172,0.6612828921719087
0.0831512688309545,0.895055508536911,0.017115217899820123,0.026708988010915858,0.11225570883773238,0.830256650267862
0.06049783542832725,0.9632278775222749,0.0058136572003562054,0.0446655221024584,0.10445877887688304,0.6026912164860876
0.0378444020257,0.940731721625425,0.023770191291898744,0.03686859214160906,0.1125270093113681,0.622954058185286
0.015190968623072749,0.918235565728575,0.012468630592434827,0.054825126233151604,0.10473007935051876,0.7473357637215648
0.08336333760843673,0.8957394098317251,0.0011670698929709088,0.07278166032469414,0.09693314938966942,0.7982816827735963
0.060709904205809476,0.963911778817089,0.01912360398451345,0.0649847303638448,0.10500137982415447,0.5523516337500648
0.038056470803182224,0.9414156229202391,0.007822043285049532,0.08294126445538735,0.09720444986330513,0.7141049627175753
0.015403037400554976,0.9189194670233891,0.025778577376592074,0.07514433449453801,0.10527268029779019,0.6766984117820803
0.08357540638591895,0.8964233111265392,0.014477016677128156,0.09310086858608055,0.09747575033694085,0.8263833801352952
0.0609219729832917,0.9645956801119031,0.0031754559776642384,0.1110574026776231,0.08967882037609151,0.6183203887373944
0.03826853958066445,0.9420995242150532,0.02113199006920678,0.10326047271677376,0.09774705081057657,0.6380034803481927
0.015615106178037203,0.9196033683182032,0.009830429369742861,0.12121700680831629,0.08995012084972723,0.7620152931752203
0.08378747516340118,0.8971072124213533,0.027786963461285404,0.11342007684746695,0.09801835128421228,0.851062684203357
0.06113404176077393,0.9652795814067172,0.005290807564435486,0.10211851614800303,0.11597488537575482,0.5757144366988414
0.03848060835814668,0.9427834255098673,0.023247341655978027,0.0943215861871537,0.12404311581023987,0.5990287848720816
0.01582717495551943,0.9202872696130173,0.011945780956514109,0.11227812027869624,0.11624618584939053,0.721574009279157
0.08399954394088341,0.8977911137161674,0.0006442202570501911,0.007410575429866673,0.13420271994093308,0.8066113787675105
0.06134611053825616,0.9659634827015313,0.01860075434859273,0.015478805864351724,0.20234780457703483,0.5060310910851944
0.038692677135628906,0.9434673268046814,0.007299193649128814,0.03343533995589426,0.1945508746161855,0.5832123721549314
0.016039243733001658,0.9209711709078314,0.025255727740671356,0.025638409995044922,0.20261910505067054,0.5797344065628743
0.08421161271836564,0.8984750150109815,0.013954167041207438,0.04359494408658746,0.19482217508982122,0.8416989097758344
0.061558179315738384,0.9666473839963454,0.0026526063417435207,0.061551478178130004,0.1870252451289719,0.5123534058840555
0.03890474591311113,0.9441512280994955,0.02060914043328606,0.053754548217280665,0.19509347556345694,0.5444599736265479
0.016251312510483885,0.9216550722026455,0.009307579733822144,0.0717110823088232,0.1872965456026076,0.6468177662490684
0.08442368149584786,0.8991589163057956,0.027264113825364686,0.06391415234797386,0.19536477603709265,0.8436223437964233
0.06177024809322061,0.9673312852911595,0.004767957928514768,0.05261259164850994,0.09049723118826308,0.5955505080395179
0.03911681469059336,0.9448351293943096,0.02272449202005731,0.0448156616876606,0.09856546162274814,0.6148564015209759
0.016463381287966112,0.9223389734974596,0.011422931320593391,0.06277219577920315,0.0907685316618988,0.7482240260433273
0.08463575027333009,0.8998428176006097,0.00012137062112947336,0.0807287298707457,0.08297160170104946,0.796775922478702
0.06198231687070284,0.9680151865859736,0.018077904712672014,0.07293179990989636,0.09103983213553452,0.5461993385110654
0.03932888346807559,0.9455190306891237,0.006776344013208096,0.09088833400143889,0.08324290217468518,0.7093920748951635
0.01667545006544834,0.9230228747922737,0.02473287810475064,0.08309140404058955,0.09131113260917023,0.6745616218586464
0.08484781905081232,0.9005267188954238,0.01343131740528672,0.10104793813213209,0.08351420264832089,0.827742201958088
0.062194385648185066,0.9686990878807877,0.002129756705822803,0.11900447222367463,0.07571727268747155,0.611527726179479
0.039540952245557814,0.9462029319839378,0.020086290797365344,0.1112075422628253,0.08378550312195661,0.6301517083980048
0.016887518842930566,0.9237067760870878,0.008784730097901426,0.006339997413995727,0.10174203721349914,0.7465884083489711
0.08505988782829454,0.9012106201902379,0.026741264189443968,0.014408227848480778,0.1698871218496009,0.851301396261262
0.06240645442566729,0.9693829891756018,0.004245108292594051,0.00310666714901686,0.06501957700077132,0.6159580715720805
0.03975302102304004,0.9468868332787519,0.02220164238413659,0.011174897583501911,0.13316466163687307,0.5779216259715826
0.017099587620412793,0.924390677381902,0.010900081684672673,0.02913143167504445,0.12536773167602375,0.7052453094944318
0.08527195660577677,0.901894521485052,0.028856615776215212,0.02133450171419511,0.1334359621105088,0.8565994126116931
0.06261852320314952,0.9700668904704159,0.006360459879365295,0.010032941014731194,0.02856841726167922,0.642905948950021
0.03996508980052227,0.947570734573566,0.024316993970907835,0.002236011053881856,0.03663664769616427,0.6405141854611316
0.01731165639789502,0.925074578676716,0.013015433271443918,0.020192545145424397,0.028839717735314935,0.7966089824299815
0.085484025383259,0.9025784227798661,0.0017138725719799998,0.038149079236966935,0.021042787774465596,0.7849310977337938
0.06283059198063175,0.97075079176523,0.01967040666352254,0.030352149276117596,0.029111018208950647,0.5542294520610606
0.040177158578004496,0.9482546358683801,0.008368845964058623,0.04830868336766014,0.02131408824810131,0.7628567855260625
0.017523725175377248,0.9257584799715302,0.026325380055601165,0.0405117534068108,0.02938231868258636,0.7098355407185954
0.08569609416074123,0.9032623240746802,0.015023819356137247,0.05846828749835334,0.02158538872173702,0.8128820457049828
0.06304266075811397,0.9714346930600442,0.0037222586566733294,0.07642482158989589,0.013788458760887683,0.6669848089525571
0.04038922735548672,0.9489385371631942,0.02167879274821587,0.06862789162904655,0.021856689195372734,0.6597966493202196
0.017735793952859475,0.9264423812663443,0.010377232048751952,0.08658442572058908,0.014059759234523395,0.8143995140978988
0.08590816293822345,0.9039462253694943,0.028333766140294495,0.07878749575973974,0.022127989669008447,0.8434168135864616
0.0632547295355962,0.9721185943548583,0.005837610243444577,0.06748593506027582,0.04008452376055099,0.6149896045390771
0.04060129613296895,0.9496224384580083,0.023794144334987118,0.059689005099426484,0.048152754195036035,0.6180040373924003
0.017947862730341702,0.9271262825611584,0.0124925836355232,0.07764553919096903,0.040355824234186696,0.7734548882555359
0.08612023171570568,0.9046301266643084,0.001191022936059282,0.09560207328251158,0.03255889427333736,0.7932825092890672
0.06346679831307843,0.9728024956496724,0.019147557027601823,0.08780514332166224,0.04062712470782241,0.5427432053508878
0.04081336491045118,0.9503063397528224,0.007845996328137905,0.10576167741320477,0.032830194746973074,0.7343113041765382
0.01815993150782393,0.9278101838559725,0.025802530419680447,0.09796474745235544,0.04089842518145813,0.6876269354262299
0.08633230049318791,0.9053140279591225,0.01450096972021653,0.11592128154389797,0.03310149522060879,0.8226475536352565
0.06367886709056066,0.9734863969444865,0.0031994090207526117,0.0110537366950684,0.05105802931215133,0.6083907106210913
0.041025433687933405,0.9509902410476365,0.021155943112295152,0.0032568067342190624,0.05912625974663638,0.6195467105951377
0.018372000285306157,0.9284940851507866,0.009854382412831235,0.021213340825761602,0.05132932978578704,0.7735498726552383
0.08654436927067014,0.9059979292539366,0.027810916504373777,0.013416410864912263,0.059397560220272094,0.8529925625201003
0.06389093586804288,0.9741702982393006,0.005314760607523859,0.0021148501654483457,0.07735409431181464,0.5673176489378862
0.04123750246541563,0.9516741423424506,0.0232712946990664,0.010183080599933397,0.1454991789479164,0.5441949946051732
0.018584069062788384,0.9291779864456007,0.011969733999602482,0.02813961469147594,0.13770224898706707,0.6621646845145676
0.08675643804815236,0.9066818305487507,0.0006681733001385644,0.04609614878301848,0.12990531902621774,0.8173404917761676
0.06410300464552511,0.9748541995341147,0.018624707391681105,0.03829921882216914,0.13797354946070278,0.5149810416122521
0.04144957124289786,0.9523580436372647,0.007323146692217187,0.05625575291371168,0.13017661949985346,0.6049549719203143
0.01879613784027061,0.9298618877404148,0.02527968078375973,0.04845882295286234,0.1382448499343385,0.5961309008524297
0.08696850682563459,0.9073657318435648,0.013978120084295812,0.06641535704440488,0.13044791997348917,0.8458302149818262
0.06431507342300734,0.9755381008289288,0.002676559384831894,0.08437189113594742,0.12265099001263984,0.5257808955567645
0.041661640020380086,0.9530419449320788,0.020633093476374435,0.07657496117509809,0.1307192204471249,0.5531011353028075
0.019008206617752838,0.9305457890352289,0.009331532776910517,0.09453149526664062,0.12292229048627555,0.6772676877971862
0.08718057560311682,0.9080496331383789,0.02728806686845306,0.08673456530579128,0.1309905209207606,0.8517727689677235
0.06452714220048957,0.9762220021237429,0.004791910971603142,0.07543300460632736,0.026122976071931037,0.6072651248872121
0.041873708797862313,0.9537258462268929,0.022748445063145682,0.06763607464547802,0.03419120650641609,0.6071562441971933
0.019220275395235065,0.931229690330043,0.011446884363681764,0.08559260873702057,0.026394276545566753,0.7733468126209804
0.08739264438059904,0.908733534433193,0.00014532366421784668,0.10354914282856312,0.018597346584717414,0.7936478927073841
0.06473921097797179,0.976905903418557,0.018101857755760387,0.09575221286771378,0.026665577019202465,0.533627359657147
0.04208577757534454,0.954409747521707,0.0068002970562964695,0.11370874695925631,0.018868647058353127,0.7294764325545521
0.019432344172717293,0.9319135916248571,0.024756831147839012,0.10591181699840697,0.026936877492838178,0.6830488531753262
0.08760471315808127,0.9094174357280072,0.013455270448375094,0.0010442721495774049,0.04489341158438072,0.8278704925555513
0.06495127975545402,0.9775898047133711,0.0021537097489111763,0.019000806241119945,0.03709648162353138,0.6011992336639941
0.04229784635282677,0.9550936488165211,0.020110243840453717,0.011203876280270607,0.045164712058016435,0.6093830693966787
0.01964441295019952,0.9325974929196712,0.0088086831409898,0.029160410371813147,0.037367782097167096,0.773483653988709
0.0878167819355635,0.9101013370228213,0.02676521723253234,0.02136348041096381,0.04543601253165215,0.8544605827267363
0.06516334853293625,0.9782737060081852,0.004269061335682424,0.010061919711499891,0.06339254662319468,0.5606523450453306
0.042509915130308995,0.9557775501113353,0.022225595427224965,0.0022649897506505532,0.07146077705767974,0.57461211566965
0.019856481727681747,0.9332813942144853,0.010924034727761047,0.020221523842193095,0.0636638470968304,0.7300071586217461
0.08802885071304573,0.9107852383176354,0.028880568819303586,0.012424593881343756,0.07173207753131546,0.858791590049208
0.06537541731041847,0.9789576073029993,0.006384412922453668,0.0011230331818798383,0.08968861162285799,0.533301304374817
0.04272198390779122,0.9564614514061494,0.02434094701399621,0.00919126361636489,0.15783369625895974,0.5210069153284953
0.020068550505163974,0.9339652955092994,0.013039386314532291,0.02714779770790743,0.1500367662981104,0.6182736692970158
0.08824091949052795,0.9114691396124495,0.001737825615068373,0.04510433179944997,0.1422398363372611,0.8271003845502665
0.0655874860879007,0.9796415085978134,0.019694359706610914,0.03730740183860063,0.15030806677174613,0.5082861518025106
0.04293405268527345,0.9571453527009635,0.008392799007146996,0.05526393593014317,0.1425111368108968,0.5608313833506505
0.0202806192826462,0.9346491968041135,0.02634933309868954,0.04746700596929383,0.15057936724538185,0.5599821166174944
0.08845298826801018,0.9121530409072636,0.01504777239922562,0.06542354006083637,0.14278243728453252,0.8456653017644917
0.06579955486538293,0.9803254098926275,0.0037462116997617027,0.08338007415237891,0.1349855073236832,0.5042303396260484
0.04314612146275568,0.9578292539957776,0.021702745791304243,0.07558314419152957,0.14305373775816824,0.52665292862364
0.02049268806012843,0.9353330980989276,0.010401185091840326,0.09353967828307211,0.1352568077973189,0.6328490633291028
0.08866505704549241,0.9128369422020777,0.028357719183382868,0.08574274832222277,0.14332503823180395,0.8342947795388161
0.06601162364286516,0.9810093111874416,0.00586156328653295,0.07444118762275885,0.038457493382974384,0.5600898848760675
0.043358190240237904,0.9585131552905917,0.02381809737807549,0.06664425766190951,0.04652572381745944,0.5638765919041175
0.020704756837610656,0.9360169993937417,0.012516536678611573,0.08460079175345206,0.0387287938566101,0.7286441823325168
0.08887712582297463,0.9135208434968918,0.0012149759791476554,0.1025573258449946,0.03093186389576076,0.8077495451433793
0.06622369242034738,0.9816932124822557,0.019171510070690196,0.09476039588414527,0.039000094330245816,0.4628130062838945
0.04357025901772013,0.9591970565854058,0.007869949371226278,0.1127169299756878,0.031203164369396477,0.672036010043615
0.020916825615092883,0.9367009006885558,0.02582648346276882,0.10492000001483846,0.03927139480388153,0.6366203195952133
0.08908919460045686,0.9142047447917059,0.014524922763304903,5.2455166008893994e-05,0.05722792889542407,0.8420482724417488
0.06643576119782961,0.9823771137770698,0.003223362063840985,0.018008989257551435,0.049430998934574734,0.554228340686835
0.04378232779520236,0.9598809578802199,0.021179896155383526,0.010212059296702096,0.05749922936905978,0.5657080439365701
0.02112889439257511,0.9373848019833699,0.009878335455919608,0.028168593388244637,0.04970229940821044,0.7284082770166037
0.08930126337793909,0.91488864608652,0.02783486954746215,0.020371663427395298,0.0577705298426955,0.8588286311242752
0.06664782997531184,0.9830610150718839,0.005338713650612233,0.00907010272793138,0.07572706393423803,0.5287013798429738
0.043994396572684585,0.960564859175034,0.023295247742154773,0.0012731727670820423,0.08379529436872309,0.5410074089500138
0.021340963170057337,0.938068703278184,0.011993687042690855,0.019229706858624584,0.07599836440787375,0.6837086131083315
0.08951333215542132,0.9155725473813341,0.0006921263432269377,0.03718624095016712,0.06820143444702441,0.816613486375754
0.06685989875279406,0.983744916366698,0.01864866043476948,0.029389310989317782,0.07626966488150946,0.4606989827839995
0.04420646535016681,0.9612487604698481,0.0073470997353055605,0.04734584508086032,0.06847273492066012,0.6194599690042661
0.021553031947539564,0.9387526045729981,0.025303633826848103,0.039548915120010984,0.07654096535514518,0.6018869227047767
0.08972540093290354,0.9162564486761482,0.014002073127384185,0.057505449211553525,0.06874403539429584,0.8476580222771789
0.06707196753027629,0.9844288176615121,0.0027005124279202673,0.07546198330309606,0.0609471054334465,0.535940013574302
0.04441853412764904,0.9619326617646622,0.020657046519462808,0.06766505334224672,0.06901533586793156,0.5506406034660789
0.02176510072502179,0.9394365058678122,0.00935548581999889,0.08562158743378925,0.06121840590708222,0.7019596514921038
0.08993746971038577,0.9169403499709623,0.027312019911541432,0.07782465747293991,0.06928663634156727,0.8557472619115549
0.06728403630775852,0.9851127189563262,0.004815864014691515,0.066523096773476,0.0872431704331098,0.5165820415210083
0.04463060290513127,0.9626165630594763,0.022772398106234056,0.05872616681262666,0.09531140086759486,0.5299589213848509
0.02197716950250402,0.9401204071626263,0.011470837406770138,0.0766827009041692,0.08751447090674552,0.6573380629905656
0.090149538487868,0.9176242512657764,0.00016927670730622,0.09463923499571175,0.07971754094589618,0.819651439136509
0.06749610508524075,0.9857966202511403,0.01812581079884876,0.08684230503486241,0.08778577138038124,0.46066431291597193
0.044842671682613494,0.9633004643542904,0.006824250099384843,0.10479883912640495,0.0799888414195319,0.5928310706371334
0.022189238279986246,0.9408043084574405,0.024780784190927385,0.09700190916555561,0.08805707185401696,0.5818746425775481
0.09036160726535022,0.9183081525605905,0.013479223491463467,0.11495844325709814,0.08026014189316762,0.8504327359090861
0.06770817386272297,0.9864805215459544,0.0021776627919995496,0.010090898408268573,0.09821667598471015,0.5074470051007254
0.04505474046009572,0.9639843656491045,0.02013419688354209,0.002293968447419235,0.1062849064191952,0.5290431341572766
0.022401307057468473,0.9414882097522546,0.008832636184078172,0.020250502538961775,0.09848797645834587,0.6544565778855855
0.09057367604283245,0.9189920538554046,0.026789170275620715,0.012453572578112436,0.10655620689283092,0.8416229026001298
0.0679202426402052,0.9871644228407686,0.004293014378770797,0.0011520118786485182,0.0016886620440013517,0.562579581566984
0.04526680923757795,0.9646682669439186,0.022249548470313338,0.00922024231313357,0.0698337466801031,0.5342702176813476
0.0226133758349507,0.9421721110470687,0.01094798777084942,0.027176776404676112,0.06203681671925376,0.6805097008784089
0.09078574482031468,0.9196759551502187,0.02890452186239196,0.019379846443826773,0.07010504715373882,0.8503427421216393
0.06813231141768743,0.9878483241355827,0.006408365965542041,0.008078285744362855,0.08806158124528135,0.5125226909465903
0.045478878015060176,0.9653521682387327,0.024364900057084582,0.0002813557835135176,0.0961298116797664,0.5188539220145176
0.022825444612432928,0.9428560123418828,0.013063339357620664,0.01823788987505606,0.08833288171891707,0.636371261116832
0.00017201120980567947,0.9203598564450328,0.0017617786581567464,0.036194423966598596,0.08053595175806773,0.5058061187786177
0.01812854530134822,0.9125629264841835,0.009830009092641798,0.10433950860270035,0.20528122804245572,0.6866639506459035
0.0863009142867122,0.8900667705873335,0.02778654318418434,0.096542578641851,0.21334945847694076,0.8456849465446542
0.06364748088408495,0.9582391395726975,0.005290387287334421,0.08524101794238709,0.10848191362811119,0.6399121114861259
0.0409940474814577,0.9357429836758475,0.02324692137887696,0.07744408798153775,0.11655014406259624,0.6646243425509517
0.01834061407883045,0.9132468277789976,0.011945360679413044,0.09540062207308028,0.1087532141017469,0.7915996179387862
0.08651298306419443,0.8907506718821476,0.0006437999799491258,0.11335715616462283,0.10095628414089756,0.7877628303108983
0.06385954966156718,0.9589230408675116,0.018600334071491666,0.10556022620377349,0.10902451457538262,0.5800140396328475
0.041206116258939926,0.9364268849706616,0.007298773372027749,0.000692681354943922,0.12698104866692517,0.7303724415840372
0.018552682856312678,0.9139307290738117,0.02525530746357029,0.008760911789428973,0.19512613330302692,0.6468066565962751
0.08672505184167666,0.8914345731769617,0.013953746764106373,0.026717445880971514,0.1873292033421776,0.8327642201224719
0.0640716184390494,0.9596069421623257,0.0026521860646424554,0.04467397997251406,0.17953227338132827,0.5535198184830582
0.04141818503642215,0.9371107862654757,0.020608720156184996,0.03687705001166472,0.1876005038158133,0.5959023143884101
0.018764751633794905,0.9146146303686258,0.009307159456721078,0.05483358410320726,0.17980357385496398,0.7178666795707564
0.08693712061915888,0.8921184744717758,0.02726369354826362,0.04703665414235792,0.18787180428944902,0.8489346912454464
0.06428368721653163,0.9602908434571398,0.004767537651413703,0.035735093442894,0.08300425944061945,0.6644363308666861
0.04163025381390438,0.9377946875602898,0.022724071742956244,0.027938163482044663,0.09107248987510451,0.6836320008511998
0.018976820411277132,0.9152985316634399,0.011422511043492326,0.045894697573587204,0.08327555991425517,0.8169009698069419
0.08714918939664111,0.8928023757665899,0.00012095034402840807,0.06385123166512974,0.07547862995340583,0.7794668591444694
0.06449575599401386,0.9609747447519539,0.01807748443557095,0.0560543017042804,0.08354686038789089,0.5921860039257326
0.04184232259138661,0.9384785888551039,0.006775923736107031,0.07401083579582293,0.07574993042704155,0.7775597574005508
0.01918888918875936,0.915982432958254,0.024732457827649573,0.0662139058349736,0.0838181608615266,0.7477789090220623
0.08736125817412334,0.893486277061404,0.013430897128185655,0.08417043992651613,0.07602123090067726,0.8063819780620962
0.06470782477149609,0.961658646046768,0.0021293364287217377,0.10212697401805867,0.06822430093982793,0.6827788854881929
0.042054391368868835,0.939162490149918,0.02008587052026428,0.09433004405720934,0.07629253137431298,0.7004721471920776
0.019400957966241587,0.9166663342530681,0.00878430982080036,0.11228657814875187,0.06849560141346364,0.8303282018096574
0.08757332695160557,0.8941701783562181,0.026740843912342903,0.10448964818790253,0.0765638318479487,0.8332165838519207
0.06491989354897831,0.9623425473415821,0.004244688015492985,0.09318808748843861,0.09452036593949123,0.6327431314711207
0.04226646014635106,0.9398463914447321,0.022201222107035526,0.08539115752758927,0.10258859637397628,0.6567120146252691
0.019613026743723814,0.9173502355478822,0.010899661407571608,0.10334769161913182,0.09479166641312695,0.7919981654682097
0.08778539572908779,0.8948540796510323,0.028856195499114147,0.09555076165828248,0.102859896847612,0.8444901886713717
0.06513196232646054,0.9630264486363962,0.006360039602264229,0.08424920095881856,0.12081643093915453,0.5885392940859355
0.04247852892383329,0.9405302927395462,0.02431657369380677,0.07645227099796922,0.12888466137363958,0.6161002511807784
0.01982509552120604,0.9180341368426963,0.013015012994342852,0.09440880508951177,0.12108773141279024,0.7518592145909286
0.08799746450657002,0.8955379809458464,0.0017134522948789345,0.11236533918105432,0.1132908014519409,0.8012343055857533
0.06534403110394277,0.9637103499312103,0.019669986386421475,0.10456840922020498,0.12135903188642595,0.5476167924286778
0.042690597701315516,0.9412141940343604,0.008368425686957557,0.12252494331174751,0.11356210192557661,0.7011239912697471
0.020037164298688268,0.9187180381375104,0.0263249597785001,0.11472801335089818,0.12163033236006167,0.6831029116840609
0.08820953328405225,0.8962218822406605,0.015023399079036182,0.009860468502068606,0.1395868664516042,0.8299095254918695
0.065556099881425,0.9643942512260244,0.003721838379572264,0.027817002593611147,0.13178993649075488,0.5778801132658111
0.042902666478797744,0.9418980953291745,0.021678372471114805,0.020020072632761808,0.13985816692523992,0.6132437647664225
0.020249233076170495,0.9194019394323245,0.010376811771650887,0.03797660672430435,0.1320612369643906,0.74952170260775
0.08842160206153447,0.8969057835354746,0.02833334586319343,0.03017967676345501,0.14012946739887563,0.8505183554653206
0.06576816865890722,0.9650781525208385,0.005837189966343512,0.01887811606399109,0.035261922550046065,0.6861522941271821
0.04311473525627997,0.9425819966239886,0.023793724057886052,0.011081186103141752,0.04333015298453112,0.6890348602983262
0.020461301853652723,0.9200858407271386,0.012492163358422135,0.029037720194684292,0.03553322302368178,0.8409848513459288
0.0886336708390167,0.8975896848302887,0.0011906026589582168,0.04699425428622683,0.027736293062832443,0.7740067960375292
0.06598023743638945,0.9657620538156526,0.019147136750500757,0.039197324325377494,0.0358045234973175,0.5896924930879796
0.0433268040337622,0.9432658979188027,0.00784557605103684,0.057153858416920035,0.02800759353646816,0.8016426562767207
0.02067337063113495,0.9207697420219527,0.025802110142579382,0.049356928456070696,0.036075823970953214,0.7621090193975598
0.08884573961649893,0.8982735861251028,0.014500549443115464,0.06731346254761324,0.028278894010103875,0.7996634487703879
0.06619230621387168,0.9664459551104667,0.0031989887436515464,0.08526999663915577,0.020481964049254536,0.7094557591571669
0.043538872811244425,0.9439497992136168,0.021155522835194087,0.07747306667830643,0.028550194483739588,0.7085328124870494
0.020885439408617177,0.9214536433167668,0.00985396213573017,0.09542960076984897,0.02075326452289025,0.8560264245041526
0.08905780839398116,0.8989574874199169,0.02781049622727271,0.08763267080899963,0.0288214949573753,0.8291640443877014
0.0664043749913539,0.9671298564052808,0.005314340330422794,0.07633111010953571,0.04677802904891784,0.6552758792704095
0.04375094158872665,0.9446337005084309,0.023270874421965335,0.06853418014868637,0.054846259483402895,0.6637519039353211
0.021097508186099404,0.9221375446115809,0.011969313722501417,0.08649071424022892,0.04704932952255356,0.8180080902582474
0.08926987717146338,0.899641388714731,0.0006677530230374991,0.10444724833177146,0.03925239956170422,0.7819914986499149
0.06661644376883613,0.9678137577000949,0.01862428711458004,0.09665031837092213,0.04732062999618927,0.5725466907412465
0.04396301036620888,0.945317601803245,0.007322726415116122,0.11460685246246466,0.039523700035339934,0.7740770428952471
0.02130957696358163,0.922821445906395,0.025279260506658664,0.10680992250161532,0.04759193046982499,0.7389196798885586
0.08948194594894561,0.9003252900095451,0.013977699807194746,0.0019423776527857511,0.06554846456136754,0.8128814337194971
0.06682851254631836,0.968497658994909,0.0026761391077308287,0.019898911744328292,0.0577515346005182,0.647372122464803
0.04417507914369111,0.9460015030980591,0.02063267319927337,0.012101981783478953,0.06581976503500325,0.6644465956581541
0.02152164574106386,0.9235053472012091,0.009331112499809452,0.030058515875021494,0.058022835074153914,0.8169756609062276
0.08969401472642784,0.9010091913043592,0.027287646591351994,0.022261585914172155,0.06609106550863897,0.8404702286128286
0.06704058132380059,0.9691815602897231,0.004791490694502076,0.010960025214708237,0.08404759960018152,0.599654617543311
0.044387147921173334,0.9466854043928732,0.022748024786044617,0.0031630952538588995,0.09211583003466657,0.6227449309142381
0.021733714518546086,0.9241892484960232,0.0114464640865807,0.02111962934540144,0.08431890007381723,0.7765776588864856
0.08990608350391006,0.9016930925991733,0.00014490338711678138,0.03907616343694398,0.0765219701129679,0.7913493176442528
0.06725265010128281,0.9698654615845372,0.018101437478659322,0.03127923347609464,0.08459020054745295,0.5482753882131527
0.04459921669865556,0.9473693056876873,0.006799876779195404,0.04923576756763718,0.07679327058660361,0.7213124851932853
0.021945783296028313,0.9248731497908373,0.024756410870737947,0.04143883760678784,0.08486150102108866,0.7007182697425651
0.09011815228139229,0.9023769938939874,0.013454850171274029,0.05939537169833038,0.07706457106023933,0.8216564359312889
0.06746471887876504,0.9705493628793513,0.002153289471810111,0.07735190578987292,0.06926764109938999,0.6164324707884162
0.04481128547613779,0.9480532069825014,0.02010982356335265,0.06955497582902358,0.07733587153387504,0.6388939960935488
0.02215785207351054,0.9255570510856514,0.008808262863888734,0.08751150992056611,0.0695389415730257,0.7919613459094887
0.09033022105887452,0.9030608951888015,0.026764796955431276,0.07971457995971677,0.07760717200751076,0.8471049923734802
0.06767678765624727,0.9712332641741654,0.004268641058581359,0.06841301926025285,0.09556370609905329,0.5736319030872057
0.045023354253620015,0.9487371082773155,0.0222251751501239,0.060616089299403514,0.10363193653353835,0.5998338545239679
0.022369920850992767,0.9262409523804656,0.010923614450659981,0.07857262339094606,0.09583500657268901,0.7501966367311907
0.09054228983635675,0.9037447964836156,0.02888014854220252,0.07077569343009672,0.10390323700717406,0.8535380547380572
0.0678888564337295,0.9719171654689795,0.006383992645352603,0.0594741327306328,0.1218597710987166,0.5420084968128899
0.04523542303110224,0.9494210095721296,0.024340526736895143,0.051677202769783465,0.12992800153320164,0.5674825604765158
0.022581989628474994,0.9269248536752797,0.013038966037431226,0.06963373686132601,0.1221310715723523,0.7074570733158609
0.09075435861383897,0.9044286977784297,0.0017374053379673078,0.08759027095286856,0.11433414161150296,0.8129353069942444
0.06810092521121172,0.9726010667637937,0.01969393942950985,0.07979334099201922,0.12240237204598801,0.5243871618763277
0.04544749180858447,0.9501049108669437,0.00839237873004593,0.09774987508356175,0.11460544208513868,0.6425050347712008
0.02279405840595722,0.9276087549700938,0.026348912821588473,0.08995294512271242,0.12267367251962373,0.6357236532250834
0.00014062500332997357,0.9957811239554577,0.0038527569247385554,0.0786513844232485,0.01780612767079416,0.4608021297030703
0.018097159094872514,0.9879841939946084,0.011920987359223607,0.14679646905935023,0.14255140395518215,0.46987318626479413
0.0862695280802365,0.9654880380977584,0.0006194266597596889,0.04192892421052066,0.1605079380467247,0.5668441737348477
0.06361609467760924,0.9429918822009085,0.01857596075130223,0.034131994249671324,0.16857616848120974,0.6294035759537531
0.04096266127498199,0.9204957263040585,0.0072744000518383135,0.052088528341213865,0.1607792385203604,0.7870253831624612
0.018309227872354745,0.9886680952894225,0.025230934143380852,0.044291598380364526,0.16884746895484545,0.4606780590486747
0.08648159685771872,0.9661719393925725,0.013929373443916935,0.06224813247190707,0.16105053899399613,0.5458740448056073
0.06382816345509147,0.9436757834957226,0.002627812744453017,0.0802046665634496,0.1532536090331468,0.697987694532337
0.04117473005246422,0.9211796275988726,0.020584346835995557,0.07240773660260026,0.16132183946763184,0.7340380614675647
0.018521296649836972,0.9893519965842366,0.00928278613653164,0.0903642706941428,0.15352490950678252,0.47417447929237977
0.08669366563520095,0.9668558406873866,0.027239320228074182,0.08256734073329346,0.16159313994126756,0.5347720553771889
0.0640402322325737,0.9443596847905367,0.015937759528610262,0.10052387482483599,0.15379620998041824,0.6423964733131721
0.04138679882994645,0.9218635288936867,0.004636198829146345,0.11848040891637854,0.1459992800195689,0.7955777037535012
0.0187333654273192,0.9900358978790507,0.022592732920688884,0.1106834789555292,0.15406751045405395,0.4606780360223218
0.08690573441268318,0.9675397419822007,0.011291172221224966,0.00581593410669963,0.1720240445455965,0.5371698933878647
0.06425230101005593,0.9450435860853508,0.029247706312767505,0.013884164541184681,0.24016912918169825,0.5319007218350272
0.041598867607428675,0.9225474301885008,0.017946145613303585,0.03184069863272722,0.23237219922084892,0.6490273451094893
0.018945434204801426,0.9907197991738648,0.006644584913839667,0.04979723272426976,0.2245752692599996,0.468439234880068
0.0871178031901654,0.9682236432770148,0.024601119005382206,0.04200030276342042,0.23264349969448464,0.5160629956368651
0.06446436978753815,0.9457274873801649,0.013299558305918288,0.05995683685496296,0.22484656973363532,0.5619570022058465
0.0418109363849109,0.9232313314833149,0.0019979976064543707,0.0779133709465055,0.217049639772786,0.7076641280967344
0.019157502982283654,0.9914037004686789,0.01995453169799691,0.07011644098565616,0.22511787020727103,0.4606779849495214
0.08732987196764763,0.9689075445718289,0.008652970998532994,0.08807297507719869,0.2173209402464217,0.5039178297376417
0.06467643856502038,0.946411388674979,0.026609505090075536,0.08027604511634935,0.22538917068090675,0.5366549844947752
0.04202300516239313,0.923915232778129,0.015307944390611618,0.09823257920789188,0.21759224072005742,0.6604352541737841
0.01936957175976588,0.992087601763493,0.0040063836911477,0.11618911329943443,0.2097953107592081,0.4659240453180136
0.08754194074512986,0.969591445866643,0.02196291778269024,0.1083921833385851,0.21786354119369314,0.5148865448249796
0.06488850734250261,0.9470952899697931,0.010661357083226323,0.0035246384897555244,0.2358200752852357,0.5521789373667533
0.042235073939875356,0.9245991340729431,0.028617891174768866,0.011592868924240576,0.30396515992133744,0.5100148847632942
0.019581640537248108,0.9927715030583071,0.006121735277918948,0.0002913082247766579,0.19909761507250787,0.47254955734858844
0.08775400952261209,0.9702753471614571,0.02407826936946149,0.00835953865926171,0.2672426997086096,0.507685718145889
0.06510057611998483,0.9477791912646072,0.01277670866999757,0.026316072750804248,0.25944576974776024,0.5217099446645571
0.04244714271735758,0.9252830353677572,0.001475147970533653,0.04427260684234679,0.2516488397869109,0.6484310657196505
0.019793709314730335,0.9934554043531212,0.019431682062076194,0.03647567688149745,0.25971707022139595,0.46067796971816993
0.08796607830009431,0.9709592484562712,0.008130121362612276,0.05443221097303999,0.2519201402605466,0.4864651203201475
0.06531264489746706,0.9484630925594213,0.026086655454154818,0.04663528101219065,0.25998837069503167,0.5110451117464201
0.04265921149483981,0.9259669366625713,0.0147850947546909,0.06459181510373319,0.2521914407341823,0.6022948379743446
0.020005778092212562,0.9941393056479353,0.0034835340552269826,0.08254834919527573,0.244394510773333,0.4653396496671434
0.08817814707757654,0.9716431497510853,0.021440068146769523,0.0747514192344264,0.25246274120781803,0.5045160019758432
0.06552471367494929,0.9491469938542354,0.010138507447305605,0.09270795332596893,0.2446658112469687,0.52684442695742
0.04287128027232204,0.9266508379573855,0.028095041538848148,0.08491102336511959,0.25273404168145375,0.5585219520762559
0.02021784686969479,0.9948232069427494,0.00559888564199823,0.07360946266565567,0.14786649683262418,0.46082649263991204
0.08839021585505877,0.9723270510458994,0.02355541973354077,0.06581253270480633,0.15593472726710922,0.5325580385318549
0.06573678245243152,0.9498308951490495,0.012253859034076853,0.08376906679634888,0.1481377973062599,0.6284944108708654
0.043083349049804265,0.9273347392521996,0.0009522983346129353,0.10172560088789143,0.14034086734541057,0.7811609641388862
0.020429915647177017,0.9955071082375635,0.018908832426155476,0.09392867092704209,0.1484090977798956,0.460678012484066
0.088602284632541,0.9730109523407136,0.007607271726691558,0.11188520501858462,0.14061216781904629,0.539171231117755
0.06594885122991374,0.9505147964438636,0.0255638058182341,0.10408827505773528,0.14868039825353133,0.5756031904239028
0.04329541782728649,0.9280186405470137,0.014262245118770183,0.12204480914927782,0.140883468292682,0.7372210534838161
0.020641984424659244,0.9961910095323776,0.002960684419306265,0.017177264300448247,0.15884000238422455,0.4724925557318948
0.08881435341002322,0.9736948536355277,0.020917218510848806,0.009380334339598909,0.1669082328187096,0.5293226946921246
0.06616092000739597,0.9511986977386777,0.009615657811384888,0.02733686843114145,0.15911130285786027,0.6193365468223134
0.04350748660476872,0.9287025418418278,0.02757219190292743,0.01953993847029211,0.1671795332923453,0.6530953232782097
0.02085405320214147,0.9968749108271917,0.0050760360060775125,0.008238377770828193,0.06231198844351574,0.46067784584039567
0.08902642218750545,0.9743787549303418,0.023032570097620053,0.000441447809978855,0.07038021887800079,0.5414351799381358
0.0663729887848782,0.9518825990334918,0.011731009398156135,0.018397981901521396,0.06258328891715145,0.725717815496419
0.043719555382250946,0.9293864431366419,0.0004294486986922176,0.03635451599306394,0.054786358956302114,0.8580027207466074
0.0210661219796237,0.9975588121220058,0.018385982790234758,0.028557586032214602,0.06285458939078717,0.4606780473384594
0.08923849096498768,0.9750626562251559,0.0070844220907708404,0.04651412012375714,0.05505765942993783,0.6082975444318424
0.06658505756236043,0.9525665003283059,0.025040956182313383,0.038717190162907804,0.06312588986442288,0.632422174498099
0.043931624159733174,0.930070344431456,0.013739395482849465,0.056673724254450344,0.055328959903573546,0.8291981503205612
0.021278190757105925,0.9982427134168199,0.0024378347833855472,0.07463025834599288,0.04753202994272421,0.46067798578880786
0.0894505597424699,0.97574655751997,0.020394368874928088,0.06683332838514354,0.05560026037720926,0.5478369557028401
0.06679712633984265,0.95325040162312,0.00909280817546417,0.08478986247668607,0.047803330416359924,0.7449377705270884
0.0441436929372154,0.9307542457262701,0.027049342267006712,0.07699293251583673,0.05587156085084498,0.749300958115924
0.021490259534588153,0.998926614711634,0.004553186370156795,0.06569137181637281,0.07382809494238751,0.46067798729860576
0.08966262851995213,0.9764304588147841,0.022509720461699335,0.057894441855523476,0.08189632537687257,0.5321616823950795
0.06700919511732488,0.9539343029179341,0.011208159762235418,0.07585097594706602,0.07409939541602323,0.6958618770202648
0.04435576171469763,0.9314381470210842,0.029164693853777957,0.06805404598621669,0.08216762585050828,0.7070863910009709
0.02170232831207038,0.9996105160064481,0.006668537956928039,0.056752485286752766,0.10012415994205082,0.46067802293997795
0.08987469729743436,0.9771143601095982,0.02462507204847058,0.04895555532590343,0.10819239037653587,0.46139077909266407
0.0672212638948071,0.9546182042127482,0.013323511349006662,0.06691208941744597,0.10039546041568653,0.6488874591412962
0.044567830492179855,0.9321220483158983,0.002021950649542744,0.08486862350898852,0.0925985304548372,0.8134356109346623
0.021914397089552607,0.9096258924190483,0.019978484741085285,0.07707169354813918,0.10066676088932225,0.8090985001473019
0.09008676607491659,0.8871297365221984,0.008676924041621367,0.09502822763968172,0.09286983092847291,0.7887562749481276
0.06743333267228933,0.9553021055075623,0.02663345813316391,0.08723129767883238,0.10093806136295796,0.5794847775016149
0.04477989926966208,0.9328059496107124,0.015331897433699991,0.10518783177037491,0.09314113140210863,0.7616270892347746
0.022126465867034834,0.9103097937138624,0.004030336734236074,0.000320286921545343,0.11109766549365116,0.8541108231424785
0.09029883485239881,0.8878136378170125,0.021986870825778614,0.008388517356030394,0.1792427501297529,0.8329134835992624
0.06764540144977156,0.9559860068023764,0.010685310126314696,0.026345051447572935,0.17144582016890358,0.5729152427418629
0.04499196804714431,0.9334898509055265,0.02864184421785724,0.018548121486723596,0.17951405060338863,0.6066030393836793
0.02233853464451706,0.9109936950086766,0.01734028351839332,0.03650465557826614,0.1717171206425393,0.7416781868868177
0.09051090362988104,0.8884975391118266,0.0060387228189294016,0.05446118966980868,0.16392019068168998,0.8068553005109146
0.06785747022725379,0.9566699080971905,0.02399525691047194,0.04666425970895934,0.17198842111617502,0.5428752677138969
0.04520403682462654,0.9341737522003406,0.012693696211008023,0.06462079380050188,0.1641914911553257,0.6815264203252477
0.02255060342199929,0.9116775963034907,0.001392135511544105,0.08257732789204442,0.15639456119447637,0.7961767414149064
0.09072297240736327,0.8891814404066407,0.019348669603086645,0.07478039793119508,0.1644627916289614,0.8297176257246721
0.06806953900473602,0.9573538093920047,0.008047108903622728,0.09273693202273761,0.15666586166811208,0.5835671569752325
0.045416105602108764,0.9348576534951547,0.02600364299516527,0.08494000206188827,0.16473409210259712,0.6185961753200276
0.022762672199481516,0.9123614975983048,0.014702082295701352,0.1028965361534308,0.1569371621417478,0.7536802166224595
0.00010923879685426768,0.9805338665836687,0.0034005215962374345,0.12085307024497335,0.14914023218089847,0.46074113141796436
0.01806577288839681,0.9727369366228193,0.011468752030722486,0.1889981548810751,0.2738855084652865,0.462908092272765
0.08623814187376079,0.9502407807259694,0.000167191331258568,0.08413061003224553,0.291842042556829,0.4895102077283061
0.06358470847113354,0.9277446248291195,0.018123725422801107,0.0763336800713962,0.29991027299131406,0.5160460739285924
0.04093127506850629,0.9959169938144834,0.006822164723337189,0.09429021416293873,0.2921133430304647,0.4606746877034011
0.01827784166587904,0.9734208379176335,0.024778698814879728,0.08649328420208939,0.3001815734649498,0.46858778534809686
0.08645021065124302,0.9509246820207835,0.01347713811541581,0.10444981829363192,0.2923846435041004,0.483197454078693
0.06379677724861577,0.9284285261239336,0.0021755774159518924,0.12240635238517447,0.2845877135432511,0.5529281146001594
0.041143343845988514,0.9966008951092975,0.020132111507494433,0.11460942242432513,0.29265594397773614,0.46067589088755123
0.018489910443361266,0.9741047392124476,0.008830550808030515,0.009741877575495564,0.31061247806927866,0.4625651437865772
0.08666227942872524,0.9516085833155976,0.026787084899573058,0.001944947614646226,0.31868070850376373,0.48149885370415424
0.06400884602609799,0.9291124274187477,0.01548552420010914,0.019901481706188766,0.3108837785429144,0.5157074442275515
0.04135541262347074,0.9972847964041116,0.004183963500645222,0.037858015797731306,0.303086848582065,0.46067460092025947
0.018701979220843493,0.9747886405072617,0.022140497592187763,0.030061085836881968,0.3111550790165501,0.4670187138127605
0.08687434820620747,0.9522924846104117,0.010838936892723845,0.04801761992842451,0.30335814905570074,0.48188316212780075
0.06422091480358022,0.9297963287135618,0.028795470984266387,0.04022068996757517,0.3114263794901858,0.4963032787899897
0.04156748140095297,0.9979686976989257,0.00629931508741647,0.02891912926811125,0.20655883464135624,0.4606756975904635
0.01891404799832572,0.9754725418020758,0.02425584917895901,0.02112219930726191,0.21462706507584128,0.4710103999176945
0.0870864169836897,0.9529763859052258,0.012954288479495093,0.03907873339880445,0.20683013511499196,0.5701575582508766
0.06443298358106245,0.9304802300083759,0.0016527277800311747,0.05703526749034699,0.19903320515414263,0.7288945002891775
0.041779550178435196,0.9986525989937398,0.019609261871573715,0.049238337529497654,0.20710143558862767,0.46067623319937395
0.019126116775807948,0.9761564430968899,0.008307701172109798,0.0671948716210402,0.19930450562777835,0.4695313652848131
0.08729848576117193,0.9536602872000399,0.02626423526365234,0.059397941660190856,0.2073727360622634,0.5479485387336549
0.06464505235854467,0.93116413130319,0.014962674564188422,0.0773544757517334,0.19957580610141407,0.6853218800776456
0.04199161895591742,0.9993365002885539,0.0036611138647245044,0.09531100984327595,0.19177887614056474,0.46067598381287866
0.019338185553290175,0.976840344391704,0.021617647956267045,0.08751407988242661,0.19984710657504978,0.47552513153021186
0.08751055453865415,0.954344188494854,0.010316087256803127,0.10547061397396915,0.19205017661420046,0.5788616313568935
0.0648571211360269,0.9318480325980041,0.02827262134834567,0.09767368401311981,0.2001184070486855,0.6290209722941414
0.04220368773339965,0.9093518767011541,0.01697106064888175,0.11563021810466234,0.19232147708783617,0.7821342316144501
0.019550254330772402,0.9775242456865181,0.005669499949417832,0.010762673255832772,0.21027801117937872,0.46779293780042364
0.08772262331613638,0.9550280897896681,0.02362603404096037,0.0029657432949834342,0.21834624161386376,0.5419557377483403
0.06506918991350913,0.9325319338928182,0.012324473341496453,0.020922277386525974,0.21054931165301444,0.6764960849471443
0.04241575651088188,0.9100357779959682,0.0010229126420325356,0.038878811478068515,0.2027523816921651,0.8029354098035274
0.01976232310825463,0.9782081469813322,0.018979446733575076,0.031081881517219176,0.21082061212665015,0.4747066443190219
0.08793469209361861,0.9557119910844822,0.007677886034111158,0.049038415608761717,0.20302368216580083,0.5674739513741776
0.06528125869099136,0.9332158351876323,0.0256344201256537,0.04124148564791238,0.21109191260028587,0.6237940638784697
0.042627825288364105,0.9107196792907823,0.014332859426189783,0.05919801973945492,0.20329498263943654,0.7775424924848221
0.019974391885736856,0.9788920482761463,0.0030312987267258652,0.07715455383099745,0.19549805267858722,0.46786893323448664
0.08814676087110083,0.9563958923792963,0.020987832818268406,0.06935762387014811,0.20356628311307226,0.5467312079791757
0.06549332746847358,0.9338997364824464,0.009686272118804488,0.08731415796169065,0.19576935315222294,0.6885464313582388
0.04283989406584633,0.9114035805855965,0.02764280621034703,0.07951722800084131,0.20383758358670798,0.724395353061059
0.020186460663219084,0.9795759495709604,0.005146650313497113,0.06821566730137739,0.09897003873787841,0.4819390786822728
0.08835882964858306,0.9570797936741104,0.023103184405039653,0.06041873734052805,0.10703826917236346,0.6094944804451108
0.06570539624595581,0.9345836377772605,0.011801623705575736,0.0783752714320706,0.09924133921151412,0.7991866198825384
0.04305196284332856,0.9120874818804106,0.0005000630061118179,0.09633180552361315,0.09144440925066478,0.8648932902683775
0.02039852944070131,0.9802598508657745,0.01845659709765436,0.0885348755627638,0.09951263968514984,0.4779822421796213
0.08857089842606529,0.9577636949689246,0.007155036398190441,0.10649140965430634,0.0917157097243005,0.6942714553702719
0.06591746502343804,0.9352675390720746,0.025111570489732983,0.098694479693457,0.09978394015878556,0.7306084828458959
0.043264031620810786,0.9127713831752247,0.013810009790269065,0.11665101378499954,0.09198701019793622,0.8712805598514867
0.020610598218183538,0.9809437521605886,0.0025084490908051475,0.011783468936169966,0.10994354428947875,0.4790513680683704
0.08878296720354752,0.9584475962637387,0.020464983182347688,0.0039865389753206285,0.1180117747239638,0.606220085300172
0.06612953380092026,0.9359514403668887,0.00916342248288377,0.021943073066863168,0.11021484476311447,0.792877073652823
0.04347610039829301,0.9134552844700388,0.027119956574426313,0.01414614310601383,0.11828307519759952,0.8136563819128917
0.020822666995665765,0.9816276534554027,0.004623800677576395,0.002844582406549912,0.013415530348769952,0.5061291218943704
0.08899503598102974,0.9591314975585528,0.022580334769118936,0.010912812841034963,0.0815606149848717,0.6195100687784627
0.06634160257840249,0.9366353416617028,0.011278774069655018,0.028869346932577505,0.07376368502402236,0.8194428275785295
0.04368816917577524,0.9141391857648529,0.029235308161197557,0.021072416971728167,0.08183191545850742,0.8313177274241614
0.021034735773147992,0.9823115547502168,0.006739152264347639,0.009770856272264249,0.09978844955004995,0.47952381827685214
0.08920710475851197,0.9598153988533669,0.02469568635589018,0.001973926311414911,0.107856679984535,0.5884175844441999
0.06655367135588472,0.9373192429565169,0.013394125656426262,0.019930460402957453,0.10005975002368567,0.7808819283341322
0.04390023795325747,0.914823087059667,0.0020925649569623443,0.03788699449449999,0.09226282006283633,0.8706571753612706
0.02124680455063022,0.9829954560450309,0.020049099048504885,0.03009006453365065,0.10033105049732138,0.46068512938068756
0.0894191735359942,0.960499300148181,0.008747538349040967,0.04804659862519319,0.09253412053647204,0.6693251430560333
0.06676574013336695,0.938003144251331,0.02670407244058351,0.04024966866434385,0.1006023509709571,0.7053376296933658
0.044112306730739695,0.9155069883544811,0.015402511741119592,0.058206202755886394,0.09280542101010776,0.8624863769932021
0.021458873328112447,0.983679357339845,0.004100951041655674,0.07616273684742894,0.08500849104925842,0.48127839399317135
0.08963124231347643,0.9611832014429951,0.022057485133198215,0.0683658068865796,0.09307672148374348,0.5995276393921904
0.06697780891084917,0.9386870455461451,0.010755924433734297,0.08632234097812214,0.08527979152289414,0.7944477108519429
0.04432437550822192,0.9161908896492952,0.02871245852527684,0.0785254110172728,0.09334802195737919,0.808461500470397
0.021670942105594674,0.9843632586346591,0.0062163026284269216,0.06722385031780888,0.11130455604892173,0.4765741996397543
0.08984331109095865,0.9618671027378092,0.024172836719969462,0.05942692035695954,0.11937278648340678,0.5727331904075952
0.0671898776883314,0.9393709468409592,0.012871276020505544,0.07738345444850209,0.11157585652255744,0.7522892781693539
0.04453644428570415,0.9168747909441093,0.0015697153210416266,0.09533998854004463,0.1037789265617081,0.8585264308184254
0.0218830108830769,0.9850471599294732,0.019526249412584167,0.0875430585791953,0.11184715699619316,0.4606784642225269
0.09005537986844088,0.9625510040326233,0.00822468871312025,0.10549959267073783,0.10405022703534382,0.6384436805464292
0.06740194646581363,0.9400548481357733,0.026181222804662792,0.09770266270988849,0.11211845746982887,0.6779440500571466
0.044748513063186376,0.9175586922389234,0.014879662105198874,0.11565919680143102,0.10432152750897954,0.8417745733437701
0.02209507966055913,0.9857310612242873,0.0035781014057349562,0.010791651952601455,0.12227806160052207,0.4738256651123326
0.0902674486459231,0.9632349053274374,0.021534635497277497,0.0029947219917521176,0.1303462920350071,0.5697942860902463
0.06761401524329586,0.9407387494305874,0.010233074797813579,0.020951256083294657,0.12254936207415777,0.7454249939526169
0.044960581840668604,0.9182425935337375,0.02818960888935612,0.013154326122445319,0.13061759250864283,0.7693557000660713
0.022307148438041356,0.9864149625191014,0.005693452992506204,0.001852765422981401,0.025750047659813258,0.49009254865671453
0.09047951742340533,0.9639188066222515,0.023649987084048744,0.009920995857466452,0.09389513229591501,0.5790016180965659
0.06782608402077808,0.9414226507254015,0.012348426384584827,0.027877529949008995,0.08609820233506567,0.7747722792602142
0.04517265061815083,0.9189264948285516,0.001046865685120909,0.045834064040551535,0.07830127237421633,0.8670615054948001
0.022519217215523583,0.9870988638139155,0.01900339977666345,0.038037134079702196,0.08636950280870138,0.4606777105630483
0.09069158620088756,0.9646027079170656,0.007701839077199532,0.05599366817124474,0.07857257284785205,0.6604374894727832
0.06803815279826031,0.9421065520202156,0.025658373168742074,0.0481967382103954,0.0866408032823371,0.694369994241603
0.04538471939563306,0.9196103961233657,0.014356812469278156,0.06615327230193793,0.07884387332148776,0.8602595452966739
0.02273128599300581,0.9877827651087296,0.0030552517698142385,0.08410980639348048,0.07104694336063842,0.48057072304695225
7.785259037856179e-05,0.9652866092118797,0.02101178586135678,0.07631287643263114,0.07911517379512348,0.4608130338585167
0.018034386681921102,0.9574896792510303,0.02908001629584183,0.14445796106873288,0.20386045007951148,0.4768541870745689
0.08620675566728508,0.9349935233541804,0.01777845559637791,0.03959041621990331,0.22181698417105403,0.6541138876180869
0.06355332226465783,0.9124973674573305,0.006476894896913993,0.05754695031144585,0.2140200542102047,0.8005631422890584
0.04089988886203058,0.9806697364426944,0.024433428988456532,0.04975002035059651,0.22208828464468974,0.4606763257668688
0.018246455459403333,0.9581735805458444,0.013131868288992614,0.06770655444213905,0.21429135468384042,0.4782434722453859
0.08641882444476731,0.9356774246489945,0.0018303075895286965,0.0856630885336816,0.2064944247229911,0.7075904410418478
0.06376539104214006,0.9131812687521446,0.019786841681071237,0.07786615857283226,0.21456265515747613,0.7676392834425928
0.04111195763951281,0.9813536377375085,0.00848528098160732,0.09582269266437479,0.2067657251966268,0.47605908880187364
0.01845852423688556,0.9588574818406586,0.02644181507314986,0.08802576270352545,0.21483395563111185,0.4761495744702219
0.08663089322224954,0.9363613259438086,0.015140254373685944,0.10598229679506799,0.20703702567026253,0.6651934153390442
0.06397745981962229,0.9138651700469587,0.003838693674222026,0.0011147519462384181,0.22499355976180507,0.7908845398932447
0.041324026416995036,0.9820375390323226,0.021795227765764567,0.00918298238072347,0.2931386443979068,0.46068618570003805
0.018670593014367787,0.9595413831354727,0.010493667066300649,0.02713951647226601,0.28534171443705747,0.4665256846536627
0.08684296199973177,0.9370452272386227,0.02845020115784319,0.01934258651141667,0.29340994487154254,0.5241983317663075
0.06418952859710451,0.9145490713417728,0.017148640458379272,0.037299120602959215,0.2856130149106932,0.6516530320182922
0.04153609519447726,0.9827214403271367,0.005847079758915354,0.055255654694501756,0.27781608494984383,0.4658420054965038
0.018882661791850015,0.9602252844302868,0.023803613850457893,0.04745872473365242,0.2858843153843289,0.46750696487546817
0.087055030777214,0.9377291285334368,0.012502053150993975,0.06541525882519496,0.27808738542347955,0.5511117437569111
0.06440159737458674,0.9152329726365869,0.0012004924515300573,0.08337179291673749,0.2702904554626302,0.7047541439857856
0.04174816397195949,0.9834053416219508,0.019157026543072598,0.07557486295588815,0.27835868589711527,0.46071979330630874
0.019094730569332242,0.9609091857251009,0.00785546584360868,0.09353139704743069,0.2705617559362659,0.46679269241236304
0.08726709955469622,0.9384130298282509,0.025811999935151222,0.08573446708658135,0.278629986370751,0.5263900951176378
0.06461366615206897,0.915916873931401,0.014510439235687305,0.10369100117812388,0.27083305640990163,0.6587963551103827
0.04196023274944172,0.9840892429167649,0.003208878536223387,0.12164753526966643,0.2630361264490523,0.46502461582924726
0.01930679934681447,0.961593087019915,0.021165412627765928,0.11385060530881709,0.27110435688353735,0.46739903946575667
0.08747916833217845,0.939096931123065,0.00986385192830201,0.008983060459987521,0.28906089097507986,0.5432626881627614
0.0648257349295512,0.9166007752262151,0.027820386019844552,0.0011861304991381836,0.29712912140956493,0.594070356407565
0.042172301526923944,0.984773144211579,0.0053242301229946346,0.019142664590680723,0.2893321914487156,0.46502437219634657
0.019518868124296696,0.9622769883147291,0.023280764214537175,0.011345734629831385,0.29740042188320065,0.466852026026927
0.08769123710966067,0.9397808324178791,0.011979203515073257,0.029302268721373925,0.2896034919223513,0.5321555355961164
0.06503780370703342,0.9172846765210292,0.0006776428156093396,0.047258802812916466,0.28180656196150194,0.6808739019330551
0.04238437030440617,0.9854570455063931,0.01863417690715188,0.03946187285206713,0.289874792395987,0.4606778993758134
0.019730936901778923,0.9629608896095432,0.0073326162076879624,0.05741840694360967,0.28207786243513766,0.46553663546439233
0.0879033058871429,0.9404647337126932,0.025289150299230505,0.04962147698276033,0.29014609286962273,0.514599202715527
0.06524987248451565,0.9179685778158433,0.013987589599766587,0.06757801107430286,0.2823491629087734,0.6332199905499877
0.0425964390818884,0.9861409468012072,0.0026860289003026692,0.08553454516584541,0.274552232947924,0.4641111154642663
0.01994300567926115,0.9636447909043573,0.02064256299184521,0.07773761520499607,0.2826204633824091,0.46666086035213483
0.08811537466462513,0.9411486350075073,0.009341002292381292,0.0956941492965386,0.27482353342155974,0.5364783196645997
0.06546194126199788,0.9186524791106574,0.027297536383923834,0.08789721933568927,0.2828917638560448,0.5795943252596973
0.042808507859370626,0.9868248480960213,0.004801380487073917,0.07659565863622535,0.17802421900721524,0.47574503573674
0.020155074456743378,0.9643286921991714,0.022757914578616457,0.06879872867537601,0.18609244944170028,0.47846208960625897
0.08832744344210736,0.9418325363023214,0.01145635387915254,0.08675526276691856,0.17829551948085096,0.6825694537920862
0.0656740100394801,0.9193363804054715,0.0001547931796886219,0.1047117968584611,0.17049858952000163,0.8042285885061078
0.04302057663685285,0.9875087493908354,0.018111327271231163,0.09691486689761176,0.17856681995448667,0.4606738885982133
0.020367143234225605,0.9650125934939855,0.006809766571767245,0.1148714009891543,0.17076988999363735,0.4834909614612933
0.08853951221958958,0.9425164375971355,0.024766300663309787,0.10707447102830496,0.1788381204281224,0.6289689435122826
0.06588607881696233,0.9200202817002856,0.01346473996384587,0.002206926179475391,0.19679465451966494,0.778023023088658
0.04323264541433508,0.9881926506856495,0.0021631792643819515,0.02016346027101793,0.1889977245588156,0.4709880565498256
0.020579212011707832,0.9656964947887996,0.020119713355924492,0.012366530310168593,0.19706595499330065,0.4772411679358362
0.08875158099707181,0.9432003388919497,0.008818152656460574,0.030323064401711133,0.18926902503245133,0.6717694941112845
0.06609814759444456,0.9207041829950997,0.026774686748003117,0.022526134440861795,0.19733725546693637,0.7275158439453585
0.04344471419181731,0.9888765519804636,0.004278530851153199,0.011224573741397877,0.0924697106181068,0.49081023970579196
0.02079128078919006,0.9663803960836137,0.02223506494269574,0.003427643780548539,0.10053794105259185,0.4885514559925914
0.08896364977455404,0.9438842401867638,0.010933504243231822,0.02138417787209108,0.09274101109174251,0.7827025756783027
0.06631021637192679,0.9213880842899138,0.02889003833477436,0.013587247911241742,0.10080924152622757,0.812582103154469
0.043656782969299535,0.9895604532752778,0.006393882437924443,0.0022856872117778242,0.1187657756177701,0.4885414558639296
0.021003349566672287,0.9670642973784278,0.024350416529466984,0.010353917646262875,0.18691086025387185,0.47822004613161756
0.08917571855203626,0.9445681414815779,0.013048855830003066,0.028310451737805414,0.17911393029302253,0.6630772470625509
0.06652228514940901,0.9220719855847279,0.0017472951305391483,0.046266985829347955,0.1713170003321732,0.8056960791921743
0.04386885174678176,0.9902443545700919,0.01970382922208169,0.038470055868498616,0.17938523076665824,0.46067474972029665
0.021215418344154514,0.9677481986732419,0.008402268522617771,0.05642658996004116,0.17158830080580892,0.48081116208526864
0.08938778732951849,0.945252042776392,0.026358802614160314,0.04862965999919182,0.17965653124029396,0.6112565311586193
0.06673435392689124,0.922755886879542,0.015057241914696396,0.06658619409073435,0.17185960127944463,0.7809848109867618
0.04408092052426399,0.990928255864906,0.003755681215232478,0.0845427281822769,0.1640626713185953,0.4763736139260678
0.02142748712163674,0.968432099968056,0.02171221530677502,0.07674579822142756,0.17213090175308035,0.4789776612704036
0.08959985610700072,0.9459359440712061,0.0104106546073111,0.0947023323129701,0.16433397179223103,0.6759292780977184
0.06694642270437347,0.9234397881743561,0.028367188698853643,0.08690540235212076,0.17240220222671607,0.7250264404604067
0.044292989301746216,0.9916121571597201,0.005871032802003726,0.07560384165265684,0.0675346573778865,0.49629211244995713
0.021639555899118968,0.9691160012628701,0.023827566893546266,0.0678069116918075,0.07560288781237155,0.4865524001594768
0.08981192488448295,0.9466198453660202,0.012526006194082348,0.08576344578335005,0.06780595785152221,0.7822902462691578
0.0671584914818557,0.9241236894691702,0.0012244454946184306,0.10371997987489259,0.060009027890672875,0.8544814206656415
0.04450505807922844,0.9922960584545342,0.01918097958616097,0.09592304991404325,0.06807725832515793,0.4606753223170812
0.021851624676601195,0.9697999025576842,0.007879418886697053,0.11387958400558579,0.06028032836430859,0.5171446216713058
0.09002399366196517,0.9473037466608343,0.025835952978239596,0.10608265404473645,0.06834855879879365,0.6994222115103769
0.06737056025933792,0.9248075907639843,0.014534392278775678,0.00121510919590688,0.0863050928903362,0.8537531884123911
0.04471712685671067,0.9929799597493483,0.0032328315793117603,0.01917164328744942,0.07850816292948685,0.49057915874009383
0.022063693454083422,0.9704838038524983,0.0211893656708543,0.011374713326600082,0.08657639336397191,0.4872308352063116
0.0902360624394474,0.9479876479556484,0.009887804971390383,0.029331247418142622,0.07877946340312257,0.7767194826948702
0.06758262903682015,0.9254914920587984,0.027844339062932925,0.021534317457293284,0.08684769383760763,0.8051689561142129
0.0449291956341929,0.9936638610441624,0.005348183166083008,0.010232756757829366,0.10480422792915017,0.4943080185102249
0.02227576223156565,0.9711677051473124,0.02330471725762555,0.0024358267969800283,0.11287245836363523,0.48291076229346064
0.09044813121692963,0.9486715492504625,0.01200315655816163,0.02039236088852257,0.10507552840278589,0.7333761945770255
0.06779469781430238,0.9261753933536125,0.0007015958586977129,0.03834889498006511,0.09727859844193655,0.8407432487743924
0.045141264411675125,0.9943477623389765,0.018658129950240254,0.030551965019215768,0.1053468288764216,0.4606754838307113
0.022487831009047877,0.9718516064421265,0.007356569250776336,0.04850849911075831,0.09754989891557227,0.49768921747728945
0.09066019999441186,0.9493554505452766,0.025313103342318878,0.04071156914990897,0.10561812935005732,0.657897227411342
0.0680067665917846,0.9268592946484266,0.01401154264285496,0.05866810324145151,0.09782119938920798,0.8367818629040659
0.04535333318915735,0.9950316636337906,0.0027099819433910426,0.07662463733299404,0.09002426942835864,0.48810152344625324
0.022699899786530104,0.9725355077369406,0.020666516034933583,0.0688277073721447,0.0980924998628437,0.48472076489739363
4.64663839028559e-05,0.9500393518400907,0.009364955335469665,0.08678424146368724,0.09029556990199436,0.46112858417696223
0.018003000475445396,0.9422424218792413,0.017433185769954715,0.154929326099789,0.21504084618638236,0.49777709771046563
0.08617536946080938,0.9197462659823914,0.006131625070490797,0.05006178125095942,0.2329973802779249,0.7628289704845179
0.06352193605818213,0.9879186349677553,0.024088159162033336,0.04226485129011008,0.24106561071240995,0.46066959875540536
0.040868502655554875,0.9654224790709054,0.012786598462569418,0.06022138538165262,0.23326868075156063,0.48228711774228944
0.018215069252927627,0.9429263231740554,0.0014850377631055005,0.07817791947319516,0.2254717507907113,0.5132368652398857
0.0863874382382916,0.9204301672772055,0.01944157185464804,0.07038098951234582,0.23353998122519634,0.727319010087381
0.06373400483566435,0.9886025362625694,0.008140011155184123,0.08833752360388836,0.22574305126434702,0.48668485943804146
0.0410805714330371,0.9661063803657195,0.026096545246726666,0.08054059364303902,0.23381128169883206,0.4874798198988692
0.018427138030409854,0.9436102244688696,0.014794984547262748,0.09849712773458155,0.22601435173798273,0.4954956612016643
0.08659950701577383,0.9211140685720196,0.00349342384779883,0.1164536618261241,0.2182174217771334,0.7669792286477944
0.06394607361314658,0.9892864375573835,0.02144995793934137,0.10865673186527476,0.22628565221161845,0.46066947998510294
0.04129264021051933,0.9667902816605336,0.010148397239877453,0.003789187016445192,0.244242186303161,0.47880378793775924
0.01863920680789208,0.9442941257636837,0.028104931331419995,0.011857417450930243,0.3123872709392628,0.46732321422838685
0.08681157579325606,0.9217979698668337,0.016803370631956076,0.029813951542472784,0.3045903409784134,0.5809803360383055
0.06415814239062881,0.9899703388521977,0.005501809932492158,0.04777048563401533,0.29679341101756407,0.46761383653289196
0.04150470898800156,0.9674741829553477,0.023458344024034697,0.03997355567316599,0.30486164145204914,0.4709142482612732
0.01885127558537431,0.9449780270584978,0.012156783324570779,0.05793008976470853,0.2970647114911998,0.46905593703775766
0.08702364457073829,0.9224818711616478,0.0008552226251068613,0.07588662385625107,0.28926778153035043,0.6367013484167984
0.06437021116811104,0.9906542401470118,0.018811756716649402,0.06808969389540173,0.2973360119648355,0.4606689923720138
0.041716777765483784,0.9681580842501618,0.007510196017185484,0.08604622798694428,0.28953908200398615,0.46647928842009373
0.019063344362856536,0.9456619283533119,0.025466730108728027,0.07824929802609494,0.2976073124384712,0.46728600164082124
0.08723571334822051,0.9231657724564619,0.014165169409264109,0.09620583211763747,0.28981038247762186,0.5840178955804762
0.06458227994559326,0.9913381414418259,0.002863608709800191,0.11416236620918002,0.2820134525167725,0.4647183137036852
0.04192884654296601,0.9688419855449759,0.02082014280134273,0.10636543624833068,0.2900816829512576,0.4696306934749683
0.019275413140338763,0.946345829648126,0.009518582101878814,0.001497891399501114,0.3080382170428001,0.46838736444422924
0.08744778212570274,0.923849673751276,0.027475116193421356,0.009566121833986165,0.37618330167890185,0.46301893778074993
0.06479434872307549,0.99202204273664,0.004978960296571439,0.027522655925528706,0.3683863717180525,0.46116695869811136
0.04214091532044824,0.96952588683979,0.02293549438811398,0.019725725964679367,0.37645460215253757,0.46140237230714193
0.01948748191782099,0.9470297309429401,0.011633933688650061,0.03768226005622191,0.3686576721916882,0.46100718288849213
0.08765985090318497,0.9245335750460901,0.00033237298918614364,0.05563879414776445,0.36086074223083886,0.4645104295229306
0.06500641750055772,0.9927059440314541,0.018288907080728684,0.04784186418691511,0.36892897266532393,0.4606806655604117
0.042352984097930466,0.9702097881346041,0.0069873463812647665,0.06579839827845765,0.3611320427044746,0.46090827261251666
0.019699550695303217,0.9477136322377542,0.02494388047280731,0.058001468317608315,0.36920027313895964,0.460952399230099
0.0878719196806672,0.9252174763409042,0.013642319773343391,0.07595800240915085,0.3614033431781103,0.46247365516378
0.06521848627803994,0.9933898453262682,0.0023407590738794733,0.0939145365006934,0.35360641321726094,0.4607135120393026
0.04256505287541269,0.9708936894294182,0.020297293165422014,0.08611760653984406,0.361674643651746,0.4611114197940661
0.019911619472785445,0.9483975335325683,0.008995732465958096,0.10407414063138659,0.35387771369089666,0.4609427269768689
0.08808398845814942,0.9259013776357183,0.02695226655750064,0.09627721067053725,0.3619459441253817,0.4614453136392498
0.06543055505552217,0.9940737466210823,0.004456110660650721,0.08497564997107333,0.2570783992765522,0.4815100389011316
0.04277712165289492,0.9715775907242323,0.02241264475219326,0.077178720010224,0.26514662971103725,0.4808072368123993
0.020123688250267672,0.9490814348273824,0.011111084052729344,0.09513525410176654,0.2573496997501879,0.47771353728015503
0.08829605723563165,0.9265852789305324,0.029067618144271883,0.0873383241409172,0.26541793018467297,0.5991002799007883
0.0656426238330044,0.9947576479158964,0.006571462247421965,0.07603676344145328,0.1605503853358434,0.460666202230146
0.04298919043037715,0.9722614920190464,0.024527996338964506,0.06823983348060395,0.16861861577032844,0.4959497174877568
0.0203357570277499,0.9497653361221965,0.013226435639500588,0.08619636757214649,0.16082168580947911,0.5193477887427203
0.08850812601311388,0.9272691802253465,0.00192487494003667,0.10415290166368904,0.1530247558486298,0.8063343123727439
0.06585469261048663,0.9954415492107105,0.01988140903157921,0.0963559717028397,0.16109298628311483,0.4606717752588167
0.043201259207859374,0.9729453933138605,0.008579848332115293,0.11431250579438224,0.1532960563222655,0.496226850141225
0.020547825805232126,0.9504492374170106,0.026536382423657835,0.1065155758335329,0.16136428675675055,0.4969538489497931
0.0887201947905961,0.9279530815201606,0.015234821724193917,0.0016480309847033275,0.1793208208482931,0.7716656206934354
0.06606676138796885,0.9961254505055246,0.00393326102473,0.019604565076245868,0.17152389088744377,0.47370337486429803
0.0434133279853416,0.9736292946086746,0.02188979511627254,0.01180763511539653,0.1795921213219288,0.49451473667756485
0.020759894582714353,0.9511331387118247,0.010588234416808623,0.02976416920693907,0.17179519136107949,0.5155486873319703
0.08893226356807833,0.9286369828149748,0.028544768508351165,0.02196723924608973,0.17986342179556453,0.7184875383089133
0.06627883016545108,0.9968093518003387,0.006048612611501247,0.010665678546625814,0.07499587694673496,0.4606693985526514
0.04362539676282383,0.9743131959034887,0.024005146703043788,0.002868748585776476,0.08306410738122001,0.4989702807134382
0.02097196336019658,0.9518170400066388,0.01270358600357987,0.020825282677319017,0.07526717742037067,0.5806504778534912
0.08914433234556056,0.9293208841097889,0.0014020253041159524,0.038781816768861554,0.06747024745952133,0.8376530232331788
0.06649089894293331,0.9974932530951528,0.019358559395658493,0.030984886808012216,0.07553847789400639,0.46067277297422676
0.043837465540306056,0.9749970971983029,0.008056998696194575,0.048941420899554756,0.06774154793315705,0.5328782888042801
0.021184032137678808,0.9525009413014529,0.026013532787737118,0.04114449093870542,0.0758097783676421,0.522167881747513
0.08935640112304279,0.930004785404603,0.0147119720882732,0.05910102503024796,0.06801284840679277,0.848387111343351
0.06670296772041553,0.9981771543899669,0.003410411388809282,0.07705755912179049,0.06021591844594343,0.46066921340435135
0.04404953431778828,0.975680998493117,0.021366945480351823,0.06926062916094115,0.06828414888042848,0.5028677531022605
0.021396100915161035,0.953184842596267,0.010065384780887905,0.08721716325248369,0.060487218919579144,0.597128008665421
0.08956846990052501,0.9306886866994171,0.028021918872430447,0.07942023329163435,0.0685554493540642,0.8072969853444731
0.06691503649789776,0.998861055684781,0.00552576297558053,0.06811867259217043,0.08651198344560673,0.46067219873914245
0.04426160309527051,0.9763648997879311,0.02348229706712307,0.06032174263132109,0.09458021388009179,0.4825072833354211
0.021608169692643262,0.9538687438910811,0.012180736367659152,0.07827827672286364,0.08678328391924245,0.5605328969657646
0.08978053867800724,0.9313725879942312,0.0008791756681952347,0.09623481081440619,0.07898635395839311,0.8328114028508983
0.06712710527537999,0.9995449569795951,0.018835709759737775,0.08843788085355685,0.08705458439287816,0.4606730279281925
0.04447367187275274,0.9770488010827452,0.0075341490602738575,0.10639441494509938,0.07925765443202883,0.5197947665348961
0.02182023847012549,0.9545526451858952,0.0254906831518164,0.09859748498425004,0.08732588486651388,0.5129884862244203
0.08999260745548947,0.9320564892890453,0.014189122452352482,0.11655401907579258,0.07952895490566454,0.8358165796991369
0.06733917405286222,0.9095603333921953,0.0028875617528885643,0.011686474226963006,0.09748548899720708,0.8455440490392383
0.044685740650234965,0.9777327023775593,0.020844095844431105,0.0038895442661136684,0.10555371943169213,0.498321525107927
0.022032307247607717,0.9552365464807093,0.009542535144967187,0.021846078357656208,0.09775678947084279,0.5578196451462885
0.0902046762329717,0.9327403905838594,0.02749906923650973,0.01404914839680687,0.10582501990532785,0.7715019671040696
0.06755124283034444,0.9102442346870094,0.01619750853704581,0.03200568248834941,0.09802808994447851,0.8677223214677547
0.04489780942771719,0.9784166036723734,0.004895947837581892,0.04996221657989195,0.09023115998362917,0.5146123569266206
0.022244376025089944,0.9559204477755234,0.02285248192912443,0.04216528661904261,0.09829939041811422,0.5134629067267599
0.09041674501045392,0.9334242918786735,0.011550921229660513,0.06012182071058515,0.09050246045726489,0.8315216518676231
0.06776331160782667,0.9109281359818235,0.0002493605301965955,0.07807835480212769,0.08270553049641555,0.8352270698204509
0.04510987820519942,0.9791005049671875,0.018205894621739136,0.07028142484127835,0.0907737609309006,0.5011372822321469
0.02245644480257217,0.9566043490703375,0.006904333922275218,0.08823795893282088,0.08297683097005126,0.5719761268766159
0.09062881378793615,0.9341081931734876,0.02486086801381776,0.08044102897197154,0.09104506140453632,0.7844213356012741
0.0679753803853089,0.9116120372766376,0.013559307314353843,0.09839756306351408,0.08324813144368698,0.8667294028521243
0.045321946982681646,0.9797844062620016,0.002257746614889925,0.11635409715505662,0.07545120148283764,0.5214229163210837
0.022668513580054398,0.9572882503651516,0.020214280706432466,0.10855716719420729,0.0835194319173227,0.5208746069322553
1.508017742715001e-05,0.9347920944683017,0.008912720006968548,0.003689622345377716,0.10147596600886524,0.461258678551759
0.01797161426896969,0.9269951645074523,0.016980950441453597,0.07183470698147947,0.22622124229325324,0.55290460520572
0.08614398325433367,0.9044990086106024,0.00567938974198968,0.089791241073022,0.21842431233240392,0.8223458869640846
0.06349054985170642,0.9726713775959663,0.02363592383353222,0.08199431111217266,0.22649254276688896,0.5039258098435138
0.04083711644907917,0.9501752216991164,0.0123343631340683,0.0999508452037152,0.21869561280603964,0.5167930865249776
0.01818368304645192,0.9276790658022664,0.001032802434604383,0.11790737929525774,0.2108986828451903,0.6081564849550364
0.0863560520318159,0.9051829099054165,0.018989336526146924,0.1101104493344084,0.21896691327967535,0.8165041208583781
0.06370261862918865,0.9733552788907804,0.007687775826683006,0.005242904485578834,0.2369234473712179,0.48209824551097824
0.0410491852265614,0.9508591229939305,0.025644309918225548,0.013311134920063885,0.30506853200731965,0.4746762090603383
0.01839575182393415,0.9283629670970805,0.01434274921876163,0.03126766901160642,0.2972716020464703,0.4879230333404215
0.08656812080929813,0.9058668112002306,0.0030411885192977127,0.04922420310314896,0.28947467208562094,0.7455218613565698
0.06391468740667088,0.9740391801855945,0.020997722610840253,0.041427273142299624,0.297542902520106,0.4813711710106587
0.041261254004043624,0.9515430242887446,0.009696161911376336,0.059383807233842165,0.28974597255925666,0.4761745298742872
0.018607820601416376,0.9290468683918947,0.027652696002918878,0.051586877272992826,0.29781420299374173,0.4776617337863529
0.08678018958678035,0.9065507124950447,0.01635113530345496,0.06954341136453537,0.2900172730328924,0.7076197756289023
0.0641267561841531,0.9747230814804086,0.005049574603991041,0.08749994545607792,0.282220343072043,0.4680571505039677
0.04147332278152585,0.9522269255835587,0.02300610869553358,0.07970301549522858,0.2902885735065281,0.47449152352749985
0.018819889378898603,0.9297307696867088,0.011704547996069662,0.09765954958677112,0.28249164354567874,0.4900415734993423
0.08699225836426258,0.9072346137898588,0.0004029872966057439,0.11561608367831366,0.2746947135848294,0.7429318694144306
0.06433882496163533,0.9754069827752228,0.018359521388148285,0.10781915371746432,0.28276294401931445,0.4777719034123682
0.04168539155900808,0.9529108268783728,0.007057960688684367,0.002951608868634756,0.300719478110857,0.47423975865267626
0.01903195815638083,0.9304146709815229,0.02501449478022691,0.011019839303119807,0.3688645627469587,0.46152072468196337
0.08720432714174481,0.9079185150846729,0.013712934080762991,0.028976373394662348,0.36106763278610937,0.4751786293196106
0.06455089373911756,0.9760908840700369,0.0024113733812990736,0.04693290748620489,0.35327070282526,0.46102140024515614
0.041897460336490305,0.9535947281731869,0.020367907472841614,0.03913597752535555,0.3613389332597451,0.46151044878317976
0.019244026933863057,0.931098572276337,0.009066346773377696,0.057092511616898094,0.35354200329889574,0.4617781069240923
0.08741639591922704,0.908602416379487,0.02702288086492024,0.049295581656048755,0.3616102337333808,0.46719822273178424
0.06476296251659978,0.976774785364851,0.004526724968070321,0.037994020956584836,0.2567426888845512,0.4729570545012856
0.04210952911397253,0.954278629468001,0.022483259059612862,0.030197090995735497,0.2648109193190363,0.48630640559876925
0.019456095711345284,0.9317824735711511,0.011181698360148944,0.04815362508727804,0.2570139893581869,0.5193792106175765
0.08762846469670926,0.9092863176743011,0.029138232451691483,0.0403566951264287,0.265082219792672,0.727474901025244
0.06497503129408201,0.9774586866596651,0.006642076554841565,0.02905513442696478,0.16021467494384242,0.5009233171837405
0.04232159789145476,0.9549625307628151,0.024598610646384106,0.02125820446611544,0.16828290537832746,0.5199152181334625
0.01966816448882751,0.9324663748659652,0.013297049946920188,0.03921473855765798,0.16048597541747814,0.6127856629339256
0.08784053347419149,0.9099702189691152,0.0019954892474562703,0.05717127264920052,0.1526890454566288,0.8274739955953897
0.06518710007156424,0.9781425879544792,0.01995202333899881,0.04937434268835118,0.16075727589111385,0.5121087123641629
0.04253366666893699,0.9556464320576292,0.008650462639534893,0.06733087677989372,0.15296034593026453,0.5571823185251625
0.01988023326630974,0.9331502761607793,0.026606996731077436,0.05953394681904438,0.16102857636474957,0.5570674234969997
0.08805260225167372,0.9106541202639293,0.015305436031613518,0.07749048091058691,0.15323164640390025,0.8440821321566113
0.06539916884904647,0.9788264892492933,0.0040038753321496,0.09544701500212946,0.14543471644305092,0.5025992173157773
0.042745735446419214,0.9563303333524433,0.02196040942369214,0.08765008504128012,0.15350294687753596,0.5252955233613356
0.020092302043791966,0.9338341774555934,0.010658848724228223,0.10560661913282265,0.14570601691668664,0.62668904111787
0.08826467102915594,0.9113380215587434,0.028615382815770765,0.09780968917197332,0.15377424735117168,0.831466842572675
0.06561123762652869,0.9795103905441074,0.006119226918920848,0.0865081284725094,0.04890670250234211,0.5586758305023116
0.04295780422390144,0.9570142346472574,0.024075761010463388,0.07871119851166006,0.05697493293682716,0.5649573731789793
0.020304370821274193,0.9345180787504075,0.01277420031099947,0.0966677326032026,0.049178002975977825,0.723266369368296
0.08847673980663817,0.9120219228535575,0.0014726396115355526,0.11462426669474515,0.041381073015128486,0.8096560509591273
0.06582330640401092,0.9801942918389215,0.019429173703078093,0.10682733673389581,0.04944930344961354,0.5037622407369794
0.04316987300138367,0.9576981359420715,0.008127613003614175,0.001959791885066245,0.06740583754115609,0.6436779653825796
0.02051643959875642,0.9352019800452216,0.026084147095156718,0.010028022319551296,0.13555092217725784,0.5721057460364479
0.0886888085841204,0.9127058241483716,0.0147825863956928,0.027984556411093837,0.1277539922164085,0.848015273512507
0.06603537518149315,0.9808781931337356,0.0034810256962288823,0.04594109050263638,0.11995706225555917,0.5108318706248278
0.043381941778865896,0.9583820372368856,0.021437559787771423,0.03814416054178704,0.12802529269004423,0.5336367225198769
0.020728508376238648,0.9358858813400357,0.010135999088307505,0.05610069463332958,0.12022836272919489,0.6522678214568205
0.08890087736160263,0.9133897254431858,0.028092533179850047,0.048303764672480244,0.12829659316367995,0.8430065120709818
0.06624744395897537,0.9815620944285497,0.00559637728300013,0.037002203973016325,0.023429048314850376,0.5709650427860017
0.04359401055634812,0.9590659385316997,0.02355291137454267,0.029205274012166986,0.03149727874933543,0.5708676356802631
0.020940577153720875,0.9365697826348498,0.012251350675078753,0.04716180810370953,0.023700348788486092,0.7466282529144286
0.08911294613908485,0.9140736267379999,0.0009497899756148349,0.06511834219525206,0.015903418827636753,0.8019763164785001
0.0664595127364576,0.9822459957233638,0.018906324067157376,0.05732141223440272,0.023971649262121805,0.4615496909840136
0.04380607933383035,0.9597498398265139,0.007604763367693458,0.07527794632594526,0.016174719301272466,0.6907850855191625
0.021152645931203102,0.9372536839296639,0.025561297459236,0.06748101636509592,0.024242949735757517,0.6501817443296909
0.08932501491656708,0.914757528032814,0.014259736759772082,0.08543755045663845,0.01644601977490818,0.8326558762825615
0.06667158151393983,0.9829298970181779,0.0029581760603081646,0.103394084548181,0.00864908981405884,0.5901311205045873
0.04401814811131258,0.960433741121328,0.020914710151850705,0.09559715458733166,0.01671732024854389,0.5858283658939261
0.02136471470868533,0.937937585224478,0.009613149452386787,0.11355368867887419,0.008920390287694552,0.766726136700554
0.08953708369404931,0.9154414293276281,0.02756968354392933,0.10575675871802485,0.016988620722179604,0.8577117474953687
0.06688365029142206,0.983613798312992,0.005073527647079412,0.09445519801856093,0.034945154813722144,0.5522563360056985
0.044230216888794804,0.9611176424161421,0.023030061738621953,0.0866582680577116,0.04301338524820719,0.5557791681509033
0.021576783486167556,0.9386214865192921,0.011728501039158035,0.10461480214925414,0.03521645528735785,0.7213689348516632
0.08974915247153153,0.9161253306224422,0.00042694033969411724,0.12257133624079669,0.027419525326508515,0.8096252676328693
0.06709571906890428,0.9842976996078061,0.018383474431236658,0.11477440627994735,0.03548775576099357,0.4606787089218842
0.04444228566627703,0.9618015437109562,0.00708191373177274,0.009906861431117783,0.05344428985253611,0.6366143470457735
0.021788852263649783,0.9393053878141062,0.025038447823315282,0.0021099314702684455,0.06151252028702116,0.6143470980090859
0.08996122124901376,0.9168092319172563,0.013736887123851365,0.020066465561810985,0.05371559032617182,0.8443061195379734
0.06730778784638651,0.9849816009026202,0.002435326424387447,0.038022999653353526,0.04591866036532248,0.5461450501540822
0.04465435444375926,0.9624854450057703,0.020391860515929987,0.030226069692504187,0.053986890799807535,0.5576723023565413
0.02200092104113201,0.9399892891089203,0.00909029981646607,0.04818260378404673,0.0461899608389582,0.7210317725920812
0.09017329002649599,0.9174931332120704,0.027046833908008612,0.04038567382319739,0.05425819127344325,0.8580832271211791
0.06751985662386874,0.9856655021974343,0.0045506780111586945,0.02908411312373347,0.0722147253649858,0.523118592567512
0.044866423221241486,0.9631693463005844,0.022507212102701235,0.02128718316288413,0.08028295579947085,0.5350494773719293
0.022212989818614238,0.9406731904037344,0.011205651403237317,0.03924371725442667,0.07248602583862152,0.6756415633883692
0.09038535880397822,0.9181770345068845,0.029162185494779856,0.03144678729357733,0.08055425627310657,0.849450124364973
0.06773192540135096,0.9863494034922484,0.006666029597929939,0.020145226594113413,0.0985107903646491,0.5109413094380806
0.04507849199872371,0.9638532475953985,0.02462256368947248,0.012348296633264075,0.10657902079913416,0.5193608056796141
0.022425058596096465,0.9413570916985485,0.013321002990008561,0.030304830724806615,0.09878209083828482,0.6320947892549286
0.09059742758146044,0.9188609358016986,0.0020194422905446437,0.048261364816349156,0.09098516087743548,0.8301132368879853
0.06794399417883319,0.9870333047870625,0.019975976382087184,0.04046443485549982,0.09905339131192054,0.46066635682601503
0.04529056077620594,0.9645371488902126,0.008674415682623266,0.05842096894704236,0.0912564613510712,0.5692681575258256
0.022637127373578692,0.9420409929933626,0.02663094977416581,0.05062403898619302,0.09932469178555625,0.5619784833356849
0.09080949635894267,0.9195448370965127,0.015329389074701891,0.06858057307773556,0.09152776182470691,0.8510098515259128
0.06815606295631542,0.9877172060818766,0.004027828375237973,0.0865371071692781,0.08373083186385757,0.5121323737789025
0.04550262955368817,0.9652210501850267,0.021984362466780514,0.07874017720842875,0.09179906229834263,0.5251139016148617
0.02284919615106092,0.9427248942881767,0.010682801767316596,0.09669671129997129,0.08400213233749329,0.6489588938328369
0.0001957627484336713,0.9202287383913268,0.02863933585885914,0.08889978133912195,0.09207036277197835,0.4675843071518851
0.018152296839976212,0.9124318084304774,0.03670756629334419,0.1570448659752237,0.21681563905636633,0.5681367936093487
0.0863246658253402,0.8899356525336275,0.025406005593880274,0.052177321126394144,0.23477217314790888,0.8410102436498151
0.06367123242271294,0.9581080215189914,0.002909849697030356,0.040875760426930224,0.1299046282990793,0.624073428670668
