prior,sens_tac,spec_tac,sens_vis,spec_vis,density
0.0321875,0.5924074074074074,0.32036000000000003,0.32687755102040816,0.16068000000000002,0.4737289481395633
0.024237051971930844,0.6455657689207258,0.318087334404814,0.3098908023162485,0.19033575833971866,0.6017822533486787
0.024237051971930844,0.6455657689207258,0.318087334404814,0.3098908023162485,0.19033575833971866,0.46150400000298764
0.016286603943861687,0.6987241304340442,0.315814668809628,0.2929040536120888,0.2199915166794373,0.46150400000298764
0.008336155915792532,0.7518824919473627,0.313542003214442,0.27591730490792915,0.24964727501915596,0.46068109617437336
0.00038570788772337647,0.8050408534606811,0.31126933761925596,0.2589305562037695,0.2793030333588746,0.4606785165918999
0.05354406940104178,0.8027681878654951,0.2942825889150963,0.2885863145434881,0.2846839166876707,0.4606781003369146
0.045593621372972626,0.8559265493788135,0.29200992331991027,0.2715995658393284,0.3143396750273893,0.4607033017622474
0.03764317334490347,0.909084910892132,0.28973725772472425,0.25461281713516876,0.3439954333671079,0.4608336632348701
0.029692725316834312,0.9622432724054504,0.28746459212953823,0.23762606843100909,0.37365119170682654,0.4611022787830995
0.021742277288765155,0.9599706068102644,0.27047784342537856,0.2672818267707277,0.37903207503562264,0.461293611917138
0.013791829260696,0.9576979412150783,0.2534910947212189,0.2969375851104463,0.38441295836441874,0.46135995039810757
0.0058413812326268445,0.9554252756198923,0.23650434601705922,0.32659334345016494,0.38979384169321485,0.46110550138140494
0.05899974274594526,0.9531526100247063,0.21951759731289955,0.35624910178988356,0.39517472502201095,0.4658468790141274
0.0510492947178761,0.9508799444295203,0.20253084860873988,0.3859048601296022,0.40055560835080706,0.4642929407176947
0.043098846689806944,0.9486072788343343,0.1855440999045802,0.4155606184693208,0.40593649167960316,0.4627322598739439
0.03514839866173779,0.9463346132391482,0.16855735120042054,0.4452163768090394,0.41131737500839927,0.46194953553961615
0.02719795063366863,0.9994929747524667,0.16628468560523452,0.42822962810487974,0.4409731333481179,0.4653305235608022
0.019247502605599473,0.9972203091572807,0.14929793690107485,0.45788538644459836,0.446354016676914,0.463367883811733
0.011297054577530318,0.9949476435620946,0.13231118819691517,0.487541144784317,0.4517349000057101,0.46241939798174636
0.0033466065494611626,0.9926749779669086,0.1153244394927555,0.5171969031240357,0.4571157833345062,0.4614894833560266
0.056504968062779576,0.9904023123717226,0.09833769078859583,0.5468526614637543,0.4624966666633023,0.48695448298063126
0.04855452003471042,0.9881296467765366,0.08135094208443616,0.576508419803473,0.4678775499920984,0.4949031341804362
0.04060407200664126,0.9858569811813506,0.06436419338027649,0.6061641781431917,0.4732584333208945,0.49367048869282965
0.032653623978572105,0.9835843155861645,0.04737744467611681,0.6358199364829104,0.4786393166496906,0.4883635487176181
0.024703175950502948,0.9813116499909785,0.030390695971957135,0.665475694822629,0.4840201999784867,0.4820026207273293
0.01675272792243379,0.9790389843957925,0.013403947267797457,0.6951314531623477,0.4894010833072828,0.4606796628650115
0.008802279894364636,0.9767663188006065,0.0430597056075161,0.7005123364911439,0.487440844072021,0.4684336829736448
0.0008518318662954806,0.9744936532054205,0.02607295690335642,0.7301680948308625,0.4928217274008171,0.46125511070567077
0.054010193379613894,0.9722209876102345,0.00908620819919674,0.7598238531705812,0.4982026107296132,0.4606722520326292
0.04605974535154474,0.9699483220150484,0.03874196653891537,0.7652047364993774,0.49624237149435135,0.5004200564254385
0.04605974535154474,0.9699483220150484,0.03874196653891537,0.7652047364993774,0.49624237149435135,0.46067461490843603
0.03810929732347558,0.9676756564198624,0.021755217834755695,0.794860494839096,0.5016232548231475,0.46067461490843603
0.030158849295406423,0.9654029908246764,0.0047684691305960175,0.8245162531788147,0.5070041381519437,0.4606771925009203
0.022208401267337266,0.9631303252294904,0.03442422747031465,0.8298971365076109,0.5050438989166819,0.4609322476594251
0.01425795323926811,0.9608576596343044,0.017437478766154972,0.8595528948473296,0.510424782245478,0.4606782614132311
0.006307505211198956,0.9585849940391183,0.0004507300619952942,0.8892086531870482,0.5158056655742742,0.4606784878717697
0.05946586672451737,0.9563123284439323,0.03010648840171393,0.8945895365158444,0.5138454263390124,0.46066845397396367
0.05151541869644821,0.9540396628487463,0.013119739697554252,0.9242452948555631,0.5192263096678086,0.4606744231320831
0.043564970668379055,0.9517669972535603,0.04277549803727289,0.9296261781843592,0.5172660704325468,0.4607315780604864
0.0356145226403099,0.9494943316583743,0.02578874933311321,0.9592819365240779,0.522646953761343,0.46067626995198313
0.02766407461224074,0.9472216660631883,0.008802000628953532,0.9889376948637966,0.5280278370901391,0.4606776608455331
0.019713626584171584,0.9449490004680022,0.038457758968672165,0.9943185781925927,0.5260675978548773,0.46067805691331576
0.011763178556102429,0.9981073619813207,0.03618509337348614,0.977331829488433,0.555723356194596,0.47462964387371764
0.0038127305280332736,0.9958346963861346,0.01919834466932646,0.9827127128172292,0.5537631169593342,0.46449276980456367
0.05697109204135169,0.9935620307909486,0.0022115959651667835,0.9880935961460253,0.5518028777240724,0.4606736372458237
0.04902064401328253,0.9912893651957626,0.03186735430488542,0.9934744794748215,0.5498426384888107,0.5123985642697465
0.04107019598521337,0.9890166996005766,0.014880605600725745,0.9988553628036176,0.5478823992535489,0.49783056608808635
0.033119747957144216,0.9867440340053906,0.044536363940444385,0.9968951235683559,0.5672116514000243,0.5045940122536762
0.02516929992907506,0.9844713684102046,0.027549615236284707,0.9949348843330941,0.5865409035464997,0.48798294179892815
0.02516929992907506,0.9844713684102046,0.027549615236284707,0.9949348843330941,0.5865409035464997,0.4606781382498945
0.017218851901005902,0.9821987028150185,0.010562866532125029,0.9929746450978323,0.6058701556929751,0.4606781382498945
0.009268403872936747,0.9799260372198325,0.04021862487184366,0.9983555284266284,0.6039099164577133,0.47481778407475833
0.0013179558448675917,0.9776533716246465,0.023231876167683983,0.9963952891913667,0.6232391686041887,0.4617443213470508
0.054476317358186005,0.9753807060294605,0.006245127463524305,0.9944350499561049,0.6425684207506641,0.46067454568399874
0.04652586933011685,0.9731080404342745,0.03590088580324294,0.999815933284901,0.6406081815154023,0.5200225436425473
0.04652586933011685,0.9731080404342745,0.03590088580324294,0.999815933284901,0.6406081815154023,0.46067528303882876
0.03857542130204769,0.9708353748390884,0.01891413709908326,0.9978556940496393,0.6599374336618777,0.46067528303882876
0.030624973273978534,0.9685627092439024,0.001927388394923582,0.9958954548143775,0.6792666858083531,0.4606774990169413
0.022674525245909377,0.9662900436487164,0.031583146734642215,0.9939352155791157,0.6985959379548285,0.46095609979753255
0.014724077217840222,0.9640173780535304,0.014596398030482537,0.9993160989079118,0.6966356987195668,0.4606782973225579
0.006773629189771067,0.9617447124583444,0.044252156370201176,0.9973558596726501,0.7159649508660422,0.46985712554341075
0.05993199070308948,0.9594720468631583,0.027265407666041498,0.9953956204373883,0.7352942030125176,0.46066914752124705
0.05198154267502032,0.9571993812679723,0.01027865896188182,0.9934353812021265,0.754623455158993,0.46067497164386983
0.044031094646951166,0.9549267156727863,0.03993441730160045,0.9988162645309226,0.7526632159237312,0.4607207291161828
0.03608064661888201,0.9526540500776003,0.022947668597440775,0.9968560252956609,0.7719924680702066,0.4606763864728037
0.028130198590812852,0.9503813844824143,0.005960919893281097,0.9948957860603991,0.791321720216682,0.4606776569830897
0.020179750562743695,0.9481087188872283,0.03561667823299973,0.9929355468251373,0.8106509723631574,0.46067796690105073
0.01222930253467454,0.9458360532920422,0.01862992952884005,0.9983164301539335,0.8086907331278956,0.4606783855687532
0.004278854506605385,0.9989944148053607,0.01635726393365403,0.9813296814497737,0.8383464914676143,0.470406563831459
0.0574372160199238,0.9967217492101746,0.046013022273372665,0.9867105647785699,0.8363862522323525,0.7923383991968536
0.0574372160199238,0.9967217492101746,0.046013022273372665,0.9867105647785699,0.8363862522323525,0.6320413097938986
0.04948676799185464,0.9944490836149886,0.029026273569212988,0.992091448107366,0.8344260129970907,0.6320413097938986
0.04948676799185464,0.9944490836149886,0.029026273569212988,0.992091448107366,0.8344260129970907,0.5088992298594165
0.041536319963785484,0.9921764180198026,0.01203952486505331,0.9974723314361622,0.832465773761829,0.5088992298594165
0.03358587193571633,0.9899037524246166,0.04169528320477195,0.9955120922009004,0.8517950259083045,0.6621063758598832
0.03358587193571633,0.9899037524246166,0.04169528320477195,0.9955120922009004,0.8517950259083045,0.5141508746894782
0.02563542390764717,0.9876310868294306,0.02470853450061227,0.9935518529656386,0.8711242780547799,0.5141508746894782
0.02563542390764717,0.9876310868294306,0.02470853450061227,0.9935518529656386,0.8711242780547799,0.4606781249023005
0.017684975879578013,0.9853584212342446,0.007721785796452593,0.9989327362944348,0.8691640388195181,0.4606781249023005
0.009734527851508858,0.9830857556390585,0.037377544136171226,0.996972497059173,0.8884932909659935,0.5021021125829688
0.009734527851508858,0.9830857556390585,0.037377544136171226,0.996972497059173,0.8884932909659935,0.4623205817306224
0.0017840798234397028,0.9808130900438725,0.020390795432011548,0.9950122578239112,0.9078225431124689,0.4623205817306224
0.054942441336758116,0.9785404244486865,0.00340404672785187,0.9930520185886494,0.9271517952589443,0.4606748002260949
0.04699199330868896,0.9762677588535005,0.0330598050675705,0.9984329019174456,0.9251915560236825,0.539708477714144
0.04699199330868896,0.9762677588535005,0.0330598050675705,0.9984329019174456,0.9251915560236825,0.46067534572654895
0.0390415452806198,0.9739950932583145,0.016073056363410824,0.9964726626821838,0.9445208081701579,0.46067534572654895
0.031091097252550645,0.9717224276631284,0.045728814703129464,0.994512423446922,0.9638500603166333,0.5560501674655504
0.031091097252550645,0.9717224276631284,0.045728814703129464,0.994512423446922,0.9638500603166333,0.4610195726259992
0.023140649224481488,0.9694497620679424,0.028742065998969786,0.9998933067757182,0.9618898210813716,0.4610195726259992
0.015190201196412333,0.9671770964727564,0.011755317294810108,0.9979330675404564,0.981219073227847,0.4606782845690645
0.007239753168343178,0.9649044308775704,0.04141107563452874,0.9959728283051946,0.9816272878332621,0.4711905935405415
0.06039811468166159,0.9626317652823844,0.024424326930369063,0.9940125890699328,0.9820355024386773,0.46066933930538295
0.052447666653592434,0.9603590996871983,0.007437578226209385,0.999393472398729,0.9800752632034155,0.4606750907354765
0.04449721862552328,0.9580864340920123,0.03709333656592802,0.9974332331634672,0.9994045153498909,0.46071854072333684
0.03654677059745412,0.9558137684968263,0.02010658786176834,0.9954729939282054,0.9998127299553061,0.4606764148362576
0.028596322569384963,0.9535411029016403,0.0031198391576086615,0.9935127546929436,0.9983698427203499,0.4606776383035713
0.020645874541315806,0.9512684373064543,0.032775597497327294,0.9988936380217398,0.9964096034850881,0.46067789908619217
0.012695426513246651,0.9489957717112683,0.015788848793167616,0.996933398786478,0.9968178180905033,0.46067837267774686
0.004744978485177496,0.9467231061160822,0.045444607132886256,0.9949731595512162,0.9972260326959185,0.46068063788664115
0.05790333999849591,0.9444504405208962,0.028457858428726578,0.9930129203159545,0.9976342473013337,0.4606721310124857
0.04995289197042675,0.9976088020342146,0.026185192833540556,0.9760261716117947,0.9956740080660719,0.618381321010823
0.04995289197042675,0.9976088020342146,0.026185192833540556,0.9760261716117947,0.9956740080660719,0.5060084508165121
0.042002443942357595,0.9953361364390286,0.009198444129380878,0.9814070549405909,0.9937137688308101,0.5060084508165121
0.03405199591428844,0.9930634708438426,0.038854202469099514,0.986787938269387,0.9917535295955483,0.6609344536872942
0.03405199591428844,0.9930634708438426,0.038854202469099514,0.986787938269387,0.9917535295955483,0.516343808831454
0.02610154788621928,0.9907908052486566,0.021867453764939836,0.9921688215981832,0.9897932903602865,0.516343808831454
0.02610154788621928,0.9907908052486566,0.021867453764939836,0.9921688215981832,0.9897932903602865,0.46067813329962753
0.018151099858150124,0.9885181396534706,0.004880705060780158,0.9975497049269794,0.9878330511250247,0.46067813329962753
0.010200651830080969,0.9862454740582846,0.03453646340049879,0.9955894656917176,0.9882412657304399,0.5054420503449615
0.010200651830080969,0.9862454740582846,0.03453646340049879,0.9955894656917176,0.9882412657304399,0.46286768358206043
0.002250203802011814,0.9839728084630985,0.017549714696339112,0.9936292264564558,0.9886494803358551,0.46286768358206043
0.05540856531533023,0.9817001428679125,0.0005629659921794344,0.999010109785252,0.9866892411005933,0.46067495762944927
0.04745811728726107,0.9794274772727265,0.03021872433189807,0.9970498705499902,0.9870974557060085,0.5420894393056684
0.04745811728726107,0.9794274772727265,0.03021872433189807,0.9970498705499902,0.9870974557060085,0.46067546427318834
0.03950766925919191,0.9771548116775405,0.013231975627738393,0.9950896313147284,0.9875056703114237,0.46067546427318834
0.031557221231122756,0.9748821460823545,0.04288773396745703,0.9931293920794666,0.9879138849168388,0.5585692755457663
0.031557221231122756,0.9748821460823545,0.04288773396745703,0.9931293920794666,0.9879138849168388,0.46112900703181847
0.0236067732030536,0.9726094804871684,0.02590098526329735,0.9985102754082628,0.9859536456815771,0.46112900703181847
0.015656325174984442,0.9703368148919824,0.008914236559137673,0.996550036173001,0.9863618602869922,0.46067827321992166
0.007705877146915287,0.9680641492967964,0.038569994898856305,0.9945897969377392,0.9867700748924074,0.47211648076874063
0.060864238660233695,0.9657914837016104,0.021583246194696627,0.9999706802665354,0.9848098356571456,0.4606696145596454
0.05291379063216454,0.9635188181064244,0.004596497490536949,0.9980104410312736,0.9852180502625608,0.4606751720287505
0.04496334260409538,0.9612461525112383,0.03425225583025558,0.9960502017960118,0.985626264867976,0.4607166404827367
0.037012894576026224,0.9589734869160523,0.017265507126095904,0.99408996256075,0.9860344794733912,0.4606764503536706
0.029062446547957067,0.9567008213208663,0.000278758421936226,0.9994708458895462,0.9840742402381294,0.4606776011720036
0.02111199851988791,0.9544281557256803,0.029934516761654862,0.9975106066542844,0.9844824548435446,0.4606778417143598
0.013161550491818755,0.9521554901304943,0.012947768057495184,0.9955503674190226,0.9848906694489598,0.46067835982768673
0.0052111024637496,0.9498828245353083,0.04260352639721382,0.9935901281837608,0.9852988840543749,0.46068064654288016
0.058369463977068006,0.9476101589401222,0.025616777693054142,0.998971011512557,0.9833386448191132,0.46067228894091616
0.05041901594899885,0.9453374933449362,0.008630028988894464,0.9970107722772952,0.9837468594245283,0.4606754313560991
0.04246856792092969,0.9984958548582547,0.00635736339370844,0.9800240235731354,0.9891277427533245,0.5039213423043299
0.034518119892860535,0.9962231892630686,0.03601312173342708,0.9854049069019316,0.9871675035180627,0.6598435798826504
0.034518119892860535,0.9962231892630686,0.03601312173342708,0.9854049069019316,0.9871675035180627,0.5170205320358274
0.02656767186479138,0.9939505236678826,0.0190263730292674,0.9907857902307278,0.9852072642828009,0.5170205320358274
0.02656767186479138,0.9939505236678826,0.0190263730292674,0.9907857902307278,0.9852072642828009,0.4606781577114317
0.01861722383672222,0.9916778580726966,0.0020396243251077223,0.9961666735595239,0.9832470250475391,0.4606781577114317
0.010666775808653066,0.9894051924775106,0.031695382664826355,0.9942064343242621,0.9836552396529543,0.5073472830699193
0.010666775808653066,0.9894051924775106,0.031695382664826355,0.9942064343242621,0.9836552396529543,0.46345344925387155
0.002716327780583911,0.9871325268823246,0.014708633960666677,0.9995873176530583,0.9816950004176925,0.46345344925387155
0.055874689293902324,0.9848598612871385,0.044364392300385316,0.9976270784177965,0.9821032150231077,0.7167457188973102
0.055874689293902324,0.9848598612871385,0.044364392300385316,0.9976270784177965,0.9821032150231077,0.5437367070904866
0.04792424126583317,0.9825871956919525,0.02737764359622564,0.9956668391825347,0.9825114296285229,0.5437367070904866
0.04792424126583317,0.9825871956919525,0.02737764359622564,0.9956668391825347,0.9825114296285229,0.46067563813694784
0.03997379323776401,0.9803145300967665,0.01039089489206596,0.993706599947273,0.9829196442339381,0.46067563813694784
0.03202334520969485,0.9780418645015805,0.04004665323178459,0.9990874832760691,0.9809594049986763,0.564394523491319
0.03202334520969485,0.9780418645015805,0.04004665323178459,0.9990874832760691,0.9809594049986763,0.4613198956066288
0.024072897181625696,0.9757691989063945,0.023059904527624915,0.9971272440408073,0.9813676196040915,0.4613198956066288
0.01612244915355654,0.9734965333112084,0.006073155823465237,0.9951670048055455,0.9817758342095066,0.46067826285141195
0.008172001125487384,0.9712238677160224,0.03572891416318387,0.9932067655702838,0.9821840488149218,0.47304679114127607
0.00022155309741822907,0.9689512021208364,0.018742165459024192,0.9985876488990799,0.98022380957966,0.46067849043976555
0.05337991461073664,0.9666785365256504,0.0017554167548645139,0.9966274096638181,0.9995530617261355,0.4606752129641739
0.045429466582667485,0.9644058709304644,0.031411175094583146,0.9946671704285563,0.9999612763315506,0.4607143923979487
0.03747901855459833,0.9621332053352784,0.014424426390423468,0.9927069311932946,0.9985183890965944,0.46067649449127485
0.02952857052652917,0.9598605397400923,0.04408018473014211,0.9980878145220907,0.9965581498613326,0.4948649940762025
0.02952857052652917,0.9598605397400923,0.04408018473014211,0.9980878145220907,0.9965581498613326,0.4606777924669524
0.021578122498460015,0.9575878741449063,0.02709343602598243,0.9961275752868289,0.9969663644667478,0.4606777924669524
0.01362767447039086,0.9553152085497203,0.010106687321822752,0.9941673360515672,0.997374579072163,0.4606783469981673
0.005677226442321704,0.9530425429545343,0.039762445661541385,0.9995482193803633,0.9954143398369012,0.46068059323486704
0.05883558795564012,0.9507698773593483,0.022775696957381707,0.9975879801451015,0.9958225544423164,0.4606724378411384
0.05088513992757096,0.9484972117641622,0.005788948253222029,0.9956277409098397,0.9962307690477316,0.46067545681020095
0.0429346918995018,0.9462245461689762,0.03544470659294066,0.993667501674578,0.9966389836531467,0.4606742756976525
0.034984243871432646,0.9993829076822947,0.033172040997754636,0.9766807529704182,0.994678744417885,0.6478860547944353
0.034984243871432646,0.9993829076822947,0.033172040997754636,0.9766807529704182,0.994678744417885,0.5132731540045621
0.02703379584336349,0.9971102420871086,0.016185292293594958,0.9820616362992144,0.9927185051826232,0.5132731540045621
0.019083347815294333,0.9948375764919226,0.04584105063331359,0.9874425196280106,0.9907582659473614,0.6651603085483553
0.019083347815294333,0.9948375764919226,0.04584105063331359,0.9874425196280106,0.9907582659473614,0.5091891553014092
0.011132899787225177,0.9925649108967366,0.028854301929153912,0.9928234029568067,0.9887980267120996,0.5091891553014092
0.011132899787225177,0.9925649108967366,0.028854301929153912,0.9928234029568067,0.9887980267120996,0.46402265089131683
0.003182451759156022,0.9902922453015506,0.011867553224994234,0.9982042862856029,0.9868377874768378,0.46402265089131683
0.056340813272474435,0.9880195797063646,0.04152331156471287,0.9962440470503411,0.987246002082253,0.7173907565787158
0.056340813272474435,0.9880195797063646,0.04152331156471287,0.9962440470503411,0.987246002082253,0.5452960632578615
0.04839036524440528,0.9857469141111785,0.02453656286055319,0.9942838078150793,0.9876542166876682,0.5452960632578615
0.04839036524440528,0.9857469141111785,0.02453656286055319,0.9942838078150793,0.9876542166876682,0.46067587844941726
0.04043991721633612,0.9834742485159925,0.007549814156393511,0.9996646911438755,0.9856939774524064,0.46067587844941726
0.032489469188266965,0.9812015829208065,0.037205572496112144,0.9977044519086137,0.9861021920578216,0.566328916938192
0.032489469188266965,0.9812015829208065,0.037205572496112144,0.9977044519086137,0.9861021920578216,0.4617014658961945
0.024539021160197808,0.9789289173256205,0.020218823791952466,0.9957442126733519,0.9865104066632367,0.4617014658961945
0.01658857313212865,0.9766562517304345,0.003232075087792788,0.9937839734380901,0.9869186212686519,0.4606782514519249
0.008638125104059495,0.9743835861352484,0.03288783342751142,0.9991648567668863,0.9849583820333901,0.47431108636418223
0.0006876770759903401,0.9721109205400624,0.015901084723351742,0.9972046175316245,0.9853665966388053,0.46067849904119335
0.05384603858930875,0.9698382549448764,0.04555684306307038,0.9952443782963627,0.9857748112442205,0.59247017017687
0.05384603858930875,0.9698382549448764,0.04555684306307038,0.9952443782963627,0.9857748112442205,0.46071182957633905
0.045895590561239596,0.9675655893496904,0.028570094358910704,0.9932841390611009,0.9861830258496357,0.46071182957633905
0.03794514253317044,0.9652929237545044,0.011583345654751026,0.9986650223898971,0.9842227866143739,0.4606765584697312
0.029994694505101283,0.9630202581593184,0.04123910399446966,0.9967047831546353,0.9846310012197891,0.4963489951271114
0.029994694505101283,0.9630202581593184,0.04123910399446966,0.9967047831546353,0.9846310012197891,0.4606777527782281
0.022044246477032126,0.9607475925641323,0.02425235529030998,0.9947445439193735,0.9850392158252043,0.4606777527782281
0.01409379844896297,0.9584749269689463,0.007265606586150303,0.9927843046841117,0.9854474304306194,0.46067833385571205
0.006143350420893815,0.9562022613737603,0.036921364925868935,0.9981651880129079,0.9834871911953577,0.4606805292997299
0.05930171193421223,0.9539295957785743,0.019934616221709257,0.9962049487776461,0.9838954058007728,0.4606726025592871
0.05135126390614307,0.9516569301833883,0.0029478675175495794,0.9942447095423843,0.984303620406188,0.46067546232271944
0.043400815878073914,0.9493842645882022,0.03260362585726821,0.9996255928711805,0.9823433811709262,0.46067427812355405
0.03545036785000476,0.9471115989930162,0.015616877153108534,0.9976653536359187,0.9827515957763414,0.4606768974382878
0.0274999198219356,0.9448389333978302,0.045272635492827173,0.9957051144006569,0.9831598103817566,0.460680234384828
0.019549471793866444,0.9979972949111486,0.04299996989764115,0.9787183656964972,0.9885406937105528,0.6556109662162241
0.019549471793866444,0.9979972949111486,0.04299996989764115,0.9787183656964972,0.9885406937105528,0.5070083924939041
0.011599023765797288,0.9957246293159626,0.02601322119348147,0.9840992490252933,0.986580454475291,0.5070083924939041
0.011599023765797288,0.9957246293159626,0.02601322119348147,0.9840992490252933,0.986580454475291,0.46448799346080843
0.003648575737728133,0.9934519637207766,0.009026472489321792,0.9894801323540895,0.9846202152400292,0.46448799346080843
0.056806937251046546,0.9911792981255906,0.03868223082904043,0.9948610156828857,0.9826599760047674,0.7171809972275611
0.056806937251046546,0.9911792981255906,0.03868223082904043,0.9948610156828857,0.9826599760047674,0.5464686973106598
0.04885648922297739,0.9889066325304046,0.021695482124880754,0.9929007764476239,0.9830681906101826,0.5464686973106598
0.04885648922297739,0.9889066325304046,0.021695482124880754,0.9929007764476239,0.9830681906101826,0.4606761549998819
0.04090604119490823,0.9866339669352185,0.004708733420721076,0.99828165977642,0.9811079513749208,0.4606761549998819
0.032955593166839076,0.9843613013400325,0.03436449176043971,0.9963214205411582,0.981516165980336,0.5680143115781645
0.032955593166839076,0.9843613013400325,0.03436449176043971,0.9963214205411582,0.981516165980336,0.4626293791749398
0.02500514513876992,0.9820886357448465,0.01737774305628003,0.9943611813058965,0.9819243805857512,0.4626293791749398
0.01705469711070076,0.9798159701496605,0.0003909943521203524,0.9997420646346926,0.9799641413504894,0.4606782278246148
0.009104249082631606,0.9775433045544745,0.03004675269183899,0.9977818253994308,0.9992933934969648,0.4753242896424021
0.0011538010545624512,0.9752706389592884,0.01306000398767931,0.995821586164169,0.99970160810238,0.46067850420333684
0.054312162567880864,0.9729979733641024,0.042715762327397946,0.9938613469289073,0.9982587208674237,0.5948742149627706
0.054312162567880864,0.9729979733641024,0.042715762327397946,0.9938613469289073,0.9982587208674237,0.460708494771961
0.04636171453981171,0.9707253077689164,0.02572901362323827,0.9992422302577034,0.996298481632162,0.460708494771961
0.03841126651174255,0.9684526421737304,0.00874226491907859,0.9972819910224416,0.9967066962375771,0.46067661803747534
0.030460818483673394,0.9661799765785444,0.03839802325879722,0.9953217517871799,0.9971149108429923,0.4978529568591066
0.030460818483673394,0.9661799765785444,0.03839802325879722,0.9953217517871799,0.9971149108429923,0.46067772351685987
0.022510370455604237,0.9639073109833584,0.021411274554637545,0.9933615125519181,0.9975231254484075,0.46067772351685987
0.014559922427535081,0.9616346453881723,0.004424525850477867,0.9987423958807142,0.9955628862131457,0.4606783197301483
0.006609474399465926,0.9593619797929863,0.0340802841901965,0.9967821566454524,0.9959711008185609,0.4606804224850142
0.05976783591278434,0.9570893141978003,0.017093535486036822,0.9948219174101907,0.9963793154239761,0.460672783662026
0.05181738788471518,0.9548166486026143,0.00010678678187714397,0.9928616781749289,0.9967875300293912,0.46067541908636767
0.043866939856646026,0.9525439830074283,0.02976254512159578,0.998242561503725,0.9948272907941295,0.46067429874099913
0.03591649182857687,0.9502713174122422,0.012775796417436102,0.9962823222684632,0.9952355053995446,0.4606769078245986
0.02796604380050771,0.9479986518170562,0.04243155475715474,0.9943220830332015,0.9956437200049598,0.46067974308052445
0.020015595772438555,0.9457259862218702,0.02544480605299506,0.9997029663619976,0.993683480769698,0.4606780053989901
0.0120651477443694,0.9988843477351886,0.023172140457809038,0.9827162176578379,0.9990643640984942,0.5077460380877318
0.0120651477443694,0.9988843477351886,0.023172140457809038,0.9827162176578379,0.9990643640984942,0.4649380973588151
0.004114699716300244,0.9966116821400026,0.00618539175364936,0.9880971009866341,0.9971041248632324,0.4649380973588151
0.05727306122961866,0.9943390165448166,0.035841150093367996,0.9934779843154302,0.9951438856279706,0.7170492832480478
0.05727306122961866,0.9943390165448166,0.035841150093367996,0.9934779843154302,0.9951438856279706,0.5520960893267363
0.0493226132015495,0.9920663509496306,0.018854401389208318,0.9988588676442264,0.9931836463927088,0.5520960893267363
0.0493226132015495,0.9920663509496306,0.018854401389208318,0.9988588676442264,0.9931836463927088,0.460676458700553
0.041372165173480344,0.9897936853544446,0.0018676526850486402,0.9968986284089646,0.993591860998124,0.460676458700553
0.03342171714541119,0.9875210197592585,0.03152341102476727,0.9949383891737028,0.9940000756035392,0.5698747761612837
0.03342171714541119,0.9875210197592585,0.03152341102476727,0.9949383891737028,0.9940000756035392,0.46554485227940134
0.02547126911734203,0.9852483541640725,0.014536662320607595,0.992978149938441,0.9944082902089544,0.46554485227940134
0.017520821089272873,0.9829756885688865,0.044192420660326234,0.9983590332672372,0.9924480509736926,0.5736108787314257
0.017520821089272873,0.9829756885688865,0.044192420660326234,0.9983590332672372,0.9924480509736926,0.47631696292980275
0.009570373061203718,0.9807030229737005,0.027205671956166556,0.9963987940319754,0.9928562655791078,0.47631696292980275
0.0016199250331345623,0.9784303573785145,0.010218923252006878,0.9944385547967136,0.993264480184523,0.46067850643016434
0.054778286546452976,0.9761576917833285,0.03987468159172551,0.9998194381255098,0.9913042409492612,0.601673388570782
0.054778286546452976,0.9761576917833285,0.03987468159172551,0.9998194381255098,0.9913042409492612,0.4607051255245265
0.04682783851838382,0.9738850261881424,0.022887932887565833,0.997859198890248,0.9917124555546764,0.4607051255245265
0.03887739049031466,0.9716123605929564,0.005901184183406155,0.9958989596549862,0.9921206701600915,0.4606766814970528
0.030926942462245505,0.9693396949977704,0.03555694252312479,0.9939387204197244,0.9925288847655067,0.4992897854136097
0.030926942462245505,0.9693396949977704,0.03555694252312479,0.9939387204197244,0.9925288847655067,0.46067770819810816
0.022976494434176348,0.9670670294025844,0.01857019381896511,0.9993196037485206,0.9905686455302449,0.46067770819810816
0.015026046406107193,0.9647943638073984,0.0015834451148054318,0.9973593645132588,0.9909768601356601,0.4606783007853212
0.007075598378038037,0.9625216982122123,0.031239203454524068,0.995399125277997,0.9913850747410753,0.46068028014116946
0.06023395989135645,0.9602490326170263,0.01425245475036439,0.9934388860427352,0.9917932893464905,0.4606729801876221
0.052283511863287294,0.9579763670218403,0.043908213090083026,0.9988197693715314,0.9898330501112287,0.5078084777731248
0.052283511863287294,0.9579763670218403,0.043908213090083026,0.9988197693715314,0.9898330501112287,0.4606743412640615
0.04433306383521814,0.9557037014266543,0.026921464385923348,0.9968595301362696,0.9902412647166439,0.4606743412640615
0.03638261580714898,0.9534310358314683,0.00993471568176367,0.9948992909010078,0.990649479322059,0.46067692009572025
0.028432167779079823,0.9511583702362822,0.0395904740214823,0.992939051665746,0.9910576939274742,0.4606792607706667
0.020481719751010666,0.9488857046410962,0.022603725317322625,0.9983199349945422,0.9890974546922124,0.46067798932600296
0.01253127172294151,0.9466130390459102,0.005616976613162947,0.9963596957592804,0.9895056692976276,0.4606783758718749
0.004580823694872355,0.9997714005592286,0.0033443110179769233,0.9793729470551207,0.9948865526264238,0.4647152641695685
0.05773918520819077,0.9974987349640426,0.03300006935769556,0.9847538303839168,0.992926313391162,0.7040899273397121
0.05773918520819077,0.9974987349640426,0.03300006935769556,0.9847538303839168,0.992926313391162,0.5474470484499814
0.04978873718012161,0.9952260693688566,0.016013320653535883,0.990134713712713,0.9909660741559002,0.5474470484499814
0.041838289152052455,0.9929534037736706,0.04566907899325452,0.9955155970415092,0.9890058349206384,0.7530535156955154
0.041838289152052455,0.9929534037736706,0.04566907899325452,0.9955155970415092,0.9890058349206384,0.5710222075006471
0.0338878411239833,0.9906807381784846,0.028682330289094844,0.9935553578062474,0.9894140495260536,0.5710222075006471
0.0338878411239833,0.9906807381784846,0.028682330289094844,0.9935553578062474,0.9894140495260536,0.474463256785758
0.02593739309591414,0.9884080725832985,0.011695581584935166,0.9989362411350435,0.9874538102907918,0.474463256785758
0.017986945067844984,0.9861354069881125,0.0413513399246538,0.9969760018997817,0.987862024896207,0.5757385153487745
0.017986945067844984,0.9861354069881125,0.0413513399246538,0.9969760018997817,0.987862024896207,0.4773024186377652
0.010036497039775829,0.9838627413929265,0.02436459122049412,0.99501576266452,0.9882702395016222,0.4773024186377652
0.0020860490117066734,0.9815900757977405,0.007377842516334443,0.9930555234292582,0.9886784541070374,0.4606785060557496
0.05524441052502509,0.9793174102025545,0.037033600856053076,0.9984364067580543,0.9867182148717756,0.6030890048229426
0.05524441052502509,0.9793174102025545,0.037033600856053076,0.9984364067580543,0.9867182148717756,0.4607011856014856
0.04729396249695593,0.9770447446073685,0.020046852151893398,0.9964761675227926,0.9871264294771908,0.4607011856014856
0.03934351446888677,0.9747720790121824,0.0030601034477337197,0.9945159282875308,0.9875346440826059,0.4606767377156643
0.031393066440817616,0.9724994134169964,0.03271586178745235,0.9998968116163269,0.9855744048473442,0.5014002805945629
0.031393066440817616,0.9724994134169964,0.03271586178745235,0.9998968116163269,0.9855744048473442,0.46067770185978973
0.02344261841274846,0.9702267478218104,0.015729113083292674,0.9979365723810651,0.9859826194527593,0.46067770185978973
0.015492170384679304,0.9679540822266244,0.045384871423011314,0.9959763331458034,0.9863908340581745,0.4993029585788927
0.015492170384679304,0.9679540822266244,0.045384871423011314,0.9959763331458034,0.9863908340581745,0.46068010507703566
0.007541722356610148,0.9656814166314384,0.028398122718851636,0.9940160939105416,0.9867990486635897,0.46068010507703566
0.06070008386992856,0.9634087510362523,0.011411374014691958,0.9993969772393377,0.9848388094283279,0.4606732244031962
0.052749635841859405,0.9611360854410663,0.04106713235441059,0.997436738004076,0.9852470240337431,0.5108790955691022
0.052749635841859405,0.9611360854410663,0.04106713235441059,0.997436738004076,0.9852470240337431,0.4606744077253653
0.04479918781379025,0.9588634198458803,0.024080383650250912,0.9954764987688142,0.9856552386391583,0.4606744077253653
0.03684873978572109,0.9565907542506943,0.007093634946091235,0.9935162595335524,0.9860634532445735,0.4606769321584073
0.028898291757651934,0.9543180886555083,0.03674939328580987,0.9988971428623485,0.9841032140093117,0.46067876082326914
0.020947843729582777,0.9520454230603222,0.01976264458165019,0.9969369036270868,0.9845114286147268,0.4606779754300194
0.012997395701513622,0.9497727574651362,0.0027758958774905113,0.994976664391825,0.984919643220142,0.4606783604867764
0.005046947673444466,0.9475000918699502,0.032431654217209144,0.9930164251565632,0.9853278578255572,0.4606785520937965
0.05820530918676288,0.9452274262747642,0.015444905513049466,0.9983973084853593,0.9833676185902954,0.4606738336356453
0.05025486115869372,0.9983857877880826,0.013172239917863442,0.9814105597811996,0.9887485019190916,0.5403663903290218
0.042304413130624566,0.9961131221928966,0.04282799825758208,0.9867914431099958,0.9867882626838298,0.7407502607846785
0.042304413130624566,0.9961131221928966,0.04282799825758208,0.9867914431099958,0.9867882626838298,0.5716917085488142
0.03435396510255541,0.9938404565977106,0.025841249553422402,0.9921723264387919,0.984828023448568,0.5716917085488142
0.03435396510255541,0.9938404565977106,0.025841249553422402,0.9921723264387919,0.984828023448568,0.4827389717969496
0.026403517074486252,0.9915677910025246,0.008854500849262724,0.9975532097675881,0.9828677842133062,0.4827389717969496
0.018453069046417095,0.9892951254073385,0.03851025918898136,0.9955929705323263,0.9832759988187214,0.577704141896438
0.018453069046417095,0.9892951254073385,0.03851025918898136,0.9955929705323263,0.9832759988187214,0.47825292228851485
0.01050262101834794,0.9870224598121525,0.021523510484821685,0.9936327312970645,0.9836842134241366,0.47825292228851485
0.0025521729902787844,0.9847497942169665,0.0045367617806620075,0.9990136146258607,0.9817239741888748,0.4606785031690774
0.0557105345035972,0.9824771286217805,0.03419252012038064,0.9970533753905989,0.98213218879429,0.6047138332785946
0.0557105345035972,0.9824771286217805,0.03419252012038064,0.9970533753905989,0.98213218879429,0.46069664542607197
0.04776008647552804,0.9802044630265945,0.017205771416220962,0.9950931361553371,0.9825404033997052,0.46069664542607197
0.039809638447458884,0.9779317974314085,0.0002190227120612842,0.9931328969200753,0.9829486180051203,0.46067673670292225
0.03185919041938973,0.9756591318362224,0.02987478105177992,0.9985137802488715,0.9809883787698586,0.5027803116160007
0.03185919041938973,0.9756591318362224,0.02987478105177992,0.9985137802488715,0.9809883787698586,0.4606777065139245
0.02390874239132057,0.9733864662410364,0.012888032347620242,0.9965535410136097,0.9813965933752737,0.4606777065139245
0.015958294363251413,0.9711138006458504,0.04254379068733888,0.9945933017783479,0.9818048079806889,0.5009369188855043
0.015958294363251413,0.9711138006458504,0.04254379068733888,0.9945933017783479,0.9818048079806889,0.46067988176518476
0.008007846335182258,0.9688411350506644,0.0255570419831792,0.9999741851071441,0.9798445687454271,0.46067988176518476
5.739830711310248e-05,0.9665684694554784,0.008570293279019522,0.9980139458718823,0.9991738208919025,0.46067848555390234
0.053215759820431516,0.9642958038602923,0.038226051618738155,0.9960537066366205,0.9995820354973177,0.513554370474753
0.053215759820431516,0.9642958038602923,0.038226051618738155,0.9960537066366205,0.9995820354973177,0.4606744992502608
0.04526531179236236,0.9620231382651063,0.021239302914578477,0.9940934674013587,0.9999902501027329,0.4606744992502608
0.0373148637642932,0.9597504726699203,0.004252554210418799,0.9994743507301549,0.9980300108674711,0.4606769443317204
0.029364415736224045,0.9574778070747343,0.03390831255013743,0.9975141114948931,0.9984382254728863,0.4606783157990816
0.021413967708154888,0.9552051414795483,0.016921563845977754,0.9955538722596313,0.9988464400783015,0.4606779638217823
0.013463519680085733,0.9529324758843623,0.04657732218569639,0.9935936330243695,0.9992546546837167,0.4638710393483557
0.0055130716520165775,0.9506598102891762,0.029590573481536715,0.9989745163531657,0.9972944154484549,0.46067854309871575
0.05867143316533499,0.9483871446939902,0.012603824777377037,0.9970142771179039,0.99770263005387,0.46067393062005707
0.050720985137265834,0.9461144790988042,0.04225958311709567,0.9950540378826421,0.9981108446592852,0.4606719642654095
0.04277053710919668,0.9992728406121226,0.039986917521909644,0.9780672891784824,0.9961506054240234,0.7267490364604503
0.04277053710919668,0.9992728406121226,0.039986917521909644,0.9780672891784824,0.9961506054240234,0.5648230905870629
0.03482008908112752,0.9970001750169366,0.023000168817749966,0.9834481725072786,0.9941903661887617,0.5648230905870629
0.03482008908112752,0.9970001750169366,0.023000168817749966,0.9834481725072786,0.9941903661887617,0.4849989122756714
0.026869641053058363,0.9947275094217506,0.0060134201135902884,0.9888290558360747,0.9922301269534999,0.4849989122756714
0.018919193024989206,0.9924548438265646,0.03566917845330893,0.9942099391648709,0.9902698877182381,0.5797485829819597
0.018919193024989206,0.9924548438265646,0.03566917845330893,0.9942099391648709,0.9902698877182381,0.48015459310891545
0.01096874499692005,0.9901821782313786,0.01868242974914925,0.999590822493667,0.9883096484829763,0.48015459310891545
0.0030182969688508955,0.9879095126361925,0.001695681044989572,0.9976305832584053,0.9887178630883915,0.4606784976777358
0.05617665848216931,0.9856368470410065,0.031351439384708205,0.9956703440231435,0.9891260776938067,0.6064382472597452
0.05617665848216931,0.9856368470410065,0.031351439384708205,0.9956703440231435,0.9891260776938067,0.46069147989734727
0.04822621045410015,0.9833641814458205,0.014364690680548527,0.9937101047878817,0.9895342922992219,0.46069147989734727
0.040275762426030995,0.9810915158506345,0.044020449020267166,0.9990909881166778,0.9875740530639601,0.6429065815317427
0.040275762426030995,0.9810915158506345,0.044020449020267166,0.9990909881166778,0.9875740530639601,0.5042226216870244
0.03232531439796184,0.9788188502554485,0.027033700316107488,0.9971307488814161,0.9879822676693752,0.5042226216870244
0.03232531439796184,0.9788188502554485,0.027033700316107488,0.9971307488814161,0.9879822676693752,0.46067772181523947
0.02437486636989268,0.9765461846602624,0.01004695161194781,0.9951705096461543,0.9883904822747904,0.46067772181523947
0.016424418341823524,0.9742735190650764,0.03970270995166644,0.9932102704108925,0.9887986968802056,0.5026279759447017
0.016424418341823524,0.9742735190650764,0.03970270995166644,0.9932102704108925,0.9887986968802056,0.4606796662090823
0.008473970313754369,0.9720008534698904,0.022715961247506765,0.9985911537396887,0.9868384576449438,0.4606796662090823
0.0005235222856852136,0.9697281878747044,0.005729212543347087,0.9966309145044269,0.987246672250359,0.46067848933126737
0.05368188379900363,0.9674555222795184,0.03538497088306572,0.9946706752691651,0.9876548868557742,0.5158682997614287
0.05368188379900363,0.9674555222795184,0.03538497088306572,0.9946706752691651,0.9876548868557742,0.4606746158467135
0.04573143577093447,0.9651828566843323,0.01839822217890604,0.9927104360339033,0.9880631014611894,0.4606746158467135
0.03778098774286531,0.9629101910891463,0.0014114734747463636,0.9980913193626995,0.9861028622259276,0.46067692577740654
0.029830539714796156,0.9606375254939603,0.031067231814465,0.9961310801274377,0.9865110768313428,0.460677892526781
0.021880091686727,0.9583648598987743,0.014080483110305322,0.9941708408921759,0.9869192914367579,0.4606779544343182
0.013929643658657844,0.9560921943035883,0.04373624145002396,0.999551724220972,0.9849590522014962,0.4652662164373674
0.0059791956305886886,0.9538195287084023,0.02674949274586428,0.9975914849857103,0.9853672668069113,0.46067853323898145
0.0591375571439071,0.9515468631132162,0.009762744041704602,0.9956312457504485,0.9857754814123265,0.46067403009102265
0.051187109115837945,0.9492741975180302,0.039418502381423234,0.9936710065151867,0.9861836960177417,0.46067161499067183
0.04323666108776879,0.9470015319228442,0.022431753677263556,0.9990518898439829,0.9842234567824799,0.4606755966956202
0.03528621305969963,0.9447288663276582,0.0054450049731038785,0.9970916506087211,0.9846316713878951,0.4606771245850629
0.027335765031630474,0.9978872278409766,0.003172339377917855,0.9801049019045613,0.9900125547166913,0.48464936606059733
0.019385317003561317,0.9956145622457906,0.03282809771763649,0.9854857852333575,0.9880523154814295,0.5737650402116385
0.019385317003561317,0.9956145622457906,0.03282809771763649,0.9854857852333575,0.9880523154814295,0.47991526399462303
0.011434868975492162,0.9933418966506046,0.015841349013476815,0.9908666685621537,0.9860920762461677,0.47991526399462303
0.0034844209474230066,0.9910692310554186,0.045497107353195454,0.9962475518909498,0.9841318370109059,0.5176682008998111
0.05664278246074142,0.9887965654602325,0.028510358649035776,0.994287312655688,0.9845400516163211,0.6075286896238743
0.05664278246074142,0.9887965654602325,0.028510358649035776,0.994287312655688,0.9845400516163211,0.46068556500004587
0.04869233443267226,0.9865238998650465,0.011523609944876098,0.9996681959844842,0.9825798123810593,0.46068556500004587
0.040741886404603106,0.9842512342698605,0.04117936828459473,0.9977079567492224,0.9829880269864745,0.6439852650839077
0.040741886404603106,0.9842512342698605,0.04117936828459473,0.9977079567492224,0.9829880269864745,0.5055795793047313
0.03279143837653395,0.9819785686746745,0.024192619580435053,0.9957477175139606,0.9833962415918897,0.5055795793047313
0.03279143837653395,0.9819785686746745,0.024192619580435053,0.9957477175139606,0.9833962415918897,0.4606777468954714
0.024840990348464792,0.9797059030794885,0.007205870876275375,0.9937874782786988,0.9838044561973048,0.4606777468954714
0.016890542320395635,0.9774332374843024,0.03686162921599401,0.999168361607495,0.981844216962043,0.505913915240371
0.016890542320395635,0.9774332374843024,0.03686162921599401,0.999168361607495,0.981844216962043,0.46067943045877724
0.00894009429232648,0.9751605718891164,0.01987488051183433,0.9972081223722332,0.9822524315674582,0.46067943045877724
0.0009896462642573246,0.9728879062939304,0.0028881318076746515,0.9952478831369714,0.9826606461728734,0.46067849138943506
0.05414800777757574,0.9706152406987444,0.032543890147393284,0.9932876439017096,0.9830688607782886,0.517967333722147
0.05414800777757574,0.9706152406987444,0.032543890147393284,0.9932876439017096,0.9830688607782886,0.4606747742803044
0.04619755974950658,0.9683425751035584,0.015557141443233606,0.9986685272305058,0.9811086215430268,0.4606747742803044
0.038247111721437424,0.9660699095083723,0.045212899782952246,0.996708287995244,0.981516836148442,0.5368368557498747
0.038247111721437424,0.9660699095083723,0.045212899782952246,0.996708287995244,0.981516836148442,0.46067749838211397
0.030296663693368267,0.9637972439131863,0.028226151078792568,0.9947480487599822,0.9819250507538572,0.46067749838211397
0.02234621566529911,0.9615245783180003,0.01123940237463289,0.9927878095247205,0.9823332653592723,0.4606779472338715
0.014395767637229955,0.9592519127228143,0.04089516071435152,0.9981686928535166,0.9803730261240106,0.4671780895220359
0.0064453196091608,0.9569792471276283,0.023908412010191844,0.9962084536182548,0.9997022782704861,0.4606785225549946
0.05960368112247921,0.9547065815324423,0.006921663306032166,0.994248214382993,0.9982593910355299,0.4606741269778891
0.051653233094410056,0.9524339159372562,0.0365774216457508,0.9996290977117892,0.9962991518002681,0.46067128229692916
0.0437027850663409,0.9501612503420702,0.01959067294159112,0.9976688584765274,0.9967073664056832,0.4606756422186042
0.03575233703827174,0.9478885847468842,0.002603924237431443,0.9957086192412656,0.9971155810110984,0.46067710079367746
0.027801889010202585,0.9456159191516982,0.032259682577150076,0.9937483800060039,0.9975237956165136,0.46067716103715645
0.019851440982133428,0.9987742806650166,0.029987016981964053,0.9767616313018441,0.9955635563812518,0.5663694645675763
0.019851440982133428,0.9987742806650166,0.029987016981964053,0.9767616313018441,0.9955635563812518,0.4791370764339558
0.011900992954064273,0.9965016150698306,0.013000268277804376,0.9821425146306403,0.99360331714599,0.4791370764339558
0.003950544925995118,0.9942289494746446,0.04265602661752301,0.9875233979594364,0.9916430779107283,0.5191640662998787
0.05710890643931353,0.9919562838794586,0.025669277913363334,0.9929042812882326,0.9896828386754665,0.6083423798711756
0.05710890643931353,0.9919562838794586,0.025669277913363334,0.9929042812882326,0.9896828386754665,0.46067970655754586
0.049158458411244374,0.9896836182842725,0.008682529209203656,0.9982851646170288,0.9877225994402047,0.46067970655754586
0.04120801038317522,0.9874109526890865,0.038338287548922295,0.996324925381767,0.9881308140456199,0.6454387935039514
0.04120801038317522,0.9874109526890865,0.038338287548922295,0.996324925381767,0.9881308140456199,0.506880778521334
0.03325756235510606,0.9851382870939005,0.021351538844762617,0.9943646861465052,0.988539028651035,0.506880778521334
0.03325756235510606,0.9851382870939005,0.021351538844762617,0.9943646861465052,0.988539028651035,0.4606777843312106
0.025307114327036903,0.9828656214987145,0.004364790140602939,0.9997455694753014,0.9865787894157733,0.4606777843312106
0.017356666298967746,0.9805929559035285,0.03402054848032157,0.9977853302400396,0.9869870040211884,0.5075834597923962
0.017356666298967746,0.9805929559035285,0.03402054848032157,0.9977853302400396,0.9869870040211884,0.46067918929774826
0.009406218270898591,0.9783202903083424,0.017033799776161894,0.9958250910047778,0.9873952186266036,0.46067918929774826
0.0014557702428294357,0.9760476247131564,4.705107200221603e-05,0.993864851769516,0.9878034332320188,0.46067849155272667
0.05461413175614785,0.9737749591179704,0.029702809411720852,0.9992457350983122,0.985843193996757,0.5205923868130834
0.05461413175614785,0.9737749591179704,0.029702809411720852,0.9992457350983122,0.985843193996757,0.4606749425013593
0.04666368372807869,0.9715022935227844,0.012716060707561174,0.9972854958630504,0.9862514086021722,0.4606749425013593
0.038713235700009535,0.9692296279275984,0.04237181904727981,0.9953252566277886,0.9866596232075874,0.5388659462117068
0.038713235700009535,0.9692296279275984,0.04237181904727981,0.9953252566277886,0.9866596232075874,0.4606771420066871
0.030762787671940378,0.9669569623324124,0.025385070343120132,0.9933650173925268,0.9870678378130026,0.4606771420066871
0.02281233964387122,0.9646842967372263,0.008398321638960454,0.998745900721323,0.9851075985777408,0.4606779451917042
0.014861891615802066,0.9624116311420403,0.03805407997867909,0.9967856614860612,0.985515813183156,0.46945534282603013
0.006911443587732911,0.9601389655468543,0.02106733127451941,0.9948254222507994,0.9859240277885711,0.4606785113420844
0.060069805101051324,0.9578662999516683,0.004080582570359731,0.9928651830155376,0.9863322423939863,0.4606742063995941
0.05211935707298217,0.9555936343564823,0.03373634091007836,0.9982460663443338,0.9843720031587245,0.4606710479808262
0.04416890904491301,0.9533209687612962,0.016749592205918686,0.996285827109072,0.9847802177641397,0.4606756950015359
0.03621846101684385,0.9510483031661102,0.046405350545637325,0.9943255878738102,0.9851884323695549,0.46145851067401783
0.028268012988774696,0.9487756375709242,0.029418601841477647,0.9997064712026064,0.9832281931342931,0.4606771441449498
0.02031756496070554,0.9465029719757382,0.01243185313731797,0.9977462319673446,0.9836364077397083,0.46067808012511563
0.012367116932636384,0.9996613334890566,0.010159187542131945,0.9807594832631849,0.9890172910685044,0.4788418876497396
0.004416668904567229,0.9973886678938706,0.03981494588185058,0.986140366591981,0.9870570518332427,0.5236964822938541
0.05757503041788564,0.9951160022986846,0.022828197177690905,0.9915212499207772,0.9850968125979809,0.6081496224876946
0.05757503041788564,0.9951160022986846,0.022828197177690905,0.9915212499207772,0.9850968125979809,0.4606744463018914
0.049624582389816485,0.9928433367034986,0.005841448473531227,0.9969021332495733,0.9831365733627191,0.4606744463018914
0.04167413436174733,0.9905706711083125,0.03549720681324986,0.9949418940143115,0.9835447879681343,0.6461830159445597
0.04167413436174733,0.9905706711083125,0.03549720681324986,0.9949418940143115,0.9835447879681343,0.5079930653993936
0.03372368633367817,0.9882980055131265,0.018510458109090182,0.9929816547790498,0.9839530025735495,0.5079930653993936
0.03372368633367817,0.9882980055131265,0.018510458109090182,0.9929816547790498,0.9839530025735495,0.46067781129495194
0.025773238305609014,0.9860253399179405,0.0015237094049305039,0.9983625381078459,0.9819927633382877,0.46067781129495194
0.017822790277539857,0.9837526743227545,0.03117946774464914,0.9964022988725841,0.9824009779437028,0.5091539014529678
0.017822790277539857,0.9837526743227545,0.03117946774464914,0.9964022988725841,0.9824009779437028,0.46067895550135707
0.009872342249470702,0.9814800087275685,0.014192719040489462,0.9944420596373224,0.982809192549118,0.46067895550135707
0.0019218942214015468,0.9792073431323824,0.0438484773802081,0.9998229429661185,0.9808489533138562,0.4724945102614202
0.05508025573471996,0.9769346775371964,0.02686172867604842,0.9978627037308567,0.9812571679192714,0.5224810536827648
0.05508025573471996,0.9769346775371964,0.02686172867604842,0.9978627037308567,0.9812571679192714,0.4606751345937436
0.0471298077066508,0.9746620119420104,0.009874979971888742,0.9959024644955949,0.9816653825246866,0.4606751345937436
0.039179359678581646,0.9723893463468244,0.039530738311607375,0.9939422252603332,0.9820735971301018,0.5407187983329081
0.039179359678581646,0.9723893463468244,0.039530738311607375,0.9939422252603332,0.9820735971301018,0.4606768202566007
0.03122891165051249,0.9701166807516384,0.022543989607447697,0.9993231085891293,0.98011335789484,0.4606768202566007
0.023278463622443332,0.9678440151564524,0.005557240903288019,0.9973628693538675,0.9994426100413154,0.460677939687321
0.015328015594374177,0.9655713495612663,0.03521299924300665,0.9954026301186057,0.9998508246467306,0.4717445839272014
0.007377567566305022,0.9632986839660803,0.018226250538846973,0.993442390883344,0.9984079374117744,0.46067849980726305
0.060535929079623435,0.9610260183708943,0.0012395018346872955,0.9988232742121401,0.9964476981765126,0.4606742365395602
0.05258548105155428,0.9587533527757083,0.03089526017440593,0.9968630349768783,0.9968559127819278,0.4606708602516424
0.04463503302348512,0.9564806871805223,0.013908511470246254,0.9949027957416166,0.9972641273873429,0.46067575514002956
0.036684584995415964,0.9542080215853362,0.04356426980996489,0.9929425565063548,0.9976723419927581,0.46163197302213255
0.028734136967346807,0.9519353559901502,0.02657752110580521,0.9983234398351509,0.9957121027574963,0.4606771314317971
0.02078368893927765,0.9496626903949642,0.009590772401645534,0.9963632005998891,0.9961203173629115,0.460678066256447
0.012833240911208495,0.9473900247997782,0.039246530741364166,0.9944029613646274,0.9965285319683267,0.46067872835511964
0.00488279288313934,0.9451173592045922,0.02225978203720449,0.9997838446934235,0.9945682927330649,0.4606785101102461
0.05804115439645775,0.9428446936094061,0.00527303333304481,0.9978236054581617,0.9949765073384801,0.46067452564720623
0.050090706368388596,0.9960030551227246,0.003000367737858787,0.980836856754002,0.9930162681032183,0.46067176948501415
0.04214025834031944,0.9937303895275386,0.032656126077577424,0.9862177400827982,0.9910560288679565,0.6380000253421679
0.04214025834031944,0.9937303895275386,0.032656126077577424,0.9862177400827982,0.9910560288679565,0.5088957384853305
0.03418981031225028,0.9914577239323525,0.015669377373417746,0.9915986234115943,0.9890957896326947,0.5088957384853305
0.026239362284181125,0.9891850583371665,0.045325135713136386,0.9969795067403905,0.987135550397433,0.6672438554710145
0.026239362284181125,0.9891850583371665,0.045325135713136386,0.9969795067403905,0.987135550397433,0.5107204500314237
0.01828891425611197,0.9869123927419805,0.028338387008976708,0.9950192675051287,0.9875437650028481,0.5107204500314237
0.01828891425611197,0.9869123927419805,0.028338387008976708,0.9950192675051287,0.9875437650028481,0.4606787429040562
0.010338466228042813,0.9846397271467945,0.01135163830481703,0.9930590282698669,0.9879519796082633,0.4606787429040562
0.002388018199973658,0.9823670615516085,0.04100739664453566,0.9984399115986631,0.9859917403730015,0.47531905002304264
0.05554637971329207,0.9800943959564224,0.024020647940375985,0.9964796723634013,0.9863999549784167,0.5243150310866233
0.05554637971329207,0.9800943959564224,0.024020647940375985,0.9964796723634013,0.9863999549784167,0.46067534886152245
0.047595931685222914,0.9778217303612364,0.007033899236216307,0.9945194331281395,0.9868081695838319,0.46067534886152245
0.03964548365715376,0.9755490647660504,0.03668965757593494,0.9999003164569357,0.9848479303485701,0.5454513707639728
0.03964548365715376,0.9755490647660504,0.03668965757593494,0.9999003164569357,0.9848479303485701,0.46067657485032726
0.0316950356290846,0.9732763991708644,0.01970290887177526,0.9979400772216739,0.9852561449539853,0.46067657485032726
0.023744587601015443,0.9710037335756784,0.0027161601676155833,0.9959798379864121,0.9856643595594005,0.4606779292052702
0.015794139572946286,0.9687310679804924,0.032371918507334216,0.9940195987511503,0.9860725741648156,0.4737395192819738
0.007843691544877131,0.9664584023853063,0.015385169803174538,0.9994004820799465,0.9841123349295539,0.4606784883384406
0.06100205305819554,0.9641857367901203,0.04504092814289318,0.9974402428446847,0.984520549534969,0.5604209651014065
0.06100205305819554,0.9641857367901203,0.04504092814289318,0.9974402428446847,0.984520549534969,0.46067073660453445
0.05305160503012638,0.9619130711949343,0.0280541794387335,0.9954800036094229,0.9849287641403842,0.46067073660453445
0.045101157002057225,0.9596404055997483,0.011067430734573822,0.9935197643741611,0.9853369787457994,0.4606758214633684
0.03715070897398807,0.9573677400045623,0.040723189074292454,0.9989006477029573,0.9833767395105376,0.46187702464401026
0.02920026094591891,0.9550950744093762,0.023736440370132776,0.9969404084676955,0.9837849541159528,0.46067712634152624
0.021249812917849754,0.9528224088141902,0.006749691665973098,0.9949801692324337,0.984193168721368,0.46067805165063175
0.0132993648897806,0.9505497432190042,0.03640545000569173,0.9930199299971719,0.9846013833267832,0.4606786429962079
0.005348916861711444,0.9482770776238182,0.019418701301532053,0.9984008133259681,0.9826411440915214,0.46067850534281135
0.05850727837502985,0.9460044120286322,0.002431952597372375,0.9964405740907063,0.9830493586969365,0.4606745208373091
0.05055683034696069,0.9991627735419506,0.0001592870021863515,0.9794538253865466,0.9884302420257327,0.4606752899430415
0.042606382318891536,0.9968901079467646,0.02981504534190499,0.9848347087153427,0.9864700027904709,0.6365408026696374
0.042606382318891536,0.9968901079467646,0.02981504534190499,0.9848347087153427,0.9864700027904709,0.5093251476533045
0.03465593429082238,0.9946174423515786,0.012828296637745311,0.9902155920441389,0.9845097635552091,0.5093251476533045
0.026705486262753222,0.9923447767563925,0.04248405497746395,0.995596475372935,0.9825495243199474,0.6680061361698604
0.026705486262753222,0.9923447767563925,0.04248405497746395,0.995596475372935,0.9825495243199474,0.5120240376674494
0.018755038234684066,0.9900721111612065,0.025497306273304272,0.9936362361376733,0.9829577389253625,0.5120240376674494
0.018755038234684066,0.9900721111612065,0.025497306273304272,0.9936362361376733,0.9829577389253625,0.460678566454368
0.01080459020661491,0.9877994455660205,0.008510557569144594,0.9990171194664694,0.9809974996901007,0.460678566454368
0.002854142178545755,0.9855267799708345,0.03816631590886323,0.9970568802312076,0.9814057142955159,0.47811604496775245
0.05601250369186417,0.9832541143756485,0.02117956720470355,0.9950966409959459,0.9818139289009311,0.525996634662496
0.05601250369186417,0.9832541143756485,0.02117956720470355,0.9950966409959459,0.9818139289009311,0.46067557819296157
0.04806205566379501,0.9809814487804625,0.004192818500543871,0.9931364017606841,0.9822221435063463,0.46067557819296157
0.040111607635725854,0.9787087831852764,0.033848576840262504,0.9985172850894802,0.9802619042710845,0.5469915777955386
0.040111607635725854,0.9787087831852764,0.033848576840262504,0.9985172850894802,0.9802619042710845,0.46067639282644424
0.0321611596076567,0.9764361175900904,0.016861828136102826,0.9965570458542184,0.9995911564175599,0.46067639282644424
0.02421071157958754,0.9741634519949044,0.046517586475821465,0.9945968066189567,0.9999993710229751,0.5570610331645284
0.02421071157958754,0.9741634519949044,0.046517586475821465,0.9945968066189567,0.9999993710229751,0.47545663831549395
0.016260263551518384,0.9718907863997184,0.029530837771661787,0.9999776899477528,0.9980391317877133,0.47545663831549395
0.008309815523449228,0.9696181208045324,0.01254408906750211,0.998017450712491,0.9984473463931285,0.4606784766217284
0.0003593674953800731,0.9673454552093463,0.04219984740722074,0.9960572114772293,0.9988555609985437,0.4613709705576462
0.053517729008698486,0.9650727896141603,0.025213098703061064,0.9940969722419675,0.9992637756039588,0.4606706849465014
0.04556728098062933,0.9628001240189743,0.008226349998901386,0.9994778555707636,0.9973035363686971,0.46067590862364044
0.03761683295256017,0.9605274584237883,0.03788210833862002,0.9975176163355018,0.9977117509741122,0.46225141871079745
0.029666384924491015,0.9582547928286023,0.02089535963446034,0.9955573771002401,0.9981199655795274,0.46067712929716464
0.02171593689642186,0.9559821272334162,0.003908610930300663,0.9935971378649783,0.9985281801849426,0.46067803427413906
0.013765488868352703,0.9537094616382302,0.033564369270019295,0.9989780211937744,0.9965679409496808,0.46067855587847373
0.005815040840283548,0.9514367960430442,0.016577620565859617,0.9970177819585126,0.996976155555096,0.46067849972575065
0.05897340235360196,0.9491641304478582,0.04623337890557826,0.9950575427232509,0.9973843701605112,0.4608407570981983
0.051022954325532804,0.9468914648526722,0.02924663020141858,0.9930973034879891,0.9977925847659264,0.46067334554111694
0.04307250629746365,0.9446187992574862,0.012259881497258901,0.9984781868167852,0.9958323455306646,0.4606762044527139
0.03512205826939449,0.9977771607708046,0.009987215902072877,0.9814914381126255,0.9938721062954028,0.5057549481049539
0.027171610241325334,0.9955044951756186,0.039642974241791515,0.9868723214414217,0.991911867060141,0.6592767557752938
0.027171610241325334,0.9955044951756186,0.039642974241791515,0.9868723214414217,0.991911867060141,0.5131952876922183
0.019221162213256177,0.9932318295804325,0.022656225537631837,0.9922532047702178,0.9899516278248792,0.5131952876922183
0.019221162213256177,0.9932318295804325,0.022656225537631837,0.9922532047702178,0.9899516278248792,0.4606784498761429
0.011270714185187021,0.9909591639852465,0.005669476833472159,0.997634088099014,0.9879913885896174,0.4606784498761429
0.003320266157117866,0.9886864983900605,0.03532523517319079,0.9956738488637522,0.9883996031950326,0.4809403830625977
0.05647862767043628,0.9864138327948745,0.018338486469031114,0.9937136096284904,0.9888078178004478,0.527547677129014
0.05647862767043628,0.9864138327948745,0.018338486469031114,0.9937136096284904,0.9888078178004478,0.46067578810372256
0.04852817964236712,0.9841411671996885,0.0013517377648714357,0.9990944929572866,0.986847578565186,0.46067578810372256
0.040577731614297965,0.9818685016045025,0.03100749610459007,0.9971342537220248,0.9872557931706012,0.5488269763160352
0.040577731614297965,0.9818685016045025,0.03100749610459007,0.9971342537220248,0.9872557931706012,0.4606762904474672
0.03262728358622881,0.9795958360093164,0.014020747400430394,0.995174014486763,0.9876640077760164,0.4606762904474672
0.02467683555815965,0.9773231704141304,0.04367650574014903,0.9932137752515012,0.9880722223814316,0.5588946080019042
0.02467683555815965,0.9773231704141304,0.04367650574014903,0.9932137752515012,0.9880722223814316,0.4768112788301826
0.016726387530090495,0.9750505048189444,0.026689757035989352,0.9985946585802974,0.9861119831461698,0.4768112788301826
0.00877593950202134,0.9727778392237584,0.009703008331829674,0.9966344193450356,0.986520197751585,0.46067846488942854
0.0008254914739521842,0.9705051736285724,0.039358766671548306,0.9946741801097738,0.9869284123570001,0.462294844991493
0.0539838529872706,0.9682325080333863,0.02237201796738863,0.992713940874512,0.9873366269624153,0.46067071624422784
0.04603340495920144,0.9659598424382003,0.005385269263228951,0.9980948242033082,0.9853763877271535,0.46067597663555443
0.038082956931132284,0.9636871768430143,0.03504102760294758,0.9961345849680464,0.9857846023325687,0.4628497669918492
0.030132508903063127,0.9614145112478283,0.018054278898787905,0.9941743457327846,0.9861928169379839,0.4606771402119266
0.02218206087499397,0.9591418456526423,0.0010675301946282273,0.9995552290615808,0.9842325777027221,0.4606780078333616
0.014231612846924814,0.9568691800574562,0.030723288534346863,0.997594989826319,0.9846407923081373,0.4606784770228965
0.006281164818855659,0.9545965144622702,0.013736539830187185,0.9956347505910572,0.9850490069135525,0.4606784933331449
0.05943952633217407,0.9523238488670842,0.04339229816990582,0.9936745113557954,0.9854572215189676,0.460847866054824
0.051489078304104915,0.9500511832718982,0.026405549465746143,0.9990553946845916,0.9834969822837059,0.46067345634444756
0.04353863027603576,0.9477785176767122,0.009418800761586466,0.9970951554493298,0.983905196889121,0.46067622453112556
0.0355881822479666,0.9455058520815262,0.0390745591013051,0.995134916214068,0.9843134114945362,0.46067572176661553
0.027637734219897445,0.9986642135948446,0.03680189350611907,0.9781481675099083,0.9896942948233324,0.6482516405804781
0.027637734219897445,0.9986642135948446,0.03680189350611907,0.9781481675099083,0.9896942948233324,0.5101176120364195
0.019687286191828288,0.9963915479996586,0.019815144801959395,0.9835290508387045,0.9877340555880706,0.5101176120364195
0.019687286191828288,0.9963915479996586,0.019815144801959395,0.9835290508387045,0.9877340555880706,0.4606783991391245
0.011736838163759132,0.9941188824044725,0.0028283960977997166,0.9889099341675006,0.9857738163528088,0.4606783991391245
0.003786390135689977,0.9918462168092865,0.032484154437518356,0.9942908174962968,0.983813577117547,0.4835951414802111
0.05694475164900839,0.9895735512141005,0.015497405733358678,0.9996717008250929,0.9818533378822852,0.5310879926046513
0.048994303620939234,0.9873008856189145,0.04515316407307732,0.9977114615898312,0.9822615524877004,0.7276716281284222
0.048994303620939234,0.9873008856189145,0.04515316407307732,0.9977114615898312,0.9822615524877004,0.5503841180289439
0.04104385559287008,0.9850282200237285,0.02816641536891764,0.9957512223545694,0.9826697670931156,0.5503841180289439
0.04104385559287008,0.9850282200237285,0.02816641536891764,0.9957512223545694,0.9826697670931156,0.4606762826538024
0.03309340756480092,0.9827555544285425,0.011179666664757962,0.9937909831193076,0.9830779816985308,0.4606762826538024
0.025142959536731763,0.9804828888333564,0.040835425004476594,0.9991718664481037,0.981117742463269,0.5654459870229118
0.025142959536731763,0.9804828888333564,0.040835425004476594,0.9991718664481037,0.981117742463269,0.47798865520991307
0.017192511508662606,0.9782102232381704,0.023848676300316916,0.997211627212842,0.9815259570686842,0.47798865520991307
0.00924206348059345,0.9759375576429844,0.0068619275961572385,0.9952513879775802,0.9819341716740994,0.4606784531166981
0.0012916154525242952,0.9736648920477984,0.03651768593587587,0.9932911487423184,0.9823423862795145,0.46324673390286214
0.05444997696584271,0.9713922264526124,0.019530937231716193,0.9986720320711145,0.9803821470442527,0.4606708493110672
0.04649952893777355,0.9691195608574263,0.002544188527556515,0.9967117928358528,0.9997113991907283,0.4606760237963319
0.038549080909704395,0.9668468952622403,0.03219994686727515,0.994751553600591,0.998268511955772,0.4638735372838077
0.030598632881635238,0.9645742296670543,0.01521319816311547,0.9927913143653292,0.9986767265611872,0.4606771592690112
0.02264818485356608,0.9623015640718683,0.04486895650283411,0.9981721976941254,0.9967164873259254,0.4952637388999968
0.02264818485356608,0.9623015640718683,0.04486895650283411,0.9981721976941254,0.9967164873259254,0.4606784020053549
0.014697736825496925,0.9600288984766823,0.02788220779867443,0.9962119584588636,0.9971247019313406,0.4606784020053549
0.00674728879742777,0.9577562328814963,0.010895459094514753,0.9942517192236018,0.9975329165367558,0.4606784862139982
0.059905650310746184,0.9554835672863102,0.040551217434233386,0.9996326025523979,0.995572677301494,0.46085458458015
0.05195520228267703,0.9532109016911242,0.023564468730073708,0.9976723633171362,0.9959808919069092,0.46067356633715584
0.04400475425460787,0.9509382360959382,0.00657772002591403,0.9957121240818744,0.9963891065123244,0.4606762415680026
0.03605430622653871,0.9486655705007522,0.03623347836563266,0.9937518848466126,0.9967973211177396,0.46067561864318374
0.028103858198469556,0.9463929049055662,0.019246729661472985,0.9991327681754087,0.9948370818824778,0.4606774929611348
0.0201534101704004,0.9995512664188846,0.016974064066286963,0.982146019471249,0.992876842647216,0.5096480035681783
0.012202962142331244,0.9972786008236986,0.0466298224060056,0.9875269028000452,0.9909166034119542,0.6410728864100453
0.012202962142331244,0.9972786008236986,0.0466298224060056,0.9875269028000452,0.9909166034119542,0.4861851618519456
0.004252514114262088,0.9950059352285126,0.02964307370184592,0.9929077861288413,0.9889563641766924,0.4861851618519456
0.0574108756275805,0.9927332696333265,0.012656324997686243,0.9982886694576375,0.9869961249414306,0.5323268330299051
0.049460427599511345,0.9904606040381405,0.04231208333740488,0.9963284302223757,0.9874043395468458,0.7279447790483606
0.049460427599511345,0.9904606040381405,0.04231208333740488,0.9963284302223757,0.9874043395468458,0.5518422303376437
0.04150997957144219,0.9881879384429545,0.025325334633245204,0.9943681909871139,0.987812554152261,0.5518422303376437
0.04150997957144219,0.9881879384429545,0.025325334633245204,0.9943681909871139,0.987812554152261,0.46067638900255387
0.03355953154337303,0.9859152728477685,0.008338585929085526,0.9997490743159101,0.9858523149169992,0.46067638900255387
0.025609083515303874,0.9836426072525825,0.03799434426880416,0.9977888350806483,0.9862605295224144,0.5674110136494768
0.025609083515303874,0.9836426072525825,0.03799434426880416,0.9977888350806483,0.9862605295224144,0.4790603559777363
0.017658635487234717,0.9813699416573964,0.02100759556464448,0.9958285958453865,0.9866687441278296,0.4790603559777363
0.009708187459165562,0.9790972760622104,0.004020846860484803,0.9938683566101247,0.9870769587332447,0.4606784408747972
0.0017577394310964063,0.9768246104670244,0.033676605200203436,0.9992492399389209,0.985116719497983,0.46434895221296824
0.05491610094441482,0.9745519448718384,0.016689856496043758,0.9972890007036591,0.9855249341033981,0.4606710840467841
0.04696565291634566,0.9722792792766524,0.0463456148357624,0.9953287614683973,0.9859331487088133,0.6036832806911617
0.04696565291634566,0.9722792792766524,0.0463456148357624,0.9953287614683973,0.9859331487088133,0.465770473315598
0.039015204888276506,0.9700066136814663,0.02935886613160272,0.9933685222331355,0.9863413633142285,0.465770473315598
0.03106475686020735,0.9677339480862803,0.012372117427443041,0.9987494055619317,0.9843811240789667,0.46067719374420985
0.023114308832138192,0.9654612824910943,0.042027875767161674,0.9967891663266699,0.9847893386843819,0.496646729558168
0.023114308832138192,0.9654612824910943,0.042027875767161674,0.9967891663266699,0.9847893386843819,0.4606783332681535
0.015163860804069037,0.9631886168959083,0.025041127063001996,0.9948289270914081,0.9851975532897971,0.4606783332681535
0.007213412775999881,0.9609159513007223,0.008054378358842318,0.9928686878561463,0.9856057678952123,0.46067847835214953
0.060371774289318295,0.9586432857055363,0.03771013669856095,0.9982495711849425,0.9836455286599505,0.4608646589619985
0.05242132626124914,0.9563706201103502,0.020723387994401272,0.9962893319496807,0.9840537432653657,0.4606736930672818
0.04447087823317998,0.9540979545151642,0.0037366392902415946,0.9943290927144189,0.9844619578707808,0.46067624706196375
0.036520430205110824,0.9518252889199782,0.03339239762996023,0.9997099760432151,0.982501718635519,0.4606755340654593
0.028569982177041667,0.9495526233247922,0.01640564892580055,0.9977497368079533,0.9829099332409342,0.46067748869786695
0.02061953414897251,0.9472799577296062,0.04606140726551919,0.9957894975726915,0.9833181478463494,0.46069352901933186
0.012669086120903355,0.9450072921344201,0.02907465856135951,0.9938292583374297,0.9837263624517646,0.46067836931639355
0.004718638092834199,0.9981656536477386,0.02680199296617349,0.97684250963327,0.9891072457805608,0.48390617221074167
0.05787699960615261,0.9958929880525526,0.00981524426201381,0.9822233929620662,0.987147006545299,0.5261493676090769
0.049926551578083456,0.9936203224573665,0.03947100260173245,0.9876042762908623,0.9851867673100372,0.7171839583447922
0.049926551578083456,0.9936203224573665,0.03947100260173245,0.9876042762908623,0.9851867673100372,0.5527993932070108
0.0419761035500143,0.9913476568621805,0.02248425389757277,0.9929851596196585,0.9832265280747754,0.5527993932070108
0.0419761035500143,0.9913476568621805,0.02248425389757277,0.9929851596196585,0.9832265280747754,0.46067660439740166
0.03402565552194514,0.9890749912669945,0.005497505193413091,0.9983660429484547,0.9812662888395136,0.46067660439740166
0.026075207493875985,0.9868023256718085,0.03515326353313172,0.9964058037131929,0.9816745034449288,0.5691103991864852
0.026075207493875985,0.9868023256718085,0.03515326353313172,0.9964058037131929,0.9816745034449288,0.48005124961273626
0.018124759465806828,0.9845296600766225,0.018166514828972045,0.9944455644779311,0.982082718050344,0.48005124961273626
0.010174311437737673,0.9822569944814364,0.0011797661248123675,0.9998264478067272,0.9801224788150822,0.4606784249519271
0.0022238634096685174,0.9799843288862504,0.030835524464531004,0.9978662085714655,0.9994517309615576,0.4653956935913042
0.05538222492298693,0.9777116632910644,0.013848775760371326,0.9959059693362037,0.9998599455669728,0.4606714346221568
0.047431776894917774,0.9754389976958784,0.04350453410008996,0.9939457301009419,0.9984170583320165,0.6060773245067097
0.047431776894917774,0.9754389976958784,0.04350453410008996,0.9939457301009419,0.9984170583320165,0.4694907552350981
0.03948132886684862,0.9731663321006924,0.026517785395930284,0.999326613429738,0.9964568190967548,0.4694907552350981
0.03153088083877946,0.9708936665055063,0.009531036691770606,0.9973663741944763,0.99686503370217,0.4606772284271275
0.023580432810710303,0.9686210009103203,0.03918679503148924,0.9954061349592145,0.9972732483075851,0.4981197599853275
0.023580432810710303,0.9686210009103203,0.03918679503148924,0.9954061349592145,0.9972732483075851,0.4606782724134594
0.015629984782641146,0.9663483353151343,0.02220004632732956,0.9934458957239527,0.9976814629130003,0.4606782724134594
0.007679536754571991,0.9640756697199483,0.005213297623169882,0.9988267790527489,0.9957212236777385,0.46067846941180696
0.0608378982678904,0.9618030041247623,0.034869055962888515,0.9968665398174871,0.9961294382831537,0.4608764720399016
0.05288745023982124,0.9595303385295763,0.017882307258728837,0.9949063005822253,0.9965376528885689,0.46067383700794173
0.044937002211752085,0.9572576729343902,0.0008955585545691591,0.9929460613469635,0.9969458674939841,0.4606762215859935
0.03698655418368293,0.9549850073392042,0.030551316894287795,0.9983269446757597,0.9949856282587223,0.4606754783169976
0.02903610615561377,0.9527123417440182,0.013564568190128117,0.9963667054404979,0.9953938428641375,0.46067748703499256
0.021085658127544614,0.9504396761488322,0.04322032652984675,0.9944064662052361,0.9958020574695526,0.4606928703292073
0.013135210099475459,0.9481670105536462,0.026233577825687075,0.9997873495340323,0.9938418182342909,0.46067835180293626
0.0051847620714063035,0.9458943449584601,0.009246829121527397,0.9978271102987705,0.994250032839706,0.46067849329810423
0.05834312358472471,0.9436216793632741,0.03890258746124603,0.9958668710635087,0.9946582474451212,0.460669404932318
0.05039267555665555,0.9967800408765926,0.036629921866060004,0.978880122359349,0.9926980082098594,0.705150124832488
0.05039267555665555,0.9967800408765926,0.036629921866060004,0.978880122359349,0.9926980082098594,0.5480647295545097
0.042442227528586396,0.9945073752814065,0.019643173161900326,0.9842610056881451,0.9907377689745976,0.5480647295545097
0.042442227528586396,0.9945073752814065,0.019643173161900326,0.9842610056881451,0.9907377689745976,0.46067690617278706
0.03449177950051724,0.9922347096862205,0.0026564244577406484,0.9896418890169413,0.9887775297393359,0.46067690617278706
0.026541331472448082,0.9899620440910345,0.03231218279745929,0.9950227723457374,0.9868172905040741,0.5708337390975039
0.026541331472448082,0.9899620440910345,0.03231218279745929,0.9950227723457374,0.9868172905040741,0.48097598446599366
0.018590883444378925,0.9876893784958485,0.01532543409329961,0.9930625331104757,0.9872255051094893,0.48097598446599366
0.01064043541630977,0.9854167129006625,0.04498119243301825,0.9984434164392718,0.9852652658742275,0.5546688168856176
0.01064043541630977,0.9854167129006625,0.04498119243301825,0.9984434164392718,0.9852652658742275,0.4664425209817234
0.0026899873882406146,0.9831440473054764,0.02799444372885857,0.99648317720401,0.9856734804796426,0.4664425209817234
0.05584834890155903,0.9808713817102904,0.011007695024698894,0.9945229379687482,0.9860816950850578,0.4606719109886151
0.04789790087348987,0.9785987161151044,0.040663453364417526,0.9999038212975444,0.984121455849796,0.6138174333441181
0.04789790087348987,0.9785987161151044,0.040663453364417526,0.9999038212975444,0.984121455849796,0.47648341676402917
0.039947452845420714,0.9763260505199184,0.023676704660257848,0.9979435820622826,0.9845296704552112,0.47648341676402917
0.03199700481735156,0.9740533849247324,0.00668995595609817,0.9959833428270208,0.9849378850606264,0.46067726911330287
0.0240465567892824,0.9717807193295463,0.0363457142958168,0.994023103591759,0.9853460996660416,0.49948182511316336
0.0240465567892824,0.9717807193295463,0.0363457142958168,0.994023103591759,0.9853460996660416,0.4606782213799826
0.016096108761213243,0.9695080537343603,0.019358965591657125,0.9994039869205552,0.9833858604307798,0.4606782213799826
0.008145660733144088,0.9672353881391743,0.002372216887497447,0.9974437476852934,0.983794075036195,0.46067845872430807
0.00019521270507493263,0.9649627225439883,0.03202797522721608,0.9954835084500316,0.9842022896416102,0.4606793120298955
0.053353574218393346,0.9626900569488023,0.015041226523056402,0.9935232692147699,0.9846105042470253,0.4606739973551522
0.04540312619032419,0.9604173913536163,0.04469698486277504,0.998904152543566,0.9826502650117636,0.5175689871058502
0.04540312619032419,0.9604173913536163,0.04469698486277504,0.998904152543566,0.9826502650117636,0.46067544448124015
0.03745267816225503,0.9581447257584302,0.027710236158615363,0.9969439133083042,0.9830584796171787,0.46067544448124015
0.029502230134185875,0.9558720601632442,0.010723487454455685,0.9949836740730424,0.9834666942225939,0.46067748743480746
0.021551782106116718,0.9535993945680582,0.04037924579417432,0.9930234348377807,0.9838749088280091,0.4606921257553069
0.013601334078047563,0.9513267289728722,0.02339249709001464,0.9984043181665768,0.9819146695927473,0.4606783344460608
0.005650886049978408,0.9490540633776862,0.006405748385854962,0.996444078931315,0.9823228841981625,0.4606784880003654
0.05880924756329682,0.9467813977825001,0.036061506725573594,0.9944838396960533,0.9827310988035777,0.4606694527560823
0.050858799535227664,0.9999397592958186,0.03378884113038757,0.9774970909918935,0.9881119821323738,0.6998611392164948
0.050858799535227664,0.9999397592958186,0.03378884113038757,0.9774970909918935,0.9881119821323738,0.5467003856359659
0.04290835150715851,0.9976670937006326,0.01680209242622789,0.9828779743206897,0.986151742897112,0.5467003856359659
0.03495790347908935,0.9953944281054465,0.04645785076594652,0.9882588576494858,0.9841915036618503,0.743779648119984
0.03495790347908935,0.9953944281054465,0.04645785076594652,0.9882588576494858,0.9841915036618503,0.5719299476477457
0.027007455451020193,0.9931217625102605,0.029471102061786845,0.993639740978282,0.9822312644265885,0.5719299476477457
0.027007455451020193,0.9931217625102605,0.029471102061786845,0.993639740978282,0.9822312644265885,0.4823670858772312
0.019057007422951036,0.9908490969150745,0.012484353357627168,0.9990206243070782,0.9802710251913267,0.4823670858772312
0.011106559394881881,0.9885764313198885,0.0421401116973458,0.9970603850718164,0.9996002773378021,0.5581164119435513
0.011106559394881881,0.9885764313198885,0.0421401116973458,0.9970603850718164,0.9996002773378021,0.4675219098214076
0.0031561113668127257,0.9863037657247025,0.025153362993186122,0.9951001458365546,0.9981573901028459,0.4675219098214076
0.05631447288013114,0.9840311001295164,0.008166614289026444,0.9931399066012928,0.9985656047082611,0.4606725171617785
0.04836402485206198,0.9817584345343304,0.03782237262874508,0.998520789930089,0.9966053654729993,0.6153451373073815
0.04836402485206198,0.9817584345343304,0.03782237262874508,0.998520789930089,0.9966053654729993,0.4859213515925479
0.040413576823992825,0.9794857689391444,0.0208356239245854,0.9965605506948272,0.9970135800784145,0.4859213515925479
0.040413576823992825,0.9794857689391444,0.0208356239245854,0.9965605506948272,0.9970135800784145,0.4606773109246658
0.03246312879592367,0.9772131033439584,0.003848875220425721,0.9946003114595654,0.9974217946838296,0.4606773109246658
0.02451268076785451,0.9749404377487724,0.03350463356014435,0.9999811947883616,0.9954615554485678,0.5020856334982523
0.02451268076785451,0.9749404377487724,0.03350463356014435,0.9999811947883616,0.9954615554485678,0.4606781821353779
0.016562232739785354,0.9726677721535864,0.016517884855984676,0.9980209555530998,0.995869770053983,0.4606781821353779
0.008611784711716199,0.9703951065584003,0.046173643195703315,0.996060716317838,0.9962779846593982,0.48930739443779914
0.008611784711716199,0.9703951065584003,0.046173643195703315,0.996060716317838,0.9962779846593982,0.4606814745286962
0.0006613366836470437,0.9681224409632143,0.029186894491543637,0.9941004770825762,0.9966861992648134,0.4606814745286962
0.05381969819696546,0.9658497753680283,0.01220014578738396,0.9994813604113724,0.9947259600295516,0.46067419975062274
0.0458692501688963,0.9635771097728423,0.04185590412710259,0.9975211211761106,0.9951341746349668,0.5194980105643943
0.0458692501688963,0.9635771097728423,0.04185590412710259,0.9975211211761106,0.9951341746349668,0.4606754367394237
0.03791880214082714,0.9613044441776563,0.024869155422942914,0.9955608819408488,0.995542389240382,0.4606754367394237
0.029968354112757986,0.9590317785824702,0.007882406718783236,0.993600642705587,0.9959506038457971,0.46067748899147043
0.02201790608468883,0.9567591129872842,0.03753816505850187,0.9989815260343832,0.9939903646105354,0.4606911483732271
0.014067458056619674,0.9544864473920982,0.02055141635434219,0.9970212867991214,0.9943985792159505,0.46067831807591336
0.006117010028550519,0.9522137817969122,0.0035646676501825125,0.9950610475638596,0.9948067938213657,0.4606784815076861
0.05927537154186893,0.9499411162017262,0.033220425989901145,0.9931008083285978,0.9952150084267809,0.46066953730247817
0.051324923513799775,0.9476684506065401,0.016233677285741467,0.998481691657394,0.9932547691915191,0.46067482891366596
0.04337447548573062,0.9453957850113541,0.04588943562546011,0.9965214524221322,0.9936629837969343,0.4606809752752543
0.03542402745766146,0.9985541465246726,0.04361677003027408,0.9795347037179725,0.9990438671257305,0.7314773297777489
0.03542402745766146,0.9985541465246726,0.04361677003027408,0.9795347037179725,0.9990438671257305,0.5659249946020469
0.027473579429592304,0.9962814809294865,0.026630021326114403,0.9849155870467686,0.9970836278904687,0.5659249946020469
0.027473579429592304,0.9962814809294865,0.026630021326114403,0.9849155870467686,0.9970836278904687,0.4824147306673917
0.019523131401523147,0.9940088153343005,0.009643272621954725,0.9902964703755648,0.9951233886552069,0.4824147306673917
0.011572683373453992,0.9917361497391145,0.039299030961673365,0.995677353704361,0.9931631494199451,0.5606750681093003
0.011572683373453992,0.9917361497391145,0.039299030961673365,0.995677353704361,0.9931631494199451,0.46857351790979657
0.0036222353453848367,0.9894634841439285,0.022312282257513687,0.9937171144690992,0.9935713640253603,0.46857351790979657
0.05678059685870325,0.9871908185487425,0.005325533553354009,0.9990979977978953,0.9916111247900985,0.46067327414385206
0.04883014883063409,0.9849181529535564,0.03498129189307264,0.9971377585626335,0.9920193393955137,0.6167267736301983
0.04883014883063409,0.9849181529535564,0.03498129189307264,0.9971377585626335,0.9920193393955137,0.49332508113910123
0.040879700802564936,0.9826454873583704,0.017994543188912963,0.9951775193273718,0.9924275540009289,0.49332508113910123
0.040879700802564936,0.9826454873583704,0.017994543188912963,0.9951775193273718,0.9924275540009289,0.4606773285209054
0.03292925277449578,0.9803728217631844,0.0010077944847532855,0.99321728009211,0.992835768606344,0.4606773285209054
0.024978804746426622,0.9781001561679984,0.03066355282447192,0.9985981634209061,0.9908755293710823,0.5033885727730637
0.024978804746426622,0.9781001561679984,0.03066355282447192,0.9985981634209061,0.9908755293710823,0.46067815452623545
0.017028356718357465,0.9758274905728124,0.013676804120312244,0.9966379241856443,0.9912837439764974,0.46067815452623545
0.00907790869028831,0.9735548249776264,0.04333256246003088,0.9946776849503826,0.9916919585819126,0.4911164307745924
0.00907790869028831,0.9735548249776264,0.04333256246003088,0.9946776849503826,0.9916919585819126,0.46068400859742703
0.0011274606622191548,0.9712821593824403,0.0263458137558712,0.9927174457151208,0.9921001731873278,0.46068400859742703
0.05428582217553757,0.9690094937872543,0.009359065051711524,0.9980983290439169,0.990139933952066,0.46067439253508874
0.04633537414746841,0.9667368281920683,0.039014823391430156,0.9961380898086551,0.9905481485574812,0.521337286291141
0.04633537414746841,0.9667368281920683,0.039014823391430156,0.9961380898086551,0.9905481485574812,0.46067545769696017
0.038384926119399254,0.9644641625968823,0.02202807468727048,0.9941778505733934,0.9909563631628964,0.46067545769696017
0.030434478091330097,0.9621914970016963,0.0050413259831108,0.9995587339021895,0.9889961239276346,0.46067749288000387
0.02248403006326094,0.9599188314065102,0.03469708432282943,0.9975984946669277,0.9894043385330498,0.46069020962123347
0.014533582035191785,0.9576461658113242,0.017710335618669755,0.995638255431666,0.989812553138465,0.4606783028004016
0.00658313400712263,0.9553735002161382,0.0007235869145100771,0.9936780161964042,0.9902207677438801,0.46067847322761163
0.05974149552044104,0.9531008346209522,0.030379345254228713,0.9990588995252003,0.9882605285086183,0.4606696774229157
0.051791047492371886,0.9508281690257662,0.013392596550069035,0.9970986602899385,0.9886687431140335,0.46067490262701105
0.04384059946430273,0.9485555034305801,0.04304835488978767,0.9951384210546768,0.9890769577194487,0.4606799201018496
0.03589015143623357,0.9462828378353941,0.026061606185627993,0.993178181819415,0.9894851723248639,0.4606764067360332
0.027939703408164415,0.9994411993487126,0.02378894059044197,0.9761914331152552,0.99486605565366,0.557384574196996
0.027939703408164415,0.9994411993487126,0.02378894059044197,0.9761914331152552,0.99486605565366,0.4814197149975027
0.019989255380095258,0.9971685337535265,0.006802191886282293,0.9815723164440514,0.9929058164183983,0.4814197149975027
0.012038807352026103,0.9948958681583405,0.03645795022600093,0.9869531997728476,0.9909455771831365,0.5566436641774392
0.012038807352026103,0.9948958681583405,0.03645795022600093,0.9869531997728476,0.9909455771831365,0.46958641010422547
0.004088359323956948,0.9926232025631545,0.01947120152184125,0.9923340831016437,0.9889853379478747,0.46958641010422547
