prior,sens_tac,spec_tac,sens_vis,spec_vis,density
0.03305320555314954,0.5816400177324526,0.26966616862699444,0.2501651199793826,0.15785913799589854,0.7259842661890675
0.04674398552745636,0.6558021386190103,0.26084034640672105,0.3201005307126628,0.2849033875563802,0.65073385846482
0.060434765501763174,0.729964259505568,0.25201452418644765,0.390035941445943,0.41194763711686194,0.48706838920941065
0.07412554547606999,0.8041263803921257,0.24318870196617423,0.4599713521792232,0.5389918866773437,0.490210745469997
0.0878163254503768,0.8782885012786834,0.2343628797459008,0.5299067629125034,0.6660361362378253,0.4619576318531542
0.10150710542468362,0.9524506221652411,0.2255370575256274,0.5998421736457835,0.7930803857983071,0.4588761835831403
0.11519788539899044,0.9436247999449677,0.2954724682589076,0.7268864232062653,0.7458785042771694,0.679893208597955
0.12888866537329724,0.9347989777246943,0.3654078789921878,0.8539306727667471,0.6986766227560317,0.6470629139074362
0.14257944534760406,0.9259731555044209,0.435343289725468,0.9809749223272288,0.651474741234894,0.6360706094855963
0.15627022532191087,0.9171473332841475,0.5052787004587482,0.9337730408060911,0.6217033155566116,0.6337156217388934
0.1699610052962177,0.9913094541707053,0.49645287823847484,0.8865711592849534,0.5919318898783292,0.6337910992409923
0.1836517852705245,0.9824836319504319,0.5663882889717551,0.8393692777638158,0.5621604642000468,0.6325258949424453
0.19734256524483132,0.9736578097301585,0.6363236997050352,0.9664135273242975,0.5149585826789091,0.6291856128628533
0.21103334521913814,0.9648319875098851,0.7062591104383154,0.9192116458031598,0.4851871570006267,0.6284872737711892
0.22472412519344495,0.9560061652896117,0.7761945211715955,0.8720097642820221,0.45541573132234425,0.6285338652905265
0.23841490516775177,0.9471803430693383,0.8461299319048756,0.9990540138425039,0.40821384980120656,0.6259130928061873
0.25210568514205856,0.9383545208490649,0.9160653426381558,0.9518521323213662,0.3784424241229241,0.6261452236792762
0.26579646511636534,0.9295286986287915,0.9860007533714359,0.9046502508002285,0.34867099844464167,0.6286561703165292
0.27948724509067213,0.9207028764085181,0.9387988718502982,0.8748788251219461,0.30473998040997946,0.6377631821052734
0.2931780250649789,0.9948649972950758,0.9299730496300248,0.9448142358552263,0.4317842299704612,0.621129035467956
0.3068688050392857,0.9860391750748024,0.999908460363305,0.8976123543340886,0.4020128042921787,0.6213754695241013
0.3205595850135925,0.977213352854529,0.9527065788421674,0.8678409286558062,0.3580817862575165,0.6254638618096061
0.3342503649878993,0.9683875306342556,0.9055046973210297,0.8380695029775238,0.3141507682228543,0.6348647453059912
0.3479411449622061,0.9595617084139823,0.9754401080543098,0.9651137525380056,0.2669488867017166,0.6251874802523868
0.36163192493651286,0.9507358861937089,0.9282382265331721,0.9353423268597232,0.22301786866705442,0.6348076850469757
0.37532270491081965,0.9419100639734355,0.9981736372664523,0.8881404453385855,0.193246442988772,0.660748701039925
0.38901348488512644,0.9330842417531621,0.9509717557453146,0.8583690196603031,0.1493154249541098,0.7319733673040554
0.4027042648594332,0.9242584195328887,0.9037698742241769,0.8285975939820207,0.10538440691944759,0.46013944477480617
0.41639504483374,0.9984205404194464,0.8949440520039035,0.8985330047153008,0.2324286564799293,0.6317350869071456
0.4300858248080468,0.989594718199173,0.9648794627371837,0.8513311231941632,0.20265723080164688,0.6671890748386428
0.4437766047823536,0.9807688959788996,0.917677581216046,0.8215596975158808,0.15872621276698468,0.45858448380876554
0.4574673847566604,0.9719430737586262,0.9876129919493262,0.9486039470763625,0.11152433124584699,0.661173103148878
0.47115816473096717,0.9631172515383528,0.9404111104281885,0.9188325213980801,0.06759331321118478,0.45878861859451253
0.48484894470527395,0.9542914293180794,0.8932092289070508,0.8890610957197977,0.02366229517652258,0.46027915740301406
0.49853972467958074,0.945465607097806,0.9631446396403309,0.84185921419866,0.09858468262922992,0.4597746782440799
0.5122305046538875,0.9366397848775326,0.9159427581191932,0.8120877885203777,0.054653664594567726,0.4601654596625523
0.5259212846281943,0.9278139626572592,0.9858781688524734,0.9391320380808594,0.007451783073430043,0.4602435439444993
0.5396120646025011,0.9189881404369858,0.9386762873313357,0.909360612402577,0.08237417052613738,0.4572435122110699
0.5533028445768079,0.9931502613235437,0.9298504651110623,0.9792960231358572,0.2094184200866191,0.6125079411855466
0.5669936245511147,0.9843244391032703,0.9997858758443425,0.9320941416147195,0.17964699440833667,0.619731218585831
0.5806844045254215,0.9754986168829969,0.9525839943232048,0.9023227159364371,0.13571597637367447,0.650160936662791
0.5943751844997283,0.9666727946627235,0.9053821128020672,0.8725512902581547,0.09178495833901226,0.45877220982923134
0.608065964474035,0.9578469724424501,0.9753175235353473,0.9995955398186365,0.04458307681787458,0.6481077567232352
0.6217567444483418,0.9490211502221767,0.9281156420142096,0.9698241141403541,0.0006520587832123809,0.4601500729153306
0.6354475244226486,0.9401953280019033,0.9980510527474897,0.9226222326192164,0.07557444623591972,0.550321895699721
0.6491383043969554,0.9313695057816299,0.950849171226352,0.892850806940934,0.03164342820125752,0.45976589860520795
0.6628290843712622,0.9225436835613565,0.9036472897052144,0.8630793812626516,0.10656581565396486,0.45722925699037964
0.676519864345569,0.9967058044479142,0.894821467484941,0.9330147919959317,0.23361006521444658,0.6047064788563924
0.6902106443198758,0.9878799822276408,0.9647568782182212,0.885812910474794,0.20383863953616416,0.61089049792587
0.7039014242941826,0.9790541600073674,0.9175549966970835,0.8560414847965117,0.15990762150150195,0.6465129749827104
0.7175922042684894,0.970228337787094,0.9874904074303636,0.9830857343569934,0.11270573998036426,0.609527469591937
0.7312829842427961,0.9614025155668207,0.940288525909226,0.953314308678711,0.06877472194570206,0.631391325439556
0.7449737642171029,0.9525766933465473,0.8930866443880883,0.9235428830004286,0.024843703911039856,0.45931361689793293
0.7586645441914097,0.9437508711262739,0.9630220551213684,0.876341001479291,0.0997660913637472,0.4541187035288886
0.7723553241657165,0.9349250489060005,0.9158201736002307,0.8465695758010086,0.055835073329085,0.4590352610038746
0.7860461041400233,0.9260992266857271,0.9857555843335108,0.9736138253614903,0.008633191807947319,0.45905368310171935
0.7997368841143301,0.9172734044654537,0.9385537028123732,0.9438423996832079,0.08355557926065466,0.6170827741244073
0.8134276640886369,0.9914355253520115,0.9297278805920998,0.8966405181620702,0.05378415358237223,0.45801057822600305
0.8271184440629437,0.9826097031317381,0.99966329132538,0.8494386366409326,0.0240127279040898,0.4593402401954836
0.8408092240372504,0.9737838809114647,0.9524614098042423,0.8196672109626502,0.09893511535679714,0.4574449947899776
0.8545000040115572,0.9649580586911913,0.9052595282831046,0.7898957852843678,0.05500409732213494,0.4588262319865845
0.868190783985864,0.9561322364709179,0.9751949390163848,0.9169400348448495,0.007802215800997256,0.45924222455069585
0.8818815639601708,0.9473064142506445,0.9279930574952471,0.8871686091665671,0.08272460325370459,0.4529950838476036
0.8955723439344776,0.9384805920303712,0.9979284682285272,0.8399667276454295,0.052953177575422165,0.4581050545390108
0.9092631239087844,0.9296547698100978,0.9507265867073895,0.8101953019671471,0.009022159540759966,0.4590366064016912
0.9229539038830912,0.9208289475898244,0.9035247051862518,0.7804238762888647,0.0839445469934673,0.4573559348302839
0.936644683857398,0.9949910684763821,0.8946988829659784,0.8503592870221448,0.21098879655394903,0.5912996917978827
0.9503354638317048,0.9861652462561087,0.9646342936992587,0.9774035365826266,0.16378691503281134,0.5885499028330038
0.9415096416114314,0.938963364734971,0.9348628680209763,0.9334725185479644,0.2387093024855187,0.5887972474560214
0.9552004215857381,0.9301375425146976,0.8876609864998386,0.903701092869682,0.1947782844508565,0.5888824671328843
0.9463745993654648,0.8829356609935599,0.8578895608215562,0.8597700748350199,0.26970067190356384,0.5890134622699855
0.9375487771451914,0.95287107172684,0.984933810382038,0.8125681933138822,0.23992924622528142,0.5917849890739239
0.9512395571194981,0.9440452495065667,0.9377319288609003,0.7827967676355998,0.1959982281906192,0.43247885822679166
0.9424137348992248,0.896843367985429,0.9079605031826179,0.7388657496009376,0.27092061564332653,0.5998571920583613
0.9335879126789514,0.9667787787187092,0.8607586216614802,0.7090943239226553,0.22698959760866433,0.44509899315762735
0.9472786926532581,0.9579529564984358,0.9306940323947603,0.836138573483137,0.17978771608752664,0.5952828057531594
0.9384528704329848,0.9107510749772981,0.900922606716478,0.7922075554484749,0.254710103540234,0.5923337509476954
0.9521436504072915,0.984913195863856,0.8920967844962046,0.862142966181755,0.3817543531007157,0.5879114750426557
0.9433178281870181,0.9377113143427183,0.8623253588179222,0.8182119481470929,0.45667674055342306,0.5882884908840293
0.9344920059667448,0.8905094328215806,0.8325539331396398,0.7742809301124307,0.5315991280061304,0.5886798020368382
0.9481827859410515,0.9646715537081383,0.8237281109193664,0.8442163408457108,0.6586433775666121,0.5878847188008212
0.9393569637207781,0.9174696721870006,0.793956685241084,0.8002853228110487,0.7335657650193194,0.5882669415322686
0.9530477436950849,0.9916317930735583,0.7851308630208106,0.8702207335443288,0.860610014579801,0.5875903998587526
0.9442219214748115,0.9444299115524206,0.7553594373425282,0.8262897155096667,0.9355324020325083,0.5879228720046328
0.9353960992545381,0.8972280300312829,0.7255880116642458,0.7823586974750045,0.8797244326418255,0.588376906441688
0.9490868792288449,0.9713901509178406,0.7167621894439724,0.8522941082082847,0.8325225511206878,0.5878011312153886
0.9402610570085715,0.924188269396703,0.68699076376569,0.8083630901736225,0.9074449385733951,0.5881497835952445
0.9539518369828783,0.9983503902832607,0.6781649415454166,0.8782985009069026,0.8602430570522575,0.5875857627789547
0.9451260147626049,0.951148508762123,0.6483935158671342,0.8343674828722405,0.9351654445049647,0.587923465426617
0.9363001925423315,0.9039466272409853,0.6186220901888518,0.7904364648375783,0.879357475114282,0.5883929368038803
0.9499909725166383,0.978108748127543,0.6097962679685784,0.8603718755708585,0.8321555935931443,0.5878025544843271
0.9411651502963649,0.9309068666064053,0.580024842290296,0.8164408575361963,0.9070779810458516,0.5881594991047422
0.9548559302706717,0.9220810443861319,0.6499602530235762,0.9434851070966781,0.8598760995247139,0.5875646976752665
0.9460301080503983,0.9920164551194122,0.777004502584058,0.8962832255755404,0.8301046738464315,0.587882793037897
0.9372042858301249,0.9448145735982745,0.7472330769057756,0.8523522075408783,0.9050270612991388,0.5882260454894092
0.9508950658044317,0.9359887513780011,0.8171684876390557,0.97939645710136,0.8578251797780011,0.5876516393112956
0.9420692435841583,0.8887868698568634,0.7873970619607733,0.9354654390666979,0.9327475672307084,0.5879863905537238
0.9332434213638849,0.9587222805901436,0.9144413115212551,0.8882635575455602,0.902976141552426,0.5882889747470276
0.9469342013381917,0.9498964583698702,0.9843767222545352,0.8410616760244225,0.8732047158741436,0.587741476460118
0.9381083791179183,0.9026945768487326,0.9546052965762528,0.7971306579897603,0.9481271033268509,0.5880956221330738
0.9517991590922251,0.9768566977352904,0.9457794743559794,0.8670660687230405,0.9009252218057132,0.5875642767619541
0.9429733368719517,0.9296548162141527,0.916008048677697,0.8231350506883783,0.9758476092584205,0.5878938641781634
0.9341475146516783,0.9995902269474328,0.8688061671565593,0.7933636250100959,0.9319165912237584,0.5882763717902975
0.9478382946259851,0.9907644047271594,0.9387415778898396,0.9204078745705777,0.8847147097026207,0.5877097927238486
0.9390124724057117,0.9435625232060217,0.9089701522115572,0.8764768565359156,0.959637097155328,0.5880465089155655
0.9527032523800185,0.9347367009857483,0.9789055629448373,0.8292749750147779,0.9298656714770456,0.5875140109458074
0.9438774301597451,0.8875348194646107,0.9491341372665549,0.7853439569801157,0.8740577020863628,0.5879127247338911
0.9350516079394717,0.9574702301978908,0.9019322557454172,0.7555725313018333,0.8301266840517006,0.5883151665002972
0.9487423879137785,0.9486444079776174,0.9718676664786974,0.8826167808623151,0.782924802530563,0.5876978043628711
0.9399165656935051,0.9014425264564797,0.942096240800415,0.838685762827653,0.8578471899832703,0.5880593434594371
0.9536073456678119,0.9756046473430375,0.9332704185801416,0.9086211735609331,0.984891439543752,0.5874483802379123
0.9447815234475385,0.9284027658218998,0.9034989929018592,0.8646901555262709,0.9290834701530692,0.5878477124939
0.9359557012272651,0.99833817655518,0.8562971113807215,0.8349187298479885,0.8851524521184071,0.5882298602586656
0.9496464812015719,0.9895123543349066,0.9262325221140018,0.9619629794084703,0.8379505705972694,0.5876506750281899
0.9408206589812985,0.9423104728137689,0.8964610964357194,0.9180319613738082,0.9128729580499767,0.587995515321337
0.9545114389556053,0.9334846505934955,0.9663965071689995,0.8708300798526705,0.8831015323716943,0.587461423172257
0.9456856167353319,0.8862827690723578,0.9366250814907171,0.8268990618180083,0.9580239198244016,0.5878034927412977
0.9368597945150585,0.956218179805638,0.8894231999695794,0.7971276361397259,0.9140929017897395,0.5881814760324514
0.9505505744893653,0.9473923575853646,0.9593586107028595,0.9241718857002077,0.8668910202686018,0.5876076203284204
0.9417247522690919,0.9001904760642269,0.9295871850245772,0.8802408676655455,0.9418134077213091,0.5879526984515361
0.9554155322433987,0.9743525969507847,0.9207613628043038,0.9501762783988257,0.8946115262001714,0.5874221078227596
0.9465897100231253,0.927150715429647,0.8909899371260214,0.9062452603641635,0.9695339136528787,0.5877529787227634
0.9377638878028519,0.9970861261629271,0.8437880556048837,0.8764738346858811,0.9256028956182165,0.5881246717238261
0.9514546677771587,0.9882603039426537,0.9137234663381639,0.8292719531647434,0.8958314699399341,0.5875974645470843
0.9426288455568853,0.941058422421516,0.8839520406598815,0.7853409351300813,0.9707538573926414,0.5879295738668776
0.9338030233366119,0.8938565409003784,0.8541806149815991,0.7414099170954191,0.9149458880019586,0.5883558059000928
0.9474938033109187,0.9680186617869362,0.8453547927613257,0.8113453278286993,0.867744006480821,0.5878047797983239
0.9386679810906453,0.9208167802657985,0.8155833670830434,0.7674143097940371,0.9426663939335282,0.5881377484937106
0.9523587610649521,0.9949789011523562,0.80675754486277,0.8373497205273173,0.8954645124123906,0.5875983416413713
0.9435329388446787,0.9477770196312185,0.7769861191844876,0.7934187024926551,0.9703868998650979,0.587919098088692
0.9347071166244053,0.9005751381100808,0.7472146935062052,0.749487684457993,0.9145789304744151,0.5883720087927996
0.9483978965987121,0.9747372589966385,0.7383888712859318,0.8194230951912731,0.8673770489532774,0.5878092958722938
0.9395720743784387,0.9275353774755009,0.7086174456076494,0.775492077156611,0.9422994364059847,0.5881415702081126
0.9532628543527455,0.9187095552552275,0.7785528563409296,0.9025363267170927,0.895097554884847,0.5875739807632006
0.9444370321324721,0.9886449659885077,0.9055971059014114,0.855334445195955,0.8653261292065646,0.5878784380638193
0.9356112099121987,0.94144308446737,0.875825680223129,0.8114034271612929,0.9402485166592719,0.5882181707419942
0.9493019898865055,0.9326172622470966,0.9457610909564091,0.9384476767217746,0.8930466351381342,0.5876550393104449
0.9404761676662321,0.8854153807259589,0.9159896652781268,0.8945166586871125,0.9679690225908415,0.5879903757603159
0.9541669476405389,0.9595775016125168,0.9071638430578534,0.9644520694203926,0.9207671410697038,0.5874662760770271
0.9453411254202655,0.9123756200913791,0.877392417379571,0.9205210513857305,0.9956895285224111,0.5877545214749184
0.9365153031999921,0.9823110308246592,0.8301905358584333,0.8907496257074481,0.951758510487749,0.5881592036638608
0.9502060831742989,0.9734852086043858,0.9001259465917135,0.8435477441863104,0.9219870848094666,0.587639325463687
0.9413802609540255,0.9262833270832481,0.8703545209134311,0.7996167261516482,0.9969094722621739,0.5879207246121153
0.9550710409283323,0.9174575048629747,0.9402899316467113,0.92666097571213,0.9497075907410362,0.5874249967271495
0.9462452187080589,0.9873929155962549,0.8930880501255736,0.8968895500338476,0.905776572706374,0.5877865306539208
0.9374193964877855,0.9401910340751172,0.8633166244472912,0.8529585319991855,0.9806989601590813,0.5881090715630687
0.9511101764620923,0.9313652118548438,0.9332520351805713,0.9800027815596672,0.9334970786379436,0.5875728583586497
0.9422843542418189,0.8841633303337061,0.9034806095022889,0.9360717635250051,0.8776891092472608,0.5879604588607601
0.9334585320215455,0.9540987410669863,0.8562787279811512,0.9063003378467227,0.8337580912125987,0.5883493277629356
0.9471493119958523,0.9452729188467129,0.9262141387144314,0.859098456325585,0.8039866655343163,0.5877924473334654
0.9383234897755789,0.8980710373255752,0.896442713036149,0.8151674382909229,0.8789090529870236,0.5881490033887787
0.9520142697498857,0.9722331582121331,0.8876168908158756,0.885102849024203,0.8317071714658859,0.5876012568067166
0.9431884475296123,0.9250312766909954,0.8578454651375932,0.8411718309895408,0.9066295589185932,0.5879459248321873
0.9343626253093389,0.9949666874242755,0.9848897146980748,0.7939699494684032,0.8768581332403108,0.5882265824506822
0.9480534052836457,0.9861408652040021,0.9376878331769372,0.7641985237901208,0.8329271152056487,0.5877615197308061
0.9392275830633723,0.9389389836828644,0.9079164074986548,0.7202675057554586,0.907849502658356,0.5881140635300331
0.9529183630376791,0.930113161462591,0.9778518182319349,0.8473117553159404,0.8606476211372183,0.5875253838020337
0.9440925408174057,0.8829112799414534,0.9480803925536525,0.8033807372812782,0.9355700085899256,0.587877244668833
0.9352667185971323,0.9528466906747335,0.9008785110325148,0.7736093116029958,0.8916389905552634,0.588261035609452
0.9489574985714391,0.9440208684544601,0.970813921765795,0.9006535611634776,0.8444371090341257,0.5876721488676757
0.9401316763511657,0.8968189869333224,0.9410424960875126,0.8567225431288155,0.919359496486833,0.5880246396704979
0.9538224563254725,0.9709811078198802,0.9322166738672392,0.9266579538620956,0.8721576149656953,0.587489105527899
0.9449966341051991,0.9237792262987425,0.9024452481889568,0.8827269358274334,0.9470800024184026,0.5878286594290211
0.9361708118849257,0.9937146370320227,0.8552433666678191,0.852955510149151,0.9031489843837405,0.5882048390692167
0.9498615918592325,0.9848888148117493,0.9251787774010993,0.9799997597096328,0.8559471028626028,0.5876353446378224
0.9410357696389591,0.9376869332906116,0.8954073517228169,0.9360687416749707,0.9308694903153101,0.5879767230460297
0.9547265496132659,0.9288611110703382,0.9653427624560971,0.888866860153833,0.9010980646370277,0.5874467488508441
0.9459007273929925,0.9987965218036183,0.9181408809349594,0.8590954344755506,0.8571670466023655,0.5878154343824552
0.9370749051727191,0.9515946402824806,0.888369455256677,0.8151644164408884,0.9320894340550728,0.588158212574725
0.9507656851470259,0.9427688180622072,0.9583048659899571,0.9422086660013702,0.8848875525339351,0.587593264788
0.9419398629267525,0.8955669365410696,0.9285334403116747,0.8982776479667081,0.9598099399866424,0.5879323447302345
0.9331140407064791,0.9655023472743498,0.881331558790537,0.8685062222884257,0.9158789219519803,0.5883063071037423
0.9468048206807859,0.9566765250540764,0.9512669695238172,0.9955504718489074,0.8686770404308426,0.5877390912288172
0.9379789984605125,0.9094746435329387,0.9214955438455348,0.9516194538142453,0.9435994278835499,0.5880819636077237
0.9516697784348193,0.9836367644194965,0.9126697216252614,0.9044175722931076,0.9138280022052675,0.5875683530724165
0.9428439562145459,0.9364348828983589,0.882898295946979,0.8604865542584454,0.9887503896579748,0.587880293748798
0.9340181339942725,0.8892330013772212,0.8531268702686966,0.8165555362237833,0.932942420267292,0.5883068998712253
0.9477089139685793,0.9633951222637789,0.8443010480484232,0.8864909469570634,0.8857405387461543,0.5877660131901453
0.9388830917483059,0.9161932407426412,0.8145296223701408,0.8425599289224013,0.9606629261988616,0.5880932697449235
0.9525738717226127,0.9903553616291989,0.8057038001498674,0.9124953396556814,0.9134610446777239,0.5875628892985558
0.9437480495023393,0.9431534801080612,0.775932374471585,0.8685643216210193,0.9883834321304312,0.5878743200219041
0.9349222272820659,0.8959515985869235,0.7461609487933026,0.8246333035863571,0.9325754627397485,0.5883166635895803
0.9486130072563727,0.9701137194734812,0.7373351265730292,0.8945687143196372,0.8853735812186108,0.587768411900634
0.9397871850360993,0.9229118379523436,0.7075637008947468,0.8506376962849751,0.9602959686713181,0.5880901300251196
0.953477965010406,0.9970739588389013,0.6987378786744735,0.9205731070182552,0.9130940871501804,0.5875562308343819
0.9446521427901327,0.9498720773177636,0.6689664529961911,0.8766420889835931,0.9880164746028877,0.5878660529069
0.9358263205698593,0.9026701957966259,0.6391950273179087,0.8327110709489309,0.9322085052122049,0.588329203715191
0.949517100544166,0.9768323166831836,0.6303692050976353,0.9026464816822111,0.8850066236910672,0.587765746665788
0.9406912783238927,0.9296304351620459,0.6005977794193529,0.8587154636475489,0.9599290111437745,0.5880957865654828
0.9543820582981994,0.9208046129417725,0.670533190152633,0.9857597132080307,0.9127271296226368,0.5875370817807911
0.945556236077926,0.9907400236750528,0.7975774397131148,0.938557831686893,0.8829557039443544,0.5878516291817374
0.9367304138576527,0.9435381421539151,0.7678060140348324,0.8946268136522308,0.9578780913970617,0.5881736808683787
0.9504211938319594,0.9347123199336417,0.8377414247681125,0.8474249321310932,0.9281066657187793,0.5876535963570881
0.941595371611686,0.887510438412504,0.8079699990898301,0.803493914096431,0.8722986963280965,0.5880808275426941
0.9552861515859928,0.9616725592990618,0.7991441768695567,0.8734293248297111,0.9993429458885783,0.5873753147875783
0.9464603293657194,0.9144706777779241,0.7693727511912744,0.829498306795049,0.9435349764978955,0.5878294129979424
0.937634507145446,0.9844060885112043,0.896417000751756,0.7822964252739113,0.9137635508196131,0.5881472394532502
0.9513252871197528,0.9755802662909309,0.9663524114850361,0.9093406748343931,0.8665616692984754,0.5875729741305451
0.9424994648994794,0.9283783847697932,0.9365809858067538,0.8654096567997309,0.9414840567511827,0.5879179261685353
0.933673642679206,0.9983137955030734,0.8893791042856161,0.8356382311214485,0.8975530387165206,0.5882941205161132
0.9473644226535128,0.9894879732828,0.9593145150188962,0.9626824806819303,0.8503511571953829,0.5877183913889743
0.9385386004332394,0.9422860917616623,0.9295430893406138,0.9187514626472681,0.9252735446480902,0.5880651239788703
0.9522293804075462,0.9334602695413889,0.9994785000738939,0.8715495811261305,0.8955021189698078,0.5874694630362303
0.9434035581872728,0.8862583880202513,0.9697070743956115,0.8276185630914683,0.9704245064225151,0.5878570839215714
0.9345777359669994,0.9561937987535314,0.9225051928744739,0.7978471374131859,0.926493488387853,0.588248928366031
0.9482685159413062,0.947367976533258,0.992440603607754,0.9248913869736677,0.8792916068667153,0.5876520656191822
0.9394426937210328,0.9001660950121203,0.9626691779294716,0.8809603689390055,0.9542139943194226,0.5880141656986085
0.9531334736953396,0.9743282158986781,0.9538433557091982,0.9508957796722857,0.9070121127982849,0.5874940016308166
0.9443076514750662,0.9271263343775404,0.9240719300309158,0.9069647616376235,0.9819345002509922,0.5878141472916564
0.9354818292547928,0.9970617451108206,0.8768700485097781,0.8771933359593411,0.93800348221633,0.5881938895968528
0.9491726092290996,0.9882359228905472,0.9468054592430584,0.8299914544382034,0.9082320565380476,0.5876685216532607
0.9403467870088262,0.9410340413694095,0.917034033564776,0.7860604364035413,0.9831544439907549,0.5879905777063192
0.954037566983133,0.9322082191491361,0.9869694442980561,0.913104685964023,0.9359525624696172,0.5874335988587488
0.9452117447628596,0.8850063376279984,0.9571980186197737,0.8691736679293609,0.8801445930789344,0.5878327223566545
0.9363859225425862,0.9549417483612785,0.909996137098636,0.8394022422510785,0.8362135750442723,0.5882177002588457
0.950076702516893,0.9461159261410051,0.9799315478319162,0.9664464918115603,0.7890116935231346,0.5876200587638611
0.9412508802966196,0.8989140446198675,0.9501601221536338,0.9225154737768981,0.8639340809758419,0.587979412097921
0.9549416602709264,0.9730761655064253,0.9413342999333604,0.9924508845101783,0.9909783305363236,0.5873702989002251
0.946115838050653,0.9258742839852876,0.911562874255078,0.9485198664755161,0.9351703611456408,0.5877752351020097
0.9372900158303796,0.9958096947185677,0.8643609927339403,0.9187484407972337,0.8912393431109786,0.5881446441400222
0.9509807958046864,0.9869838724982943,0.9342964034672205,0.871546559276096,0.8614679174326962,0.5876088668259306
0.942154973584413,0.9397819909771566,0.9045249777889381,0.8276155412414339,0.9363903048854035,0.5879520001119666
0.9333291513641396,0.892580109456019,0.8747535521106558,0.7836845232067717,0.8805823354947208,0.5883737759588752
0.9470199313384464,0.9667422303425768,0.8659277298903824,0.8536199339400519,0.8333804539735831,0.5878187691013211
0.938194109118173,0.9195403488214391,0.8361563042121,0.8096889159053897,0.9083028414262904,0.5881632915712977
0.9518848890924798,0.9937024697079968,0.8273304819918266,0.8796243266386699,0.8611009599051527,0.5876173551472539
0.9430590668722064,0.9465005881868591,0.7975590563135442,0.8356933086040077,0.93602334735786,0.5879498517138287
0.934233244651933,0.8992987066657214,0.7677876306352618,0.7917622905693456,0.8802153779671772,0.5883968474863138
0.9479240246262398,0.9734608275522791,0.7589618084149884,0.8616977013026257,0.8330134964460395,0.5878277573507935
0.9390982024059664,0.9262589460311415,0.729190382736706,0.8177666832679635,0.9079358838987468,0.5881733163635651
0.9527889823802732,0.9174331238108681,0.7991257934699862,0.9448109328284453,0.8607340023776091,0.5875947363048485
0.9439631601599998,0.9873685345441483,0.926170043030468,0.8976090513073076,0.8309625766993267,0.5878875000307971
0.9351373379397264,0.9401666530230106,0.8963986173521856,0.8536780332726455,0.905884964152034,0.588236524511503
0.9488281179140332,0.9313408308027372,0.9663340280854658,0.9807222828331272,0.8586830826308963,0.5876633938621227
0.9400022956937598,0.8841389492815995,0.9365626024071834,0.9367912647984651,0.9336054700836036,0.5880113183376275
0.9536930756680666,0.9583010701681574,0.92773678018691,0.8895893832773274,0.9038340444053212,0.5874959438192376
0.9448672534477932,0.9110991886470197,0.8979653545086276,0.8456583652426652,0.9787564318580285,0.5878232963383313
0.9360414312275198,0.9810345993802998,0.8507634729874899,0.8158869395643829,0.9348254138233664,0.5882040131374928
0.9497322112018266,0.9722087771600264,0.9206988837207701,0.9429311891248646,0.8876235323022287,0.5876423519506361
0.9409063889815532,0.9250068956388887,0.8909274580424877,0.8990001710902025,0.962545919754936,0.5879767841386484
0.95459716895586,0.9991690165254465,0.8821016358222143,0.9689355818234826,0.9153440382337983,0.5874512194532254
0.9457713467355866,0.9519671350043089,0.852330210143932,0.9250045637888205,0.9902664256865056,0.5877593888487932
0.9369455245153132,0.9047652534831712,0.8225587844656496,0.8810735457541583,0.9344584562958228,0.5881806151729249
0.95063630448962,0.9789273743697289,0.8137329622453762,0.9510089564874384,0.8872565747746851,0.5876442574799202
0.9418104822693466,0.9317254928485912,0.7839615365670938,0.9070779384527763,0.9621789622273924,0.5879679910037805
0.9555012622436534,0.9228996706283178,0.8538969473003739,0.8598760569316386,0.93240753654911,0.5874488992468401
0.94667544002338,0.992835081361598,0.9809411968608557,0.8126741754105009,0.9026361108708276,0.5877463695619426
0.9378496178031066,0.9456331998404603,0.9511697711825733,0.7687431573758388,0.9775584983235349,0.5880793507560735
0.9515403977774134,0.936807377620187,0.9039678896614356,0.7389717316975564,0.9336274802888728,0.58761270461403
0.94271457555714,0.8896054960990493,0.8741964639831532,0.6950407136628942,0.87781951089819,0.5880366657953415
0.9338887533368666,0.9595409068323295,0.8269945824620155,0.6652692879846118,0.8338884928635278,0.5884658634627132
0.9475795333111734,0.9507150846120561,0.8969299931952956,0.7923135375450936,0.7866866113423902,0.5878255445088045
0.9387537110909,0.9035132030909184,0.8671585675170133,0.7483825195104314,0.8616089987950974,0.5881863015325594
0.9524444910652068,0.9776753239774763,0.8583327452967399,0.8183179302437116,0.9886532483555792,0.5875257117334565
0.9436186688449334,0.9304734424563386,0.8285613196184575,0.7743869122090494,0.9328452789648964,0.587940822099224
0.93479284662466,0.8832715609352009,0.7987898939401751,0.7304558941743873,0.8770373095742137,0.5883920675923179
0.9484836265989668,0.9574336818217586,0.7899640717199017,0.8003913049076674,0.829835428053076,0.5878185700104593
0.9396578043786934,0.9102318003006209,0.7601926460416193,0.7564602868730053,0.9047578155057833,0.5881673166634185
0.9533485843530002,0.9843939211871786,0.7513668238213459,0.8263956976062854,0.8575559339846456,0.5876057116723945
0.9445227621327268,0.9371920396660409,0.7215953981430635,0.7824646795716232,0.9324783214373529,0.5879424457160218
0.9356969399124534,0.8899901581449032,0.6918239724647811,0.7385336615369611,0.8766703520466701,0.5884090476750583
0.9493877198867602,0.964152279031461,0.6829981502445077,0.8084690722702412,0.8294684705255324,0.5878221268830236
0.9405618976664868,0.9169503975103233,0.6532267245662253,0.7645380542355791,0.9043908579782397,0.5881759203916116
0.9542526776407936,0.991112518396881,0.6444009023459519,0.8344734649688592,0.857188976457102,0.5876010466514685
0.9454268554205202,0.9439106368757433,0.6146294766676695,0.7905424469341971,0.9321113639098093,0.5879455574065648
0.9366010332002468,0.8967087553546056,0.5848580509893871,0.7466114288995349,0.8763033945191265,0.5884311720064151
0.9502918131745536,0.9708708762411633,0.5760322287691138,0.816546839632815,0.8291015129979888,0.5878266809733512
0.9414659909542802,0.9236689947200256,0.5462608030908314,0.7726158215981529,0.9040239004506961,0.5881919006946729
0.955156770928587,0.9978311156065833,0.537434980870558,0.842551232331433,0.8568220189295584,0.5875990759772712
0.9463309487083136,0.9506292340854456,0.5076635551922756,0.7986202142967709,0.9317444063822657,0.5879589469323843
0.9375051264880402,0.903427352564308,0.4778921295139931,0.7546891962621087,0.875936436991583,0.5884817277801602
0.951195906462347,0.9775894734508657,0.46906630729371973,0.8246246069953889,0.8287345554704453,0.5878418530294585
0.9423700842420736,0.930387591929728,0.4392948816154373,0.7806935889607267,0.9036569429231526,0.5882426547524815
0.9335442620218002,0.8831857104085903,0.40952345593715483,0.7367625709260646,0.9785793303758599,0.5887016690826945
0.947235041996107,0.957347831295148,0.40069763371688144,0.8066979816593447,0.9313774488547222,0.5880137803784542
0.9384092197758336,0.9101459497740103,0.370926208038599,0.7627669636246825,0.8755694794640394,0.5886472242959597
0.9520999997501404,0.984308070660568,0.3621003858183256,0.8327023743579627,0.8283675979429017,0.5879084214036219
0.943274177529867,0.9371061891394303,0.33232896014004315,0.7887713563233005,0.903289985395609,0.5884295628142437
0.9344483553095936,0.8899043076182926,0.3025575344617607,0.7448403382886384,0.9782123728483163,0.5892308009848418
0.9481391352839004,0.9640664285048504,0.2937317122414873,0.8147757490219185,0.9310104913271786,0.5882334408565699
0.939313313063627,0.9168645469837127,0.26396028656320486,0.7708447309872564,0.8752025219364958,0.5892699093775373
0.9530040930379338,0.9910266678702704,0.25513446434293147,0.8407801417205365,0.8280006404153581,0.5882183919487965
0.9441782708176604,0.9438247863491327,0.22536303866464905,0.7968491236858743,0.9029230278680654,0.5891415049022982
0.935352448597387,0.896622904827995,0.19559161298636663,0.7529181056512122,0.9778454153207727,0.5913092160728681
0.9490432285716938,0.9707850257145527,0.1867657907660932,0.8228535163844923,0.930643533799635,0.589099361895807
0.9402174063514204,0.923583144193415,0.15699436508781078,0.7789224983498302,0.8748355644089523,0.5917551564282554
0.9539081863257272,0.9977452650799727,0.14816854286753736,0.8488579090831103,0.8276336828878146,0.5898929392846127
0.9450823641054538,0.950543383558835,0.11839711718925494,0.8049268910484482,0.9025560703405219,0.5920403469710351
0.9362565418851804,0.9033415020376974,0.08862569151097252,0.760995873013786,0.9774784577932292,0.4423556078519594
0.9499473218594872,0.9775036229242551,0.0797998692906991,0.8309312837470662,0.9302765762720915,0.5928087122466931
0.9411214996392138,0.9303017414031174,0.05002844361241667,0.787000265712404,0.8744686068814087,0.449496399764672
0.9548122796135206,0.921475919182844,0.11996385434569687,0.9140445152728858,0.827266725360271,0.5910906896739827
0.9459864573932472,0.9914113299161242,0.24700810390617858,0.8668426337517481,0.7974952996819886,0.5886129452298936
0.9371606351729738,0.9442094483949866,0.21723667822789616,0.8229116157170859,0.8724176871346959,0.5896277537559045
0.9508514151472806,0.9353836261747132,0.28717208896117635,0.9499558652775677,0.8252158056135582,0.5881235043534194
0.9420255929270072,0.8881817446535755,0.2574006632828939,0.9060248472429056,0.9001381930662655,0.5890437543924876
0.9331997707067338,0.9581171553868557,0.3844449128433756,0.8588229657217679,0.8703667673879831,0.5886904713432984
0.9468905506810406,0.9492913331665823,0.4543803235766558,0.9858672152822496,0.8231648858668454,0.5879959313865214
0.9380647284607672,0.9020894516454446,0.42460889789837336,0.9419361972475875,0.8980872733195527,0.5884101283938372
0.951755508435074,0.9762515725320025,0.41578307567809997,0.8947343157264498,0.8683158476412703,0.5877968665572124
0.9429296862148006,0.9290496910108648,0.3860116499998175,0.8508032976917876,0.9432382350939776,0.5882227473678121
0.9341038639945272,0.9989851017441449,0.5130558995602992,0.80360141617065,0.9134668094156952,0.588459811064455
0.947794643968834,0.9901592795238715,0.5829913102935793,0.9306456657311317,0.8662649278945576,0.5878539261842898
0.9389688217485606,0.9429573980027338,0.5532198846152969,0.8867146476964696,0.9411873153472649,0.588198997744998
0.9526596017228673,0.9341315757824604,0.623155295348577,0.8395127661753319,0.9114158896689825,0.5876532417450349
0.943833779502594,0.8869296942613227,0.5933838696702947,0.7955817481406697,0.9863382771216898,0.587978214551309
0.9350079572823206,0.9568651049946029,0.7204281192307764,0.748379866619532,0.9565668514434074,0.5883021239185554
0.9486987372566273,0.9480392827743295,0.7903635299640566,0.8754241161800138,0.9093649699222697,0.5877399592794207
0.939872915036354,0.9008374012531918,0.7605921042857742,0.8314930981453517,0.984287357374977,0.5880545225403266
0.9535636950106607,0.9749995221397496,0.7517662820655008,0.9014285088786318,0.9370854758538393,0.5875302466661338
0.9447378727903873,0.9277976406186119,0.7219948563872184,0.8574974908439696,0.8812775064631565,0.5879561250312944
0.935912050570114,0.997733051351892,0.8490391059477,0.810295609322832,0.8515060807848741,0.5882684711257407
0.9496028305444207,0.9889072291316187,0.9189745166809802,0.9373398588833137,0.8043041992637364,0.5876718105754202
0.9407770083241473,0.941705347610481,0.8892030910026978,0.8934088408486516,0.8792265867164437,0.5880225797565707
0.9544677882984541,0.9328795253902076,0.9591385017359779,0.8462069593275139,0.8494551610381613,0.5874799006867076
0.9456419660781807,0.8856776438690699,0.9293670760576955,0.8022759412928517,0.9243775484908686,0.5878298427757733
0.9368161438579073,0.95561305460235,0.8821651945365578,0.7725045156145693,0.8804465304562065,0.5882178754774112
0.9505069238322141,0.9467872323820766,0.952100605269838,0.8995487651750511,0.8332446489350688,0.587626101687455
0.9416811016119407,0.8995853508609389,0.9223291795915556,0.855617747140389,0.9081670363877761,0.5879773001028025
0.9553718815862475,0.9737474717474968,0.9135033573712822,0.9255531578736691,0.8609651548666384,0.5874398654375924
0.9465460593659741,0.9265455902263591,0.8837319316929998,0.881622139839007,0.9358875423193457,0.5877795854952798
0.9377202371457007,0.9964810009596392,0.8365300501718621,0.8518507141607246,0.8919565242846835,0.5881602466642012
0.9514110171200075,0.9876551787393658,0.9064654609051424,0.9788949637212063,0.8447546427635458,0.5875871731546826
0.9425851948997341,0.9404532972182281,0.87669403522686,0.9349639456865442,0.9196770302162531,0.5879283059342403
0.9337593726794607,0.8932514156970904,0.8469226095485776,0.891032927651882,0.9945994176689604,0.5882202993496406
0.9474501526537675,0.9674135365836483,0.8380967873283042,0.9609683383851622,0.9473975361478227,0.587728025353434
0.9386243304334941,0.9202116550625106,0.8083253616500218,0.9170373203505,0.89158956675714,0.5881396687406711
0.9523151104078009,0.9943737759490683,0.7994995394297484,0.9869727310837801,0.8443876852360023,0.587593621623151
0.9434892881875275,0.9471718944279306,0.769728113751466,0.943041713049118,0.9193100726887096,0.5879288474876847
0.9346634659672541,0.8999700129067929,0.7399566880731836,0.8991106950144558,0.9942324601414169,0.5882254468459067
0.9483542459415609,0.9741321337933506,0.7311308658529102,0.969046105747736,0.9470305786202792,0.5877173850688765
0.9395284237212875,0.9269302522722129,0.7013594401746278,0.9251150877130738,0.8912226092295964,0.588148432459447
0.9532192036955943,0.9181044300519395,0.7712948509079081,0.8779132061919361,0.861451183551314,0.5876034046169079
0.9443933814753209,0.9880398407852198,0.8983391004683898,0.8307113246707984,0.8316797578730316,0.5879075476824971
0.9355675592550475,0.9408379592640821,0.8685676747901074,0.7867803066361363,0.9066021453257389,0.5882546849598801
0.9492583392293543,0.9320121370438087,0.9385030855233876,0.9138245561966181,0.8594002638046012,0.5876737525210551
0.9404325170090809,0.884810255522671,0.9087316598451052,0.8698935381619559,0.9343226512573085,0.5880195967757632
0.9541232969833877,0.9589723764092288,0.8999058376248318,0.939828948895236,0.8871207697361708,0.5874846605777599
0.9452974747631143,0.9117704948880911,0.8701344119465494,0.8958979308605739,0.9620431571888781,0.5878178763921389
0.9364716525428409,0.9817059056213713,0.997178661507031,0.8486960493394362,0.9322717315105957,0.5880521588185345
0.9501624325171477,0.9728800834010979,0.9499767799858934,0.8189246236611538,0.8883407134759336,0.5876400729900061
0.9413366102968743,0.9256782018799602,0.920205354307611,0.7749936056264917,0.9632631009286409,0.5879791939828218
0.9550273902711811,0.999840322766518,0.9113795320873376,0.8449290163597718,0.9160612194075032,0.5874486881128518
0.9462015680509077,0.9526384412453803,0.8816081064090552,0.8009979983251097,0.9909836068602105,0.5877580061711587
0.9373757458306343,0.9054365597242426,0.8518366807307728,0.7570669802904475,0.9351756374695277,0.5881880715487606
0.9510665258049411,0.9795986806108004,0.8430108585104994,0.8270023910237276,0.88797375594839,0.5876458466725389
0.9422407035846677,0.9323967990896627,0.813239432832217,0.7830713729890655,0.9628961434010973,0.5879725302596475
0.9334148813643943,0.885194917568525,0.7834680071539346,0.7391403549544033,0.9070881740104145,0.5884233083206305
0.9471056613387011,0.9593570384550827,0.7746421849336612,0.8090757656876835,0.8598862924892768,0.5878594686328339
0.9382798391184277,0.912155156933945,0.7448707592553788,0.7651447476530213,0.9348086799419841,0.5881951301609866
0.9519706190927345,0.9863172778205027,0.7360449370351054,0.8350801583863015,0.8876067984208464,0.5876454702097428
0.9431447968724611,0.939115396299365,0.706273511356823,0.7911491403516393,0.9625291858735537,0.5879670674255758
0.9343189746521877,0.8919135147782273,0.6765020856785406,0.7472181223169772,0.906721216482871,0.5884390714832615
0.9480097546264945,0.966075635664785,0.6676762634582672,0.8171535330502573,0.8595193349617333,0.5878609602376788
0.9391839324062211,0.9188737541436474,0.6379048377799849,0.7732225150155951,0.9344417224144406,0.5882041961118663
0.9528747123805279,0.9930358750302051,0.6290790155597115,0.8431579257488753,0.8872398408933029,0.5876400792993826
0.9440488901602545,0.9458339935090674,0.5993075898814291,0.7992269077142131,0.9621622283460102,0.5879697723944168
0.9352230679399811,0.8986321119879297,0.5695361642031467,0.755295889679551,0.9063542589553274,0.5884616144231829
0.9489138479142879,0.9727942328744874,0.5607103419828733,0.8252313004128311,0.8591523774341897,0.5878644103936917
0.9400880256940145,0.9255923513533497,0.5309389163045909,0.781300282378169,0.934074764886897,0.5882239513967675
0.9537788056683213,0.9997544722399074,0.5221130940843175,0.8512356931114491,0.8868728833657593,0.587638713388228
0.9449529834480479,0.9525525907187697,0.49234166840603505,0.8073046750767869,0.9617952708184666,0.5879891446862041
0.9361271612277745,0.905350709197632,0.4625702427277526,0.7633736570421248,0.9059873014277838,0.5885198552106345
0.9498179412020813,0.9795128300841898,0.4537444205074792,0.8333090677754049,0.8587854199066461,0.5878824149809025
0.9409921189818079,0.9323109485630521,0.42397299482919676,0.7893780497407428,0.9337078073593534,0.5882858583057705
0.9546828989561147,0.9234851263427787,0.49390840556247695,0.9164222993012245,0.8865059258382157,0.5876306019471392
0.9458570767358413,0.9934205370760589,0.6209526551229587,0.8692204177800869,0.8567345001599334,0.5879433363034661
0.9370312545155679,0.9462186555549212,0.5911812294446763,0.8252893997454247,0.9316568876126406,0.5882880681541318
0.9507220344898747,0.9373928333346478,0.6611166401779565,0.9523336493059065,0.884455006091503,0.5877068038188915
0.9418962122696013,0.8901909518135102,0.6313452144996741,0.9084026312712443,0.9593773935442103,0.5880378090599638
0.9330703900493279,0.9601263625467904,0.7583894640601558,0.8612007497501066,0.9296059678659279,0.5883539116422424
0.9467611700236347,0.951300540326517,0.828324874793436,0.9882449993105884,0.8824040863447902,0.5877906763359965
0.9379353478033613,0.9040986588053793,0.7985534491151536,0.9443139812759263,0.9573264737974975,0.5881175677431695
0.9516261277776681,0.9782607796919371,0.7897276268948802,0.8971120997547886,0.9275550481192151,0.5876016206896998
0.9428003055573947,0.9310588981707995,0.7599562012165978,0.8531810817201264,0.8717470787285323,0.5880253963587726
0.9339744833371213,0.8838570166496618,0.7301847755383154,0.8092500636854643,0.9466694661812396,0.5883555655165396
0.9476652633114281,0.9580191375362195,0.721358953318042,0.8791854744187444,0.8994675846601019,0.5878098065503248
0.9388394410911547,0.9108172560150818,0.6915875276397596,0.8352544563840822,0.9743899721128092,0.5881257720748055
0.9525302210654615,0.9849793769016395,0.6827617054194862,0.9051898671173624,0.9271880905916715,0.5875946079264206
0.9437043988451881,0.9377774953805018,0.6529902797412038,0.8612588490827002,0.8713801212009887,0.58803048610188
0.9348785766249147,0.8905756138593641,0.6232188540629214,0.8173278310480381,0.946302508653696,0.5883710339230681
0.9485693565992215,0.9647377347459218,0.614393031842648,0.8872632417813182,0.8991006271325583,0.5878084793650923
0.9397435343789481,0.9175358532247841,0.5846216061643656,0.8433322237466561,0.9740230145852656,0.5881340358069788
0.9534343143532549,0.9916979741113419,0.5757957839440923,0.9132676344799362,0.9268211330641279,0.587588799658153
0.9446084921329815,0.9444960925902042,0.5460243582658099,0.869336616445274,0.8710131636734452,0.5880399767145724
0.9357826699127081,0.8972942110690665,0.5162529325875275,0.8254055984106119,0.9459355511261525,0.5884049572763916
0.9494734498870149,0.9714563319556242,0.5074271103672541,0.895341009143892,0.8987336696050148,0.5878128127712132
0.9406476276667415,0.9242544504344865,0.4776556846889716,0.8514099911092299,0.9736560570577221,0.5881675557169662
0.9543384076410483,0.9984165713210442,0.46882986246869823,0.92134540184251,0.9264541755365844,0.5875915709959116
0.9455125854207749,0.9512146897999065,0.4390584367904158,0.8774143838078479,0.8706462061459016,0.5880703524508003
0.9366867632005015,0.9040128082787688,0.40928701111213334,0.8334833657731857,0.9455685935986089,0.5884993774520405
0.9503775431748083,0.9781749291653266,0.40046118889185994,0.9034187765064658,0.8983667120774712,0.5878414935477533
0.9415517209545349,0.9309730476441889,0.3706897632135775,0.8594877584718037,0.9732890995301785,0.5882722615223246
0.9552425009288417,0.9221472254239155,0.4406251739468577,0.9865320080322855,0.9260872180090408,0.5875986927317666
0.9464166787085683,0.9920826361571957,0.5676694235073394,0.9393301265111478,0.8963157923307584,0.5878915036749955
0.9375908564882949,0.944880754636058,0.537897997829057,0.8953991084764856,0.9712381797834657,0.5882208843153462
0.9512816364626017,0.9360549324157846,0.6078334085623371,0.8481972269553479,0.9414667541051833,0.5876867570980081
0.9424558142423283,0.888853050894647,0.5780619828840547,0.8042662089206858,0.8856587847145005,0.5881537416981292
0.9336299920220549,0.9587884616279272,0.7051062324445365,0.7570643273995481,0.8558873590362182,0.5884721240777437
0.9473207719963617,0.9499626394076538,0.7750416431778167,0.8841085769600299,0.8086854775150805,0.5878577357245008
0.9384949497760883,0.9027607578865161,0.7452702174995343,0.8401775589253677,0.8836078649677878,0.5882118340621519
0.9521857297503951,0.9769228787730739,0.7364443952792609,0.9101129696586479,0.8364059834466501,0.587647346126353
0.9433599075301217,0.9297209972519362,0.7066729696009785,0.8661819516239857,0.9113283708993574,0.5879912245036012
0.9345340853098483,0.9996564079852164,0.8337172191614601,0.818980070102848,0.881556945221075,0.5883063258894542
0.9482248652841551,0.990830585764943,0.9036526298947403,0.9460243196633298,0.8343550636999373,0.5877210845337227
0.9393990430638817,0.9436287042438053,0.8738812042164579,0.9020933016286676,0.9092774511526446,0.5880649618375874
0.9530898230381885,0.9348028820235319,0.943816614949738,0.8548914201075299,0.8795060254743622,0.5875302434696132
0.9442640008179151,0.8876010005023942,0.9140451892714556,0.8109604020728678,0.9544284129270695,0.5878722198159687
0.9354381785976417,0.9575364112356743,0.8668433077503179,0.7811889763945854,0.9104973948924073,0.5882557722396601
0.9491289585719485,0.948710589015401,0.9367787184835981,0.9082332259550672,0.8632955133712696,0.5876766851603084
0.9403031363516751,0.9015087074942633,0.9070072928053157,0.864302207920405,0.9382179008239769,0.5880209046537813
0.9539939163259818,0.9756708283808211,0.8981814705850423,0.9342376186536852,0.8910160193028392,0.5874871814304995
0.9451680941057085,0.9284689468596834,0.8684100449067599,0.890306600619023,0.9659384067555465,0.5878184532722609
0.9363422718854351,0.9984043575929635,0.9954542944672415,0.8431047190978853,0.9361669810772641,0.5880646741053258
0.9500330518597419,0.9895785353726901,0.9482524129461039,0.8133332934196029,0.892235963042602,0.5876435704016822
0.9412072296394685,0.9423766538515524,0.9184809872678215,0.7694022753849408,0.9671583504953093,0.5879802466161347
0.9548980096137752,0.933550831631279,0.9884163980011016,0.8964465249454225,0.9199564689741716,0.5874083076429564
0.9460721873935019,0.8863489501101414,0.9586449723228192,0.8525155069107604,0.9948788564268789,0.5877110241303801
0.9372463651732285,0.9562843608434215,0.9114430908016815,0.822744081232478,0.9509478383922167,0.5881295192774655
0.9509371451475352,0.9474585386231481,0.9813785015349616,0.9497883307929598,0.9037459568710791,0.587562343515752
0.9421113229272619,0.9002566571020104,0.9516070758566793,0.9058573127582976,0.9786683443237864,0.5878914715865674
0.9332855007069885,0.9701920678352907,0.9044051943355416,0.8760858870800152,0.9347373262891242,0.5882768917823383
0.9469762806812952,0.9613662456150173,0.9743406050688217,0.8288840055588775,0.9049659006108418,0.5877418992858344
0.9381504584610219,0.9141643640938796,0.9445691793905393,0.7849529875242154,0.9798882880635491,0.5880704037089762
0.9518412384353286,0.9883264849804374,0.9357433571702659,0.8548883982574955,0.9326864065424114,0.5875573252922309
0.9430154162150552,0.9411246034592997,0.9059719314919835,0.8109573802228334,0.8768784371517286,0.5879510883668874
0.9341895939947819,0.893922721938162,0.8762005058137011,0.7670263621881712,0.9518008246044359,0.5882903821882999
0.9478803739690886,0.9680848428247197,0.8673746835934277,0.8369617729214514,0.9045989430832982,0.5877513689539497
0.9390545517488152,0.920882961303582,0.8376032579151453,0.7930307548867892,0.9795213305360055,0.5880745506913967
0.952745331723122,0.9950450821901398,0.828777435694872,0.8629661656200693,0.9323194490148679,0.587548702886886
0.9439195095028486,0.9478432006690021,0.7990060100165896,0.8190351475854072,0.8765114796241851,0.5879658325765058
0.9350936872825752,0.9006413191478644,0.7692345843383072,0.775104129550745,0.9514338670768924,0.5882927960407272
0.948784467256882,0.9748034400344221,0.7604087621180338,0.8450395402840252,0.9042319855557547,0.5877526648980119
0.9399586450366086,0.9276015585132844,0.7306373364397514,0.801108522249363,0.979154373008462,0.5880665833739239
0.9536494250109154,0.918775736293011,0.8005727471730315,0.9281527718098448,0.9319524914873243,0.5875238907202012
0.944823602790642,0.9887111470262913,0.9276169967335133,0.8809508902887071,0.9021810658090419,0.5878330853955981
0.9359977805703686,0.9415092655051536,0.8978455710552309,0.837019872254045,0.9771034532617492,0.5881603767805689
0.9496885605446754,0.9326834432848802,0.967780981788511,0.9640641218145267,0.9299015717406115,0.5876133323745495
0.940862738324402,0.8854815617637425,0.9380095561102286,0.9201331037798646,0.8740936023499287,0.588001672861131
0.9545535182987088,0.9596436826503003,0.9291837338899552,0.9900685145131447,0.826891720828791,0.5874639447549797
0.9457276960784354,0.9124418011291626,0.8994123082116728,0.9461374964784826,0.9018141082814983,0.5878102126283823
0.936901873858162,0.9823772118624428,0.8522104266905351,0.9163660708002002,0.8578830902468362,0.5881897480651261
0.9505926538324688,0.9735513896421694,0.9221458374238154,0.8691641892790625,0.8281116645685538,0.5876434587284445
0.9417668316121954,0.9263495081210317,0.892374411745533,0.8252331712444003,0.9030340520212611,0.5879922712316198
0.9554576115865022,0.9175236859007583,0.9623098224788131,0.9522774208048821,0.8558321705001234,0.5874212940672098
0.9466317893662288,0.9874590966340384,0.9151079409576754,0.9225059951265997,0.8119011524654612,0.5877907954271698
0.9378059671459554,0.9402572151129007,0.885336515279393,0.8785749770919375,0.8868235399181685,0.5881411512214343
0.9514967471202622,0.9314313928926273,0.9552719260126732,0.8313730955707999,0.8570521142398861,0.5875982303446595
0.9426709248999888,0.8842295113714896,0.9255005003343908,0.7874420775361377,0.9319745016925934,0.5879477116786189
0.9338451026797154,0.9541649221047699,0.8782986188132531,0.7576706518578553,0.8880434836579313,0.588339456914669
0.9475358826540222,0.9453390998844965,0.9482340295465332,0.8847149014183371,0.8408416021367936,0.5877443814442661
0.9387100604337488,0.8981372183633588,0.9184626038682508,0.8407838833836749,0.9157639895895009,0.5880952850618579
0.9524008404080556,0.9722993392499166,0.9096367816479775,0.9107192941169551,0.8685621080683632,0.5875565299691616
0.9435750181877822,0.9250974577287789,0.8798653559696951,0.8667882760822929,0.9434844955210705,0.5878951062779669
0.9347491959675088,0.9950328684620591,0.8326634744485574,0.8370168504040105,0.8995534774864083,0.5882790452735368
0.9484399759418156,0.9862070462417857,0.9025988851818376,0.9640610999644923,0.8523515959652707,0.587703956499559
0.9396141537215422,0.939005164720648,0.8728274595035552,0.9201300819298301,0.927273983417978,0.5880440890027697
0.953304933695849,0.9301793425003746,0.9427628702368354,0.8729282004086925,0.8975025577396956,0.587514635707452
0.9444791114755756,0.8829774609792369,0.912991444558553,0.8289971823740303,0.9724249451924029,0.5878487153205871
0.9356532892553022,0.952912871712517,0.8657895630374153,0.7992257566957479,0.9284939271577407,0.5882295965032163
0.949344069229609,0.9440870494922436,0.9357249737706954,0.9262700062562297,0.881292045636603,0.5876610508487019
0.9405182470093356,0.896885167971106,0.905953548092413,0.8823389882215675,0.9562144330893103,0.5880004442923332
0.9542090269836424,0.9710472888576638,0.8971277258721396,0.9522743989548477,0.9090125515681726,0.5874711577502282
0.945383204763369,0.9238454073365261,0.8673563001938572,0.9083433809201855,0.9839349390208799,0.5877911294436734
0.9365573825430956,0.9937808180698062,0.9944005497543389,0.8611414993990478,0.9541635133425975,0.5880462630976945
0.9502481625174024,0.9849549958495328,0.9471986682332012,0.8313700737207654,0.9102324953079354,0.5876267138942645
0.941422340297129,0.9377531143283951,0.9174272425549188,0.7874390556861033,0.9851548827606427,0.5879457911047504
0.9551131202714358,0.9289272921081217,0.9873626532881989,0.914483305246585,0.937953001239505,0.5873922017492594
0.9462872980511624,0.9988627028414019,0.9401607717670613,0.8847118795683027,0.8940219832048428,0.5877719977755805
0.937461475830889,0.9516608213202642,0.9103893460887789,0.8407808615336405,0.9689443706575501,0.5881051471819174
0.9511522558051958,0.9428349990999908,0.980324756822059,0.9678251110941223,0.9217424891364124,0.5875470171306995
0.9423264335849224,0.8956331175788531,0.9505533311437766,0.9238940930594601,0.9966648765891197,0.5878299786740413
0.933500611364649,0.9655685283121334,0.9033514496226389,0.8941226673811777,0.9527338585544576,0.5882554112200005
0.9471913913389558,0.95674270609186,0.973286860355919,0.84692078586004,0.9229624328761752,0.5877243714606981
0.9383655691186824,0.9095408245707223,0.9435154346776367,0.8029897678253779,0.9978848203288825,0.5879942693461596
0.9520563490929892,0.9837029454572801,0.9346896124573633,0.872925178558658,0.9506829388077448,0.5875396542260937
0.9432305268727158,0.9365010639361424,0.9049181867790809,0.8289941605239959,0.894874969417062,0.5879301018796684
0.9344047046524424,0.8892991824150047,0.8751467611007985,0.7850631424893337,0.9697973568697693,0.5882634748301697
0.9480954846267492,0.9634613033015624,0.8663209388805251,0.8549985532226139,0.9225954753486316,0.5877303810514981
0.9392696624064758,0.9162594217804247,0.8365495132022427,0.8110675351879517,0.9975178628013389,0.5880073616375919
0.9529604423807826,0.9904215426669825,0.8277236909819693,0.8810029459212319,0.9503159812802012,0.5875281819598958
0.9441346201605092,0.9432196611458448,0.7979522653036869,0.8370719278865697,0.8945080118895185,0.5879402383378035
0.9353087979402358,0.8960177796247071,0.7681808396254045,0.7931409098519075,0.9694303993422257,0.5882598237679696
0.9489995779145426,0.9701799005112648,0.7593550174051311,0.8630763205851877,0.9222285178210881,0.5877273890242937
0.9401737556942692,0.9229780189901271,0.7295835917268487,0.8191453025505255,0.9971509052737954,0.5880132833929751
0.953864535668576,0.9971401398766848,0.7207577695065753,0.8890807132838057,0.9499490237526577,0.5875148025813642
0.9450387134483026,0.9499382583555471,0.6909863438282929,0.8451496952491435,0.8941410543619749,0.5879436310805575
0.9362128912280292,0.9027363768344094,0.6612149181500105,0.8012186772144814,0.9690634418146822,0.5882636623129014
0.949903671202336,0.9768984977209672,0.6523890959297372,0.8711540879477615,0.9218615602935445,0.5877236454064187
0.9410778489820626,0.9296966161998295,0.6226176702514548,0.8272230699130994,0.9967839477462518,0.5880216011311142
0.9547686289563694,0.9208707939795561,0.6925530809847349,0.9542673194735811,0.9495820662251141,0.5874936545055914
0.945942806736096,0.9908062047128363,0.8195973305452167,0.9070654379524434,0.9198106405468317,0.5878130456255682
0.9371169845158226,0.9436043231916986,0.7898259048669343,0.8631344199177813,0.994733027999539,0.5881061714268452
0.9508077644901294,0.9347785009714252,0.8597613156002144,0.990178669478263,0.9475311464784013,0.5875963144352382
0.941981942269856,0.8875766194502875,0.829989889921932,0.9462476514436009,0.8917231770877185,0.5879987407834583
0.9331561200495826,0.9575120301835678,0.9570341394824138,0.8990457699224632,0.8619517514094361,0.5882814028885075
0.9468469000238894,0.9486862079632944,0.9098322579612761,0.8692743442441808,0.818020733374774,0.5878059059853263
0.938021077803616,0.9014843264421567,0.8800608322829937,0.8253433262095187,0.8929431208274813,0.5881577868183074
0.9517118577779228,0.9756464473287145,0.8712350100627203,0.8952787369427988,0.8457412393063436,0.5876120402095689
0.9428860355576494,0.9284445658075768,0.8414635843844379,0.8513477189081367,0.9206636267590509,0.5879518883500967
0.934060213337376,0.998379976540857,0.9685078339449196,0.804145837386999,0.8908922010807685,0.5882484056591324
0.9477509933116828,0.9895541543205836,0.9213059524237819,0.7743744117087166,0.8469611830461063,0.5877732252575909
0.9389251710914094,0.9423522727994459,0.8915345267454995,0.7304433936740544,0.9218835704988136,0.5881203597046256
0.9526159510657162,0.9335264505791725,0.9614699374787796,0.8574876432345362,0.874681688977676,0.5875412153927507
0.9437901288454428,0.8863245690580348,0.9316985118004972,0.813556625199874,0.9496040764303832,0.5878862815513807
0.9349643066251694,0.9562599797913149,0.8844966302793595,0.7837851995215916,0.9056730583957211,0.588268306215822
0.9486550865994762,0.9474341575710415,0.9544320410126397,0.9108294490820734,0.8584711768745834,0.5876872118993245
0.9398292643792028,0.9002322760499039,0.9246606153343573,0.8668984310474113,0.9333935643272907,0.5880344514636955
0.9535200443535096,0.9743943969364617,0.9158347931140839,0.9368338417806914,0.886191682806153,0.5875005209380815
0.9446942221332362,0.927192515415324,0.8860633674358015,0.8929028237460293,0.9611140702588603,0.5878347592064551
0.9358683999129628,0.9971279261486041,0.8388614859146638,0.8631313980677469,0.9171830522241982,0.5882100366424443
0.9495591798872696,0.9883021039283307,0.908796896647944,0.9901756476282286,0.8699811707030605,0.5876472073419051
0.9407333576669962,0.941100222407193,0.8790254709696617,0.9462446295935665,0.9449035581557678,0.5879839478946556
0.954424137641303,0.9322744001869196,0.9489608817029418,0.8990427480724288,0.9151321324774854,0.5874597605316302
0.9455983154210296,0.885072518665782,0.9191894560246594,0.8551117300377666,0.9900545199301927,0.5877693316269931
0.9367724932007562,0.9550079293990621,0.8719875745035217,0.8253403043594842,0.9461235018955305,0.588163461197644
0.950463273175063,0.9461821071787887,0.9419229852368018,0.952384553919966,0.8989216203743928,0.5876061167345603
0.9416374509547896,0.898980225657651,0.9121515595585195,0.9084535358853039,0.9738440078271001,0.5879363441651628
0.9553282309290964,0.9731423465442088,0.9033257373382461,0.978388946618584,0.9266421263059624,0.5874172905225312
0.946502408708823,0.9259404650230711,0.8735543116599637,0.9344579285839218,0.8708341569152797,0.5878045599033177
0.9376765864885496,0.9958758757563513,0.826352430138826,0.9046865029056395,0.8269031388806175,0.5881918317773324
0.9513673664628564,0.9870500535360779,0.8962878408721062,0.8574846213845018,0.7971317132023351,0.5876406145168585
0.942541544242583,0.9398481720149402,0.8665164151938238,0.8135536033498396,0.8720541006550424,0.5879937417227874
0.9337157220223096,0.8926462904938025,0.8367449895155414,0.7696225853151775,0.9469764881077497,0.588328110518993
0.9474065019966164,0.9668084113803603,0.827919167295268,0.8395579960484576,0.899774606586612,0.5877879874694735
0.938580679776343,0.9196065298592226,0.7981477416169857,0.7956269780137954,0.9746969940393193,0.58810878372832
0.9522714597506498,0.9937686507457804,0.7893219193967123,0.8655623887470756,0.9274951125181816,0.5875804695807338
0.9434456375303764,0.9465667692246427,0.7595504937184299,0.8216313707124134,0.8716871431274988,0.5880054526851574
0.934619815310103,0.899364887703505,0.7297790680401475,0.7777003526777513,0.9466095305802061,0.5883351142298383
0.9483105952844098,0.9735270085900627,0.7209532458198741,0.8476357634110314,0.8994076490590684,0.5877887928876886
0.9394847730641364,0.926325127068925,0.6911818201415917,0.8037047453763693,0.9743300365117757,0.5881039719839878
0.9531755530384431,0.9174993048486516,0.7611172308748719,0.930748994936851,0.927128154990638,0.5875571774194192
0.9443497308181698,0.9874347155819319,0.8881614804353537,0.8835471134157133,0.8973567293123557,0.5878683215255613
0.9355239085978964,0.9402328340607942,0.8583900547570713,0.8396160953810512,0.972279116765063,0.5881960192858866
0.9492146885722031,0.9314070118405208,0.9283254654903514,0.966660344941533,0.9250772352439253,0.5876511966127094
0.9403888663519298,0.8842051303193831,0.898554039812069,0.9227293269068708,0.9999996226966326,0.5878933676762574
0.9540796463262365,0.9583672512059409,0.8897282175917957,0.992664737640151,0.9527977411754949,0.5874589127815585
0.9452538241059631,0.9111653696848032,0.8599567919135133,0.9487337196054888,0.8969897717848121,0.5878467943247933
0.9364280018856898,0.9811007804180834,0.9870010414739949,0.9015318380843511,0.8672183461065297,0.5881166629937952
0.9501187818599965,0.97227495819781,0.9397991599528572,0.8717604124060687,0.8232873280718676,0.5876529787649142
0.9412929596397231,0.9250730766766723,0.9100277342745748,0.8278293943714066,0.8982097155245748,0.588004417192291
0.9549837396140299,0.9992351975632301,0.9012019120543014,0.8977648051046867,0.8510078340034372,0.5874644890297148
0.9461579173937565,0.9520333160420924,0.871430486376019,0.8538337870700246,0.9259302214561445,0.5878045389591688
0.9373320951734831,0.9048314345209547,0.8416590606977367,0.8099027690353624,0.8701222520654617,0.588228225490288
0.9510228751477899,0.9789935554075124,0.8328332384774633,0.8798381797686425,0.9971665016259434,0.5875419340949519
0.9421970529275165,0.9317916738863747,0.8030618127991809,0.8359071617339804,0.9413585322352607,0.5879810123732433
0.9333712307072431,0.884589792365237,0.7732903871208985,0.7919761436993182,0.8855505628445779,0.588429592895546
0.9470620106815499,0.9587519132517948,0.7644645649006251,0.8619115544325984,0.8383486813234402,0.5878612434187728
0.9382361884612765,0.9115500317306571,0.7346931392223427,0.8179805363979362,0.9132710687761475,0.5882055625683535
0.9519269684355833,0.9857121526172148,0.7258673170020693,0.8879159471312164,0.8660691872550098,0.5876492581751589
0.9431011462153099,0.9385102710960771,0.6960958913237869,0.8439849290965542,0.9409915747077171,0.5879809740189517
0.9342753239950365,0.8913083895749394,0.6663244656455045,0.800053911061892,0.8851836053170343,0.5884460390933587
0.9479661039693433,0.9654705104614971,0.6574986434252311,0.8699893217951722,0.8379817237958966,0.5878636500401822
0.9391402817490699,0.9182686289403594,0.6277272177469487,0.82605830376051,0.9129041112486039,0.588215021094776
0.9528310617233767,0.9924307498269171,0.6189013955266753,0.8959937144937902,0.8657022297274662,0.5876442898625441
0.9440052395031033,0.9452288683057795,0.5891299698483929,0.852062696459128,0.9406246171801735,0.587985572921587
0.9351794172828299,0.8980269867846418,0.5593585441701105,0.8081316784244659,0.8848166477894908,0.5884705671082877
0.9488701972571367,0.9721891076711995,0.5505327219498372,0.878067089157746,0.8376147662683531,0.5878685074082443
0.9400443750368633,0.9249872261500618,0.5207612962715548,0.8341360711230839,0.9125371537210604,0.5882348535895188
0.9537351550111701,0.9991493470366195,0.5119354740512814,0.904071481856364,0.8653352721999227,0.5876434704439324
0.9449093327908967,0.9519474655154818,0.4821640483729989,0.8601404638217018,0.94025765965263,0.5880039433535006
0.9360835105706233,0.9047455839943441,0.4523926226947165,0.8162094457870397,0.8844496902619472,0.5885305755702889
0.9497742905449301,0.9789077048809018,0.4435668004744431,0.8861448565203198,0.8372478087408095,0.5878867570324472
0.9409484683246567,0.9317058233597642,0.41379537479616063,0.8422138384856577,0.9121701961935168,0.5882961264368173
0.9546392482989635,0.9228800011394908,0.4837307855294408,0.9692580880461394,0.8649683146723791,0.5876390841469216
0.9458134260786901,0.992815411872771,0.6107750350899226,0.9220562065250018,0.8351968889940967,0.5879470371712322
0.9369876038584167,0.9456135303516333,0.5810036094116402,0.8781251884903396,0.910119276446804,0.5882994146251904
0.9506783838327235,0.9367877081313599,0.6509390201449203,0.8309233069692019,0.8803478507685216,0.58774783035188
0.9418525616124501,0.8895858266102222,0.6211675944666379,0.7869922889345398,0.9552702382212289,0.5880859711893975
0.9555433415867569,0.96374794749678,0.6123417722463645,0.8569276996678199,0.9080683567000912,0.5875279489918422
0.9467175193664835,0.9165460659756424,0.5825703465680822,0.8129966816331577,0.9829907441527985,0.5878527591218144
0.9378916971462101,0.9864814767089225,0.7096145961285638,0.7657948001120201,0.9532193184745161,0.5881800901711649
0.9515824771205169,0.9776556544886491,0.779550006861844,0.8928390496725018,0.9060174369533784,0.5876214323899154
0.9427566549002435,0.9304537729675114,0.7497785811835616,0.8489080316378397,0.9809398244060857,0.5879368986955471
0.9339308326799701,0.8832518914463737,0.7200071555052792,0.8049770136031775,0.925131855015403,0.5883905574360322
0.9476216126542769,0.9574140123329316,0.7111813332850058,0.8749124243364577,0.8779299734942653,0.5878316843082987
0.9387957904340035,0.9102121308117939,0.6814099076067234,0.8309814063017955,0.9528523609469726,0.5881596770440911
0.9524865704083103,0.9843742516983516,0.67258408538645,0.9009168170350756,0.9056504794258349,0.5876164224483799
0.9436607481880369,0.9371723701772139,0.6428126597081676,0.8569857990004135,0.9805728668785422,0.5879314087370502
0.9348349259677635,0.8899704886560762,0.6130412340298852,0.8130547809657513,0.9247648974878594,0.5884079052474954
0.9485257059420703,0.9641326095426339,0.6042154118096118,0.8829901916990315,0.8775630159667217,0.5878313669099415
0.9396998837217969,0.9169307280214962,0.5744439861313294,0.8390591736643693,0.952485403419429,0.5881727467133275
0.9533906636961037,0.9910928489080539,0.565618163911056,0.9089945843976495,0.9052835218982913,0.5876111077286502
0.9445648414758303,0.9438909673869162,0.5358467382327736,0.8650635663629873,0.9802059093509986,0.5879391286055499
0.9357390192555569,0.8966890858657786,0.5060753125544912,0.8211325483283252,0.9243979399603158,0.5884441424179728
0.9494297992298637,0.9708512067523363,0.49724949033421784,0.8910679590616053,0.8771960584391781,0.5878382758873039
0.9406039770095903,0.9236493252311986,0.4674780646559354,0.8471369410269431,0.9521184458918854,0.5882099406238245
0.9542947569838971,0.9978114461177563,0.458652242435662,0.9170723517602233,0.9049165643707477,0.5876156310476233
0.9454689347636237,0.9506095645966186,0.42888081675737955,0.8731413337255611,0.979838951823455,0.5879770257490451
0.9366431125433503,0.9034076830754809,0.3991093910790971,0.829210315690899,0.9240309824327723,0.5885501607967425
0.9503338925176571,0.9775698039620386,0.3902835688588237,0.8991457264241791,0.8768291009116346,0.58787298037996
0.9415080702973837,0.9303679224409009,0.36051214318054126,0.855214708389517,0.9517514883643419,0.5883267807345358
0.9551988502716905,0.9215421002206275,0.43044755391382145,0.9822589579499987,0.9045496068432042,0.5876245364646384
0.9463730280514171,0.9914775109539078,0.5574918034743032,0.935057076428861,0.8747781811649218,0.5879148212908365
0.9375472058311437,0.9442756294327701,0.5277203777960208,0.8911260583941989,0.9497005686176291,0.588260224184445
0.9512379858054505,0.9354498072124967,0.597655788529301,0.8439241768730612,0.9199291429393467,0.5877129997406079
0.9424121635851771,0.888247925691359,0.5678843628510186,0.799993158838399,0.994851530392054,0.5880357756471811
0.9335863413649037,0.9581833364246393,0.6949286124115004,0.7527912773172614,0.9650801047137716,0.5883555671656423
0.9472771213392105,0.9493575142043659,0.7648640231447805,0.8798355268777431,0.9178782231926339,0.5877976511024352
0.9384512991189371,0.9021556326832282,0.7350925974664981,0.835904508843081,0.9928006106453412,0.5881008646225324
0.9521420790932439,0.976317753569786,0.7262667752462247,0.9058399195763611,0.9455987291242035,0.5875849254198846
0.9433162568729705,0.9291158720486483,0.6964953495679423,0.861908901541699,0.8897907597335207,0.5880164122738144
0.9344904346526971,0.9990512827819285,0.823539599128424,0.8147070200205613,0.8600193340552383,0.5883319095003295
0.9481812146270039,0.9902254605616551,0.8934750098617041,0.941751269581043,0.8128174525341006,0.5877373444996723
0.9393553924067305,0.9430235790405174,0.8637035841834217,0.8978202515463809,0.8877398399868079,0.5880849830181237
0.9530461723810373,0.934197756820244,0.9336389949167019,0.8506183700252432,0.8579684143085256,0.5875437445386423
0.9442203501607639,0.8869958752991063,0.9038675692384195,0.8066873519905811,0.9328908017612328,0.5878896992182435
0.9353945279404905,0.9569312860323864,0.8566656877172818,0.7769159263122987,0.8889597837265707,0.5882811930674502
0.9490853079147973,0.948105463812113,0.9266010984505619,0.9039601758727804,0.841757902205433,0.5876910100642121
0.9402594856945239,0.9009035822909753,0.8968296727722795,0.8600291578381183,0.9166802896581403,0.5880383875508215
0.9539502656688307,0.9750657031775332,0.8880038505520061,0.9299645685713984,0.8694784081370026,0.5875008338361839
0.9451244434485573,0.9278638216563955,0.8582324248737238,0.8860335505367363,0.9444007955897099,0.5878363943902818
0.9362986212282839,0.9977992323896756,0.9852766744342054,0.8388316690155986,0.9146293699114275,0.5881189891296283
0.9499894012025907,0.9889734101694022,0.9380747929130677,0.8090602433373162,0.8706983518767654,0.5876576651527238
0.9411635789823173,0.9417715286482645,0.9083033672347853,0.765129225302654,0.9456207393294727,0.5880008013460672
0.9548543589566241,0.9329457064279911,0.9782387779680655,0.8921734748631358,0.898418857808335,0.5874323565374274
0.9460285367363507,0.8857438249068534,0.9484673522897831,0.8482424568284737,0.9733412452610423,0.5877674016720802
0.9372027145160773,0.9556792356401336,0.9012654707686454,0.8184710311501913,0.9294102272263801,0.5881480243900782
0.9508934944903841,0.9468534134198602,0.9712008815019255,0.945515280710673,0.8822083457052424,0.5875803565989332
0.9420676722701107,0.8996515318987225,0.9414294558236431,0.9015842626760109,0.9571307331579497,0.5879218017537501
0.9332418500498373,0.9695869426320027,0.8942275743025054,0.8718128369977285,0.9131997151232876,0.5882953064114371
0.9469326300241441,0.9607611204117293,0.9641629850357856,0.9988570865582103,0.8659978336021499,0.5877267112907008
0.9381068078038707,0.9135592388905917,0.9343915593575032,0.9549260685235481,0.9409202210548572,0.5880714667342414
0.9517975877781775,0.9877213597771495,0.9255657371372298,0.9077241870024104,0.9111487953765748,0.5875590806697923
0.9429717655579041,0.9405194782560118,0.8957943114589474,0.8637931689677483,0.9860711828292821,0.5878751621797073
0.9341459433376307,0.8933175967348741,0.866022885780665,0.8198621509330861,0.9302632134385993,0.5882959567937208
0.9478367233119375,0.9674797176214318,0.8571970635603916,0.8897975616663663,0.8830613319174616,0.5877552706530501
0.9390109010916641,0.9202778361002941,0.8274256378821092,0.8458665436317041,0.9579837193701689,0.5880846293119755
0.9527016810659709,0.9944399569868518,0.8185998156618358,0.9158019543649842,0.9107818378490312,0.587554017979422
0.9438758588456975,0.9472380754657141,0.7888283899835534,0.8718709363303221,0.9857042253017385,0.5878686551966635
0.9350500366254241,0.9000361939445765,0.759056964305271,0.8279399182956599,0.9298962559110557,0.5883056773542652
0.9487408165997309,0.9741983148311342,0.7502311420849976,0.8978753290289401,0.882694374389918,0.5877584408342929
0.9399149943794575,0.9269964333099965,0.7204597164067152,0.8539443109942779,0.9576167618426253,0.5880809930209727
0.9536057743537643,0.9181706110897231,0.7903951271399954,0.9809885605547597,0.9104148803214877,0.5875318277836299
0.9447799521334909,0.9881060218230033,0.9174393767004771,0.933786679033622,0.8806434546432053,0.5878345164659076
0.9359541299132175,0.9409041403018656,0.8876679510221948,0.8898556609989599,0.9555658420959126,0.5881709527065134
0.9496449098875243,0.9320783180815922,0.9576033617554749,0.8426537794778222,0.9257944164176302,0.5876454716369238
0.9408190876672509,0.8848764365604546,0.9278319360771925,0.79872276144316,0.8699864470269474,0.5880439905509821
0.9545098676415577,0.9590385574470124,0.9190061138569191,0.8686581721764401,0.9970306965874292,0.5873935599361605
0.9456840454212843,0.9118366759258747,0.8892346881786367,0.824727154141778,0.9412227271967464,0.5878240882905396
0.9368582232010109,0.9817720866591548,0.842032806657499,0.7949557284634956,0.8972917091620842,0.5882111922756079
0.9505490031753177,0.9729462644388814,0.9119682173907793,0.9219999780239774,0.8500898276409465,0.5876304791484245
0.9417231809550443,0.9257443829177437,0.8821967917124969,0.8780689599893152,0.9250122150936538,0.5879729489705181
0.955413960929351,0.9999065038043016,0.8733709694922235,0.9480043707225954,0.8778103335725161,0.5874390781541561
0.9465881387090777,0.9527046222831639,0.8435995438139411,0.9040733526879332,0.9527327210252234,0.5877703752798411
0.9377623164888043,0.9055027407620262,0.8138281181356587,0.8601423346532711,0.8969247516345407,0.5881885603535094
0.951453096463111,0.9796648616485839,0.8050022959153853,0.9300777453865512,0.849722870113403,0.5876392543353469
0.9426272742428377,0.9324629801274462,0.7752308702371029,0.886146727351889,0.9246452575661103,0.5879747620651773
0.9338014520225643,0.8852610986063085,0.7454594445588205,0.8422157093172269,0.9995676450188176,0.5882213094394062
0.947492231996871,0.9594232194928662,0.7366336223385471,0.912151120050507,0.9523657634976799,0.5877603937603223
0.9386664097765977,0.9122213379717286,0.7068621966602647,0.8682201020158449,0.8965577941069971,0.5881994496004707
0.9523571897509044,0.9863834588582863,0.6980363744399913,0.938155512749125,0.8493559125858594,0.5876372784812671
0.943531367530631,0.9391815773371486,0.6682649487617089,0.8942244947144629,0.9242783000385667,0.5879770365044916
0.9347055453103577,0.8919796958160109,0.6384935230834266,0.8502934766798007,0.999200687491274,0.5882476133247063
0.9483963252846644,0.9661418167025686,0.6296677008631532,0.9202288874130808,0.9519988059701363,0.5877548463816551
0.939570503064391,0.9189399351814309,0.5998962751848708,0.8762978693784187,0.8961908365794535,0.5882096897219493
0.9532612830386978,0.9931020560679886,0.5910704529645974,0.9462332801116988,0.8489889550583158,0.5876327203714038
0.9444354608184244,0.9459001745468509,0.561299027286315,0.9023022620770367,0.9239113425110231,0.5879827979760001
0.935609638598151,0.8986982930257132,0.5315276016080326,0.8583712440423745,0.9988337299637304,0.5882905897536301
0.9493004185724578,0.972860413912271,0.5227017793877592,0.9283066547756547,0.9516318484425927,0.5877572154272478
0.9404745963521844,0.9256585323911333,0.49293035370947674,0.8843756367409925,0.89582387905191,0.5882341017556487
0.9541653763264912,0.999820653277691,0.48410453148920335,0.9543110474742726,0.8486219975307723,0.5876337337166616
0.9453395541062178,0.9526187717565533,0.4543331058109209,0.9103800294396105,0.9235443849834796,0.5880047072799497
0.9365137318859444,0.9054168902354156,0.42456168013263845,0.8664490114049483,0.9984667724361869,0.5883806747573813
0.9502045118602512,0.9795790111219733,0.41573585791236506,0.9363844221382285,0.9512648909150492,0.587779339663957
0.9413786896399778,0.9323771296008356,0.3859644322340826,0.8924534041035663,0.8954569215243664,0.5883088054682548
0.9550694696142846,0.9235513073805622,0.4558998429673628,0.8452515225824286,0.865685495846084,0.5876785166791063
0.9462436473940112,0.9934867181138425,0.5829440925278445,0.798049641061291,0.8359140701678016,0.5879886487859243
0.9374178251737378,0.9462848365927048,0.5531726668495621,0.7541186230266288,0.9108364576205089,0.5883476095926706
0.9511086051480446,0.9374590143724314,0.6231080775828424,0.8811628725871106,0.8636345760993712,0.5877372798139046
0.9422827829277712,0.8902571328512937,0.59333665190456,0.8372318545524484,0.9385569635520785,0.5880874000453391
0.9334569607074978,0.960192543584574,0.7203809014650417,0.7900299730313107,0.9087855378737961,0.5884045090190405
0.9471477406818046,0.9513667213643006,0.7903163121983219,0.9170742225917925,0.8615836563526584,0.5878198643187937
0.9383219184615312,0.9041648398431629,0.7605448865200395,0.8731432045571303,0.9365060438053657,0.5881524675812221
0.952012698435838,0.9783269607297207,0.7517190642997661,0.9430786152904105,0.889304162284228,0.5876123427526876
0.9431868762155646,0.931125079208583,0.7219476386214837,0.8991475972557483,0.9642265497369353,0.5879327440837113
0.9343610539952912,0.8839231976874453,0.6921762129432013,0.8552165792210862,0.9084185803462526,0.5883876152912131
0.948051833969598,0.958085318574003,0.6833503907229279,0.9251519899543663,0.8612166988251149,0.5878211258303613
0.9392260117493246,0.9108834370528653,0.6535789650446455,0.8812209719197042,0.9361390862778222,0.5881595826050106
0.9529167917236314,0.985045557939423,0.6447531428243721,0.9511563826529843,0.8889372047566845,0.5876067360640173
0.944090969503358,0.9378436764182854,0.6149817171460897,0.9072253646183221,0.9638595922093918,0.58793162551978
0.9352651472830846,0.8906417948971477,0.5852102914678073,0.86329434658366,0.908051622818709,0.588406774392203
0.9489559272573914,0.9648039157837054,0.576384469247534,0.9332297573169401,0.8608497412975713,0.5878218070251758
0.940130105037118,0.9176020342625677,0.5466130435692516,0.889298739282278,0.9357721287502786,0.588175278186231
0.9538208850114248,0.9917641551491254,0.5377872213489782,0.9592341500155581,0.8885702472291409,0.5876019904874917
0.9449950627911514,0.9445622736279877,0.5080157956706958,0.915303131980896,0.9634926346818482,0.5879442121133095
0.936169240570878,0.89736039210685,0.4782443699924133,0.8713721139462338,0.9076846652911654,0.5884504958330922
0.9498600205451848,0.9715225129934077,0.4694185477721399,0.941307524679514,0.8604827837700277,0.5878318806961602
0.9410341983249114,0.9243206314722701,0.4396471220938575,0.8973765066448518,0.935405171222735,0.5882189396169863
0.9547249782992182,0.9984827523588278,0.4308212998735841,0.9673119173781319,0.8882032897015973,0.5876086789308739
0.9458991560789448,0.9512808708376901,0.40104987419530164,0.9233808993434698,0.9631256771543046,0.5879897280872638
0.9370733338586714,0.9040789893165524,0.3712784485170192,0.8794498813088076,0.9073177077636219,0.5885812253080381
0.9507641138329782,0.9782411102031101,0.3624526262967458,0.9493852920420878,0.8601158262424842,0.5878742375952605
0.9419382916127048,0.9310392286819724,0.33268120061846335,0.9054542740074256,0.9350382136951915,0.5883588177093423
0.9331124693924314,0.8838373471608347,0.3029097749401809,0.8615232559727635,0.8792302443045087,0.5892323209355729
0.9468032493667382,0.9579994680473924,0.2940839527199075,0.9314586667060436,0.832028362783371,0.5882514182483828
0.9379774271464648,0.9107975865262548,0.26431252704162506,0.8875276486713815,0.9069507502360783,0.5890438293159899
0.9516682071207716,0.9849597074128125,0.25548670482135166,0.9574630594046616,0.8597488687149406,0.5880367513507299
0.9428423849004982,0.9377578258916748,0.22571527914306924,0.9135320413699994,0.9346712561676479,0.5888633033031938
0.9340165626802248,0.8905559443705371,0.19594385346478682,0.8696010233353373,0.8788632867769651,0.5910216563809897
0.9477073426545316,0.9647180652570948,0.1871180312445134,0.9395364340686174,0.8316614052558274,0.5888026256916935
0.9388815204342582,0.9175161837359571,0.15734660556623098,0.8956054160339553,0.9065837927085347,0.5910487959081331
0.952572300408565,0.9916783046225148,0.14852078334595756,0.9655408267672354,0.859381911187397,0.588691571724801
0.9437464781882916,0.9444764231013771,0.11874935766767514,0.9216098087325733,0.9343042986401043,0.5911130072301628
0.9349206559680182,0.8972745415802394,0.08897793198939272,0.8776787906979111,0.8784963292494216,0.43401523383605084
0.948611435942325,0.9714366624667972,0.0801521097691193,0.9476142014311912,0.8312944477282839,0.5913574704179215
0.9397856137220516,0.9242347809456595,0.05038068409083687,0.9036831833965291,0.9062168351809912,0.45267802354411474
0.9534763936963584,0.9983969018322172,0.04155486187056345,0.9736185941298092,0.8590149536598535,0.5922808176046068
0.944650571476085,0.9511950203110795,0.011783436192281026,0.9296875760951471,0.9339373411125608,0.4578651899955665
0.9358247492558116,0.9039931387899418,0.08670582364498836,0.8738796067044643,0.9150058249024714,0.4344872653139943
0.9495155292301184,0.9781552596764995,0.07788000142471493,0.9438150174377444,0.8678039433813337,0.5911288923750129
0.940689707009845,0.9309533781553618,0.04810857574643251,0.8998839994030823,0.942726330834041,0.4511816461046842
0.9543804869841518,0.9221275559350884,0.1180439864797127,0.8526821178819446,0.9129549051557586,0.591528706549638
0.9455546647638784,0.9920629666683687,0.24508823604019442,0.8054802363608069,0.8831834794774762,0.5887608383805705
0.936728842543605,0.944861085147231,0.215316810361912,0.7615492183261448,0.9581058669301835,0.5898737494389562
0.9504196225179118,0.9360352629269576,0.2852522210951922,0.8885934678866265,0.9109039854090458,0.5881458048946632
0.9415938002976384,0.8888333814058199,0.25548079541690977,0.8446624498519644,0.9858263728617531,0.5891228768416472
0.9552845802719452,0.9629955022923777,0.24665497319663635,0.9145978605852445,0.9386244913406154,0.5879377486329022
0.9464587580516718,0.91579362077124,0.21688354751835393,0.8706668425505824,0.8828165219499327,0.589113721867818
0.9376329358313984,0.9857290315045202,0.34392779707883564,0.8234649610294447,0.8530450962716503,0.5886009796103278
0.9513237158057052,0.9769032092842468,0.41386320781211583,0.9505092105899264,0.8058432147505126,0.5878408917791847
0.9424978935854318,0.9297013277631091,0.3840917821338334,0.9065781925552643,0.8807656022032199,0.5882717153798638
0.9336720713651584,0.9996367384963893,0.5111360316943151,0.8593763110341266,0.8509941765249375,0.5885186233104537
0.9473628513394652,0.990810916276116,0.5810714424275953,0.9864205605946084,0.8037922950037998,0.5878968565555527
0.9385370291191918,0.9436090347549783,0.551300016749313,0.9424895425599462,0.8787146824565071,0.588259533181032
0.9522278090934986,0.9347832125347049,0.6212354274825931,0.8952876610388085,0.8489432567782247,0.587698222456607
0.9434019868732252,0.8875813310135672,0.5914640018043107,0.8513566430041464,0.923865644230932,0.5880544109396258
0.9345761646529518,0.9575167417468473,0.7185082513647925,0.8041547614830087,0.8940942185526496,0.5883695998458166
0.9482669446272586,0.9486909195265739,0.7884436620980726,0.9311990110434905,0.8468923370315119,0.5877811132909113
0.9394411224069852,0.9014890380054362,0.7586722364197902,0.8872679930088283,0.9218147244842192,0.5881198056895822
0.953131902381292,0.975651158891994,0.7498464141995168,0.9572034037421084,0.8746128429630815,0.5875745656272262
