prior,sens_tac,spec_tac,sens_vis,spec_vis,density
0.04341069299681513,0.6252261503440126,0.32903694159802105,0.3158974590268813,0.14160759095796743,0.7928153137797773
0.08870278618541494,0.7143341100687342,0.3010245416517297,0.36086289989930126,0.17149009774418297,0.4655345019911379
0.13399487937401475,0.8034420697934557,0.27301214170543836,0.4058283407717212,0.2013726045303985,0.46061302097317
0.17928697256261455,0.8925500295181772,0.24499974175914702,0.45079378164414113,0.23125511131661405,0.4605928739435702
0.22457906575121436,0.9816579892428987,0.21698734181285567,0.49575922251656107,0.2611376181028296,0.4605596324109408
0.26987115893981417,0.9536455892966074,0.2619527826852756,0.5256417293027766,0.2989480183926135,0.4604594675606446
0.31516325212841395,0.925633189350316,0.30691822355769555,0.5555242360889922,0.33675841868239736,0.460488210001523
0.36045534531701373,0.8976207894040247,0.3518836644301155,0.5854067428752077,0.37456881897218125,0.47655224051755074
0.4057474385056135,0.9867287491287462,0.32387126448382414,0.6303721837476276,0.40445132575839676,0.6816242037045778
0.4510395316942133,0.9587163491824549,0.3688367053562441,0.6602546905338431,0.44226172604818065,0.6802192140205827
0.49633162488281307,0.9307039492361635,0.413802146228664,0.6901371973200586,0.48007212633796453,0.6737966173565786
0.5416237180714129,0.9026915492898722,0.45876758710108395,0.7200197041062741,0.5178825266277485,0.6499977188955411
0.5869158112600127,0.9917995090145937,0.4307551871547926,0.7649851449786941,0.547765033413964,0.6184118973895587
0.6322079044486125,0.9637871090683023,0.47572062802721254,0.7948676517649096,0.5855754337037479,0.6062652430124618
0.6774999976372124,0.935774709122011,0.5206860688996324,0.8247501585511251,0.6233858339935318,0.6020577825332297
0.7227920908258122,0.9077623091757197,0.5656515097720524,0.8546326653373406,0.6611962342833156,0.5990493091786937
0.768084184014412,0.9968702689004412,0.537639109825761,0.8995981062097606,0.6910787410695312,0.5963678492456461
0.8133762772030119,0.9688578689541498,0.582604550698181,0.9294806129959761,0.728889141359315,0.5939670254526354
0.8586683703916117,0.9408454690078585,0.6275699915706009,0.9593631197821916,0.7666995416490989,0.591755652393502
0.9039604635802115,0.9128330690615671,0.6725354324430208,0.9892456265684071,0.8045099419388828,0.5896980019887419
0.9492525567688114,0.8848206691152758,0.7175008733154408,0.9799164400558902,0.7970727483376407,0.5878044031085481
0.92124015682252,0.9297861099876957,0.7473833801016563,0.9967623600264038,0.7877435618251238,0.5889208800074319
0.9665322500111199,0.9017737100414044,0.7923488209740762,0.9874331735138869,0.7803063682238818,0.587074324163585
0.9964147567973354,0.9395841103311883,0.8091947409445899,0.97810398700137,0.7728691746226397,0.5858856873592442
0.9870855702848185,0.9321469167299462,0.7685661868977167,0.903421445349266,0.8164188451775996,0.586257306671244
0.9777563837723016,0.9247097231287041,0.7279376328508436,0.8287389036971621,0.8599685157325594,0.5866367430582362
0.9946023037428152,0.9153805366161872,0.7205004392496015,0.7881103496502889,0.7852859740804554,0.5859680751068941
0.9852731172302983,0.9079433430149452,0.6798718852027283,0.713427807998185,0.8288356446354153,0.586362074563141
0.9759439307177814,0.9005061494137031,0.6392433311558552,0.638745266346081,0.8723853151903751,0.586766685292636
0.9927898506882951,0.8911769629011862,0.6318061375546131,0.5981167122992078,0.7977027735382711,0.5860675235463716
0.9834606641757782,0.8837397692999441,0.59117758350774,0.5234341706471038,0.841252444093231,0.5865049108874066
0.9741314776632612,0.8763025756987021,0.5505490294608668,0.4487516289949998,0.8848021146481908,0.5870073799612902
0.9909773976337749,0.8669733891861852,0.5431118358596247,0.40812307494812666,0.8101195729960868,0.5865115207818457
0.981648211121258,0.8595361955849431,0.5024832818127516,0.33344053329602263,0.8536692435510467,0.41154790229891836
0.9984941310917717,0.8502070090724262,0.4950460882115095,0.2928119792491495,0.7789867018989427,0.4197980380570594
0.9891649445792547,0.8427698154711841,0.45441753416463637,0.21812943759704545,0.8225363724539025,0.415555822857477
0.9798357580667378,0.8353326218699421,0.4137889801177632,0.14344689594494142,0.8660860430088624,0.5249489944265986
0.9966816780372515,0.8260034353574252,0.40635178651652115,0.10281834189806827,0.7914035013567584,0.5867037627127931
0.9873524915247346,0.8185662417561831,0.365723232469648,0.02813580024596425,0.8349531719117183,0.589486008742025
0.9780233050122177,0.811129048154941,0.32509467842277484,0.07168547080092415,0.8995082865559751,0.5909520806772095
0.9948692249827313,0.8017998616424241,0.3176574848215328,0.031056916754050992,0.8248257449038712,0.5872858662056465
0.9855400384702144,0.794362668041182,0.2770289307746596,0.07460658730901089,0.8893808595481281,0.5891796135123997
0.9762108519576975,0.78692547443994,0.23640037672778647,0.11815625786397078,0.953935974192385,0.45672232995844053
0.9930567719282112,0.7775962879274231,0.2289631831265444,0.07752770381709763,0.879253432540281,0.5878928809330711
0.9837275854156943,0.770159094326181,0.18833462907967125,0.0028451621649936143,0.9228031030952408,0.42223444831296447
0.9743983989031774,0.762721900724939,0.1477060750327981,0.04639483271995351,0.9873582177394977,0.5915830908501569
0.991244318873691,0.753392714212422,0.14026888143155603,0.005766278673080355,0.9126756760873938,0.4319620135755683
0.9819151323611741,0.74595552061118,0.09964032738468287,0.04931594922804025,0.9772307907316506,0.5898709730334555
0.9987610523316878,0.7366263340986631,0.0922031337834408,0.008687395181167096,0.9025482490795467,0.4260272734452409
0.9894318658191709,0.729189140497421,0.05157457973656765,0.05223706573612699,0.9671033637238036,0.5881721476655157
0.980102679306654,0.7217519468961789,0.010946025689694494,0.09578673629108689,0.987024434014833,0.590754270991829
0.9969485992771676,0.712422760383662,0.003508832088452425,0.05515818224421373,0.912341892362729,0.420812245509617
0.9876194127646507,0.70498556678242,0.04705850264341232,0.11971329688847067,0.9322629626537584,0.58876741457547
0.9782902262521338,0.6975483731811779,0.006429948596539163,0.045030755236366654,0.9758126332087182,0.5907812824756892
0.9951361462226475,0.688219186668661,0.04997961915149906,0.10958586988062359,0.9957337034997477,0.5870370320228268
0.9858069597101305,0.6807819930674189,0.009351065104625904,0.034903328228519576,0.9598281873317795,0.41934234903773704
0.9764777731976136,0.6733447994661769,0.0529007356595858,0.09945844287277651,0.979749257622809,0.5916861147167667
0.9933236931681273,0.66401561295366,0.04546354205834373,0.058829888825903356,0.905066715970705,0.4243022994733936
0.9839945066556104,0.6565784193524179,0.004834988011470573,0.10237955938086325,0.9696218306149619,0.5898351913370646
0.9746653201430935,0.6491412257511758,0.04838465856643047,0.1669346740251202,0.9895429009059913,0.5937784219336267
0.9915112401136071,0.6398120392386589,0.0409474649651884,0.12630611997824703,0.9148603592538873,0.5878635729178953
0.9821820536010902,0.6323748456374169,0.00031891091831524193,0.05162357832614302,0.9584100298088472,0.5901602014759438
0.9990279735716039,0.6230456591249,0.04386858147327514,0.11617869297039995,0.9783311000998766,0.5860080803609168
0.989698787059087,0.6156084655236579,0.0032400274264019827,0.04149615131829594,0.998252170390906,0.5883114560644311
0.9803696005465701,0.6081712719224158,0.04678969798136188,0.10605126596255288,0.9623466542229379,0.5908603066511086
0.9972155205170837,0.5988420854098989,0.03935250438011981,0.06542271191567972,0.8876641125708339,0.41804471463693205
0.9878863340045668,0.5914048918086569,0.0829021749350797,0.12997782655993667,0.9075851828618633,0.5888395608657071
0.9785571474920499,0.5839676982074148,0.04227362088820655,0.055295284907832656,0.9511348534168231,0.5914176876276053
0.9954030674625636,0.5746385116948979,0.034836427286964476,0.014666730860959501,0.8764523117647192,0.4184609868149292
0.9860738809500467,0.5672013180936558,0.07838609784192438,0.07922184550521644,0.8963733820557486,0.4156577272259849
0.9767446944375298,0.5597641244924138,0.037757543795051224,0.0045393038531124225,0.9399230526107085,0.431679935085616
0.9935906144080434,0.5504349379798968,0.030320350193809156,0.04808897440807232,0.9598441229017379,0.5874992057374083
0.9842614278955265,0.5429977443786548,0.07387002074876906,0.11264408905232925,0.9797651931927673,0.5904173022517477
0.9749322413830096,0.5355605507774127,0.0332414667018959,0.03796154740022524,0.9996862634837967,0.5930832043144267
0.9917781613535233,0.5262313642648958,0.02580427310065383,0.08151121795518514,0.9637807473158286,0.588406243409498
0.9824489748410064,0.5187941706636537,0.06935394365561373,0.14606633259944207,0.983701817606858,0.5919406326302693
0.99929489481152,0.5094649841511368,0.06191675005437166,0.10543777855256892,0.9090192759547541,0.5859547485739783
0.9899657082990031,0.5020277905498948,0.021288196007498504,0.030755236900464902,0.952568946509714,0.41722956596154676
0.9806365217864862,0.4945905969486527,0.06483786656245841,0.09531035154472184,0.9724900168007434,0.5926113584253104
0.9974824417569998,0.4852614104361358,0.057400672961216335,0.05468179749784868,0.8978074751486395,0.409566712818546
0.9881532552444829,0.47782421683489373,0.01677211891434318,0.09823146805280858,0.9623625897928964,0.5913642708287506
0.978824068731966,0.47038702323365167,0.060321789469303076,0.16278658269706553,0.9822836600839258,0.5958352498967203
0.9956699887024797,0.46105783672113476,0.052884595868061005,0.12215802865019237,0.9076011184318218,0.5876052954782081
0.9863408021899628,0.4536206431198927,0.012256041821187849,0.04747548699808836,0.9511507889867816,0.5911623728387205
0.9770116156774459,0.44618344951865063,0.055805712376147745,0.1120306016423453,0.971071859277811,0.5965671819327154
0.9938575356479595,0.4368542630061337,0.048368518774905674,0.07140204759547214,0.8963893176257071,0.4123198872231542
0.9845283491354426,0.42941706940489166,0.007739964728032518,0.11495171815043204,0.960944432269964,0.5908707652776758
0.9751991626229257,0.4219798758036496,0.051289635282992414,0.179506832794689,0.9808655025609934,0.5962155007225673
0.9920450825934394,0.4126506892911327,0.04385244168175034,0.13887827874781583,0.9061829609088894,0.5906195997332131
0.9827158960809225,0.4052134956898906,0.003223887634877187,0.06419573709571182,0.9497326314638492,0.5901977068896695
0.9995618160514361,0.3958843091773737,0.04677355818983708,0.12875085173996875,0.9696537017548786,0.586548905920895
0.9902326295389192,0.38844711557613165,0.006145004142963928,0.05406831008786474,0.989574772045908,0.5664320061579413
0.9809034430264023,0.3810099219748896,0.049694674697923824,0.11862342473212167,0.9536692558779399,0.5682490095409454
0.997749362996916,0.3716807354623727,0.04225748109668175,0.07799487068524852,0.878986714225836,0.5845401463511112
0.9884201764843991,0.3642435418611306,0.001628927049808597,0.0033123290331445038,0.9225363847807959,0.5805820288717473
0.9790909899718822,0.35680634825988855,0.04517859760476849,0.06786744367740144,0.9424574550718253,0.5541712186550507
0.9959369099423958,0.34747716174737164,0.03774140400352642,0.027238889630528285,0.8677749134197213,0.5864815652088614
0.9866077234298789,0.3400399681461296,0.08129107455848632,0.09179400427478522,0.8876959837107508,0.5888223984956907
0.977278536917362,0.3326027745448875,0.04066252051161316,0.017111462622681206,0.9312456542657106,0.5913165569990573
0.9941244568878757,0.3232735880323706,0.03322532691037109,0.0606611331776411,0.9958007689099675,0.4304193295154569
0.9847952703753587,0.31583639443112854,0.07677499746533098,0.12521624782189805,0.9598952527419994,0.4319720469555495
0.9754660838628418,0.3083992008298865,0.036146443418457824,0.05053370616979404,0.9798163230330288,0.42408277282244744
0.9923120038333555,0.29907001431736957,0.028709249817215756,0.009905152122920882,0.9051337813809248,0.5874636146459573
0.9829828173208386,0.2916328207161275,0.07225892037217566,0.07446026676717782,0.9250548516719542,0.5918251911094458
0.9998287372913522,0.2823036342036106,0.06482172677093359,0.03383171272030466,0.8503723100198503,0.5857624526772179
0.9904995507788353,0.27486644060236853,0.024193172724060436,0.07738138327526456,0.9149274246641071,0.5881141938976082
0.9811703642663184,0.26742924700112647,0.06774284327902033,0.1419364979195215,0.9348484949551366,0.4272438427636577
0.9980162842368321,0.25810006048860956,0.06030564967777826,0.10130794387264835,0.8601659533030326,0.5860377685814943
0.9886870977243152,0.2506628668873675,0.019677095630905105,0.02662540222054434,0.9037156238579924,0.5874166641003266
0.9793579112117983,0.24322567328612543,0.06322676618586501,0.09118051686480128,0.9236366941490218,0.4178198049668833
0.9962038311823119,0.23389648677360853,0.055789572584622936,0.05055196281792812,0.8489541524969179,0.5860873812032915
0.986874644669795,0.22645929317236646,0.01516101853774978,0.09410163337288802,0.9135092671411748,0.47019375085880194
0.9775454581572781,0.2190220995711244,0.05871068909270968,0.15865674801714497,0.9334303374322042,0.4375267385874121
0.9943913781277918,0.2096929130586075,0.051273495491467605,0.11802819397027181,0.8587477957801002,0.5867049136085439
0.9850621916152749,0.20225571945736542,0.01064494144459445,0.043345652318167796,0.90229746633506,0.5877300807945716
0.975733005102758,0.19481852585612336,0.054194611999554346,0.10790076696242473,0.9222185366260894,0.4287922284632078
0.9925789250732716,0.18548933934360645,0.046757418398312274,0.06727221291555158,0.8475359949739855,0.5864049723178995
0.9832497385607547,0.1780521457423644,0.006128864351439119,0.11082188347051147,0.9120911096182424,0.41955224690000037
0.9739205520482378,0.17061495214112232,0.049678534906399015,0.17537699811476842,0.9320121799092718,0.439417225504597
0.9907664720187515,0.16128576562860542,0.04224134130515694,0.13474844406789527,0.8573296382571678,0.5880267637301959
0.9814372855062345,0.15384857202736335,0.0016127872582837877,0.06006590241579125,0.9008793088121276,0.5882978258589445
0.9982832054767482,0.14451938551484644,0.045162457813243684,0.12462101706004819,0.920800379103157,0.4207955657681858
0.9889540189642313,0.13708219191360438,0.004533903766370528,0.049938475407944175,0.964350049658117,0.4242745654999364
0.9796248324517144,0.12964499831236231,0.048083574321330425,0.11449359005220111,0.9842711199491464,0.43973321148856753
0.996470752422228,0.12031581179984542,0.04064638072008835,0.07386503600532796,0.9095885782970424,0.5863884042582367
0.9871415659097111,0.11287861819860336,1.782667321519743e-05,0.11741470656028785,0.9741436929412993,0.4394962606338777
0.9778123793971942,0.10544142459736129,0.043567497228175094,0.1819698212045448,0.9940647632323287,0.44116162110539836
0.9946582993677079,0.0961122380848444,0.03613030362693302,0.14134126715767165,0.9193822215802248,0.4341576885607151
0.985329112855191,0.08867504448360233,0.07967997418189292,0.2058963818019286,0.9393032918712542,0.4403591163809029
0.9759999263426741,0.08123785088236027,0.03905142013501976,0.13121384014982457,0.9828529624262141,0.44116479285217824
0.9928458463131877,0.07190866436984338,0.03161422653377769,0.09058528610295141,0.9081704207741101,0.5881167245382635
0.9835166598006708,0.06447147076860131,0.07516389708873758,0.15514040074720836,0.9280914910651396,0.4393808028248213
0.9741874732881539,0.05703427716735924,0.034535343041864425,0.08045785909510435,0.9716411616200995,0.4410423457209952
0.9910333932586676,0.04770509065484234,0.027098149440622357,0.03982930504823119,0.8969586199679955,0.5865902187489522
0.9817042067461507,0.04026789705360027,0.07064781999558226,0.10438441969248813,0.9168796902590249,0.42072063859253306
0.9985501267166643,0.03093871054108337,0.06321062639434019,0.06375586564561497,0.842197148606921,0.5858477045791587
0.9892209402041474,0.023501516939841302,0.022582072347467036,0.10730553620057487,0.9067522632511779,0.41829651849486693
0.9798917536916305,0.016064323338599234,0.06613174290242693,0.17186065084483182,0.9266733335422073,0.4407696644819392
0.9967376736621442,0.006735136826082337,0.05869454930118486,0.13123209679795866,0.8519907918901033,0.5863272892578645
0.9874084871496273,0.05028480738104223,0.12324966394544179,0.1511531670889881,0.8160852757221352,0.5874175732431788
0.9780793006371103,0.04284761377980016,0.08262110989856863,0.07647062543688408,0.8596349462770951,0.5877347098428893
0.994925220607624,0.03351842726728327,0.07518391629732657,0.03584207139001093,0.7849524046249912,0.5860030814465002
0.9855960340951071,0.0260812336660412,0.034555362250453414,0.07939174194497083,0.8495075192692481,0.5869368366190348
0.9762668475825902,0.018644040064799132,0.07810503280541331,0.14394685658922776,0.8694285895602775,0.4368081347787801
0.9931127675531038,0.009314853552282235,0.07066783920417125,0.1033183025423546,0.7947460479081735,0.5861920234727681
0.9837835810405869,0.0018776599510401662,0.03003928515729809,0.02863576089025059,0.8382957184631334,0.5866578687631739
0.97445439452807,0.04542733050600006,0.09459439980155503,0.048556831181280014,0.8023902022951653,0.5871719594178331
0.9913003144985837,0.03609814399348317,0.08715720620031296,0.007928277134406858,0.7277076606430614,0.5861297629261822
0.9819711279860668,0.0286609503922411,0.046528652153439806,0.051477947689366754,0.7922627752873183,0.5867104117538009
0.9988170479565804,0.019331763879724205,0.039091458552197735,0.010849393642493599,0.7175802336352143,0.5857963322140486
0.9894878614440635,0.011894570278482137,0.08264112910715762,0.07540450828675054,0.7375013039262437,0.5862555711623508
0.9801586749315466,0.004457376677240068,0.04201257506028447,0.0007219666346465203,0.7810509744812035,0.5866418708843317
0.9970045949020603,0.048007047232199965,0.1065676897045414,0.020643036925675946,0.7451454583132354,0.5858840072381234
0.9876754083895434,0.04056985363095789,0.06593913565766825,0.06419270748063584,0.8097005729574923,0.5864854992769414
0.9783462218770265,0.03313266002971582,0.025310581610795094,0.10774237803559573,0.8742556876017492,0.5894839737890758
0.9951921418475401,0.023803473517198925,0.017873388009553026,0.06711382398872258,0.7995731459496452,0.5860200809391191
0.9858629553350232,0.016366279915956856,0.061423058564512925,0.13166893863297952,0.8194942162406746,0.5871880273323687
0.9765337688225063,0.008929086314714788,0.02079450451763977,0.0569863969808755,0.8630438867956345,0.5875433838746881
0.99337968879302,0.0014918927134727191,0.06434417507259967,0.12154151162513244,0.8829649570866639,0.5873890113424465
0.9840505022805031,0.045041563268432616,0.1288992897168566,0.14146258191616187,0.8470594409186958,0.5891739075555533
0.9747213157679862,0.037604369667190544,0.08827073566998345,0.06678004026405786,0.8906091114736556,0.5886618685309272
0.9915672357384998,0.028275183154673648,0.08083354206874138,0.026151486217184702,0.8159265698215517,0.5862024702010735
0.9822380492259829,0.02083798955343158,0.040204988021868227,0.0697011567721446,0.8804816844658085,0.5875705776768582
0.9990839691964966,0.011508803040914683,0.032767794420626155,0.029072602725271443,0.8057991428137046,0.5857928415548747
0.9897547826839797,0.004071609439672614,0.07631746497558606,0.09362771736952838,0.825720213104734,0.5865098878356494
0.9804255961714627,0.04762127999463251,0.140872579619843,0.1135487876605578,0.7898146969367659,0.5871024624869546
0.9972715161419764,0.03829209348211561,0.13343538601860094,0.07292023361368465,0.7151321552846619,0.5858738991927804
0.9879423296294595,0.030854899880873542,0.09280683197172779,0.11646990416864454,0.7796872699289188,0.586529587213445
0.9786131431169426,0.023417706279631474,0.05217827792485463,0.04178736251654053,0.8232369404838786,0.5869830796844276
0.9954590630874562,0.014088519767114577,0.04474108432361256,0.0011588084696673717,0.7485543988317747,0.5859436494176427
0.9861298765749393,0.006651326165872508,0.004112530276739405,0.04470847902462727,0.8131095134760316,0.5865073345508912
0.9768006900624224,0.050200996720832405,0.06866764492099633,0.06462954931565669,0.7772039973080634,0.5869932244537266
0.9936466100329361,0.04087181020831551,0.06123045131975426,0.024000995268783534,0.7025214556559595,0.5860229389868141
0.9843174235204192,0.03343461660707344,0.020601897272881108,0.06755066582374343,0.7670765703002164,0.5865576660384625
0.9749882370079023,0.025997423005831372,0.06415156782784101,0.13210578046800037,0.7869976405912458,0.5876200729837419
0.9918341569784159,0.016668236493314476,0.05671437422659894,0.09147722642112721,0.7123150989391418,0.5861336195790174
0.982504970465899,0.009231042892072407,0.016085820179725784,0.016794684769023197,0.7558647694941016,0.5865365123062757
0.9993508904364127,0.0017938492908303382,0.05963549073468568,0.08134979941328013,0.775785839785131,0.585780146036965
0.9900217039238958,0.045343519845790235,0.12419060537894261,0.10127086970430955,0.7398803236171629,0.5862731211236965
0.9806925174113789,0.037906326244548164,0.08356205133206945,0.02658832805220554,0.7834299941721228,0.5867109526780346
0.9975384373818925,0.028577139732031267,0.07612485773082739,0.07013799860716544,0.8479851088163797,0.5859335864449045
0.9882092508693756,0.0211399461307892,0.03549630368395423,0.11368766916212533,0.9125402234606366,0.4203737113361273
0.9788800643568587,0.01370275252954713,0.07904597423891413,0.17824278380638225,0.932461293751666,0.4415077573464508
0.9957259843273724,0.004373566017030234,0.07160878063767206,0.1376142297595091,0.857778752099562,0.5869367139514164
0.9863967978148555,0.04792323657199013,0.13616389528192901,0.15753530005053853,0.8218732359315939,0.5880580494477323
0.9770676113023385,0.04048604297074806,0.09553534123505586,0.08285275839843452,0.8654229064865537,0.5881004055084799
0.9939135312728522,0.03115685645823116,0.0880981476338138,0.042224204351561365,0.7907403648344498,0.5860633573831009
0.9845843447603353,0.023719662856989093,0.04746959358694064,0.08577387490652126,0.8552954794787067,0.5871718702569105
0.9752551582478184,0.016282469255747025,0.006841039540067484,0.011091333254417246,0.8988451500336665,0.587631894832044
0.992101078218332,0.006953282743230128,0.05039071009502738,0.07564644789867418,0.9187662203246959,0.5876389602370254
0.9827718917058151,0.050502953298190024,0.11494582473928432,0.0955675181897036,0.8828607041567278,0.5885162236535418
0.9996178116763288,0.041173766785673124,0.10750863113804225,0.05493896414283045,0.8081781625046238,0.585767505309373
0.9902886251638119,0.03373657318443105,0.0668800770911691,0.09848863469779034,0.8727332771488807,0.5870917741312418
0.980959438651295,0.026299379583188984,0.02625152304429594,0.02380609304568633,0.9162829477038406,0.5875876762883663
0.9978053586218086,0.016970193070672088,0.018814329443053873,0.06735576360064623,0.9808380623480975,0.4392141826239776
0.9884761721092917,0.00953299946943002,0.06236399999801377,0.13191087824490316,0.9449325461801293,0.4396325200146844
0.9791469855967748,0.0020958058681879504,0.021735445951140617,0.05722833659279915,0.9884822167350893,0.4425931656798239
0.9959929055672885,0.04564547642314785,0.08629056059539755,0.07714940688382857,0.9525767005671212,0.4296137978963102
0.9866637190547716,0.038208282821905776,0.0456620065485244,0.002466865231724555,0.9961263711220811,0.5888123401510464
0.9773345325422547,0.030771089220663708,0.005033452501651242,0.04601653578668445,0.960220854954113,0.4190160643844672
0.9941804525127683,0.02144190270814681,0.04858312305661114,0.11057165043094139,0.9801419252451424,0.4409632881489231
0.9848512660002514,0.014004709106904743,0.007954569009737983,0.03588910877883737,0.9442364090771743,0.5881279975655402
0.9755220794877345,0.0065675155056626735,0.05150423956469788,0.10044422342309431,0.9641574793682037,0.4416951920857888
0.9923679994582482,0.05011718606062257,0.11605935420895482,0.12036529371412373,0.9282519632002356,0.434151103838645
0.9830388129457313,0.0426799924593805,0.07543080016208166,0.045682752062019716,0.9718016337551956,0.43593868961413135
0.9998847329162449,0.0333508059468636,0.0679936065608396,0.00505419801514656,0.8971190921030916,0.5857545201962477
0.990555546403728,0.02591361234562153,0.02736505251396644,0.04860386857010646,0.9616742067473485,0.41712684720381094
0.9812263598912111,0.018476418744379462,0.07091472306892634,0.11315898321436339,0.9815952770383779,0.44226120744443376
0.9980722798617248,0.009147232231862566,0.06347752946768427,0.07253042916749024,0.9069127353862739,0.5860463341739868
0.9887430933492078,0.0017100386306204965,0.022848975420811116,0.11608009972245013,0.9714678500305308,0.44159455487113974
0.9794139068366909,0.04525970918558039,0.08740409006506805,0.13600117001347956,0.9355623338625627,0.4397980392644953
0.9962598268072046,0.0359305226730635,0.07996689646382599,0.0953726159666064,0.8608797922104587,0.5861610417460036
0.9869306402946877,0.028493329071821432,0.03933834241695283,0.020690074314502385,0.9044294627654186,0.5868590084634029
0.9776014537821708,0.021056135470579364,0.08288801297191273,0.08524518895875932,0.924350533056448,0.4242633316199543
0.9944473737526844,0.011726948958062467,0.07545081937067066,0.044616634911886166,0.849667991404344,0.586109112740271
0.9851181872401675,0.004289755356820398,0.03482226532379751,0.08816630546684606,0.9142231060486009,0.591478541263948
0.9757890007276506,0.047839425911780295,0.09937737996805444,0.10808737575787548,0.8783175898806328,0.5904699984847657
0.9926349206981643,0.0385102393992634,0.09194018636681238,0.06745882171100233,0.8036350482285288,0.5861813969362878
0.9833057341856474,0.031073045798021334,0.051311632319939224,0.11100849226596222,0.8681901628727857,0.5884542175532524
0.9739765476731305,0.023635852196779265,0.010683078273066068,0.03632595061385821,0.9117398334277456,0.5884257436124556
0.9908224676436441,0.014306665684262369,0.0032458846718239993,0.0798756211688181,0.9762949480720025,0.44059208730567606
0.9814932811311272,0.0068694720830203,0.04679555522678389,0.14443073581307503,0.9962160183630319,0.4431556361355416
0.9983392011016409,0.0504191426379802,0.11135066987104084,0.16435180610410446,0.9603105021950638,0.43908274253447765
0.989010014589124,0.042981949036738125,0.07072211582416768,0.08966926445200045,0.9802315724860932,0.44073791725488104
0.9796808280766071,0.03554475543549605,0.030093561777294525,0.014986722799896435,0.944326056318125,0.5882974094178629
0.9965267480471207,0.026215568922979157,0.022656368176052457,0.05853639335485633,0.9642471266091545,0.4294288251621511
0.9871975615346038,0.01877837532173709,0.06620603873101236,0.12309150799911327,0.9841681969001839,0.4419290452602497
0.9778683750220869,0.01134118172049502,0.0255774846841392,0.04840896634700925,0.9482626807322158,0.5913685633462804
0.9947142949926006,0.0020119952079781234,0.018140291082897133,0.007780412300136097,0.8735801390801118,0.5860633919212525
0.9853851084800836,0.04556166576293802,0.08269540572715407,0.027701482591165522,0.8376746229121437,0.5866226437189846
0.9760559219675667,0.03812447216169595,0.04206685168028092,0.07125115314612541,0.9022297375564006,0.5892140135301517
0.9929018419380804,0.02879528564917905,0.034629658079038846,0.03062259909925226,0.8275471959042966,0.5861494609321464
0.9835726554255635,0.021358092047936983,0.07817932863399873,0.0951777137435092,0.847468266195326,0.5872868892553147
0.9742434689130466,0.013920898446694915,0.03755077458712558,0.02049517209140518,0.891017936750286,0.5876812041474342
0.9910893888835602,0.004591711934178018,0.03011358098588351,0.06404484264636508,0.9555730513945428,0.42633686379012486
0.9817602023710433,0.048141382489137914,0.09466869563014045,0.0839659129373945,0.9196675352265747,0.5708780631366277
0.998606122341557,0.038812195976621014,0.08723150202889839,0.043337358890521344,0.8449849935744708,0.5858364236696506
0.9892769358290401,0.03137500237537894,0.04660294798202523,0.08688702944548124,0.9095401082187277,0.5887073832369915
0.9799477493165232,0.023937808774136874,0.005974393935152075,0.012204487793377225,0.9530897787736876,0.5884170527853235
0.9967936692870368,0.014608622261619977,0.04952406449011197,0.07675960243763416,0.973010849064717,0.43865595327851414
0.9874644827745199,0.007171428660377908,0.008895510443238816,0.0020770607855301465,0.9929319193557464,0.5883709636281981
0.978135296262003,0.0507210992153378,0.07345062508749575,0.021998131076559572,0.9570264031877783,0.5893968403568534
0.9949812162325167,0.0413919127028209,0.06601343148625369,0.06554780163151946,0.9769474734788077,0.4390047395428817
0.9856520297199998,0.03395471910157883,0.025384877439380532,0.10909747218647936,0.9968685437698371,0.4415510951517336
0.9763228432074829,0.02651752550033676,0.06893454799434043,0.1736525868307363,0.960963027601869,0.442605134545715
0.9931687631779965,0.017188338987819865,0.06149735439309836,0.13302403278386316,0.886280485949765,0.4149953159378441
0.9838395766654796,0.009751145386577797,0.0208688003462252,0.05834149113175914,0.9298301565047249,0.5887767422800957
0.9745103901529627,0.0023139517853357277,0.0644184709011851,0.12289660577601608,0.9497512267957543,0.44139733753423943
0.9913563101234764,0.045863622340295625,0.12897358554544203,0.1428176760670455,0.9138457106277862,0.43424792553305464
0.9820271236109595,0.03842642873905355,0.08834503149856887,0.0681351344149415,0.957395381182746,0.435850753137864
0.9988730435814731,0.029097242226536656,0.0809078378973268,0.027506580368068342,0.8827128395306421,0.5858301239908541
0.9895438570689562,0.021660048625294588,0.04027928385045365,0.07105625092302824,0.947267954174899,0.4220793470907689
0.9802146705564393,0.01422285502405252,0.08382895440541355,0.13561136556728517,0.9671890244659284,0.44223144614425797
0.997060590526953,0.004893668511535623,0.07639176080417148,0.09498281152041202,0.8925064828138244,0.5863111759845998
0.987731404014436,0.04844333906649552,0.14094687544842843,0.11490388181144144,0.8566009666458563,0.5874890741596607
0.9784022175019191,0.04100614546525345,0.10031832140155528,0.040221340159337426,0.9001506372008161,0.5878579773538154
0.9952481374724328,0.03167695895273655,0.09288112780031321,0.08377101071429732,0.964705751845073,0.43797954525034405
0.9859189509599159,0.02423976535149448,0.05225257375344006,0.009088469062193308,0.9846268221361024,0.588636308529468
0.976589764447399,0.01680257175025241,0.011624019706566902,0.052638139617153204,0.9487213059681343,0.5937679422644426
0.9934356844179126,0.007473385237735514,0.0041868261053248325,0.012009585570280049,0.8740387643160303,0.5861624776078929
0.9841064979053957,3.619163649344528e-05,0.047736496660284726,0.07656470021453698,0.8939598346070597,0.5878437657349189
0.9747773113928788,0.04358586219145334,0.11229161130454166,0.0964857705055664,0.8580543184390916,0.5885367452693284
0.9916232313633925,0.03425667567893645,0.10485441770329959,0.05585721645869325,0.7833717767869877,0.5861895417784195
0.9822940448508756,0.02681948207769438,0.06422586365642644,0.09940688701365315,0.8479268914312446,0.5874997643190646
0.9991399648213892,0.017490295565177484,0.05678867005518436,0.05877833296677999,0.7732443497791406,0.5857893618219104
0.9898107783088723,0.010053101963935416,0.016160116008311208,0.10232800352173989,0.8377994644233975,0.5866583401734139
0.9804815917963554,0.002615908362693347,0.059709786563271104,0.16688311816599682,0.8577205347144269,0.4180420211888847
0.9973275117668691,0.046165578917653244,0.12426490120752803,0.18680418845702626,0.8218150185464588,0.5854454857942674
0.9879983252543522,0.03872838531641117,0.08363634716065488,0.11212164680492225,0.8653646891014186,0.5876330273954542
0.9786691387418353,0.0312911917151691,0.04300779311378172,0.03743910515281823,0.9089143596563785,0.5879271932141213
0.9955150587123489,0.021962005202652204,0.03557059951253965,0.08098877570777813,0.9734694743006354,0.43934700768510465
0.986185872199832,0.014524811601410136,0.07912027006749955,0.14554389035203508,0.9933905445916648,0.44245119859706317
0.9768566856873151,0.0070876180001680665,0.0384917160206264,0.07086134869993106,0.9574850284236966,0.43775758499837936
0.9937026056578288,0.05063728855512796,0.10304683066488333,0.09078241899096048,0.9215795122557285,0.4175575592640963
0.9843734191453118,0.04320009495388589,0.06241827661801018,0.01609987733885647,0.9651291828106885,0.5884393971451629
0.9750442326327949,0.03576290135264382,0.021789722571137024,0.059649547893816365,0.9850502531017179,0.44172592240538866
0.9918901526033086,0.02643371484012692,0.014352528969894956,0.01902099384694321,0.9103677114496139,0.5864599837360408
0.9825609660907917,0.01899652123888485,0.057902199524854855,0.08357610849120015,0.9302887817406433,0.4174020210082873
0.9994068860613053,0.009667334726367955,0.050465005923612784,0.04294755444432699,0.8556062400885394,0.5857850207291736
0.9900776995487884,0.002230141125125886,0.009836451876739628,0.08649722499928689,0.9201613547327963,0.475819496492991
0.9807485130362715,0.04577981168008578,0.07439156652099657,0.10641829529031631,0.8842558385648281,0.5900027593973537
0.9975944330067852,0.03645062516756889,0.0669543729197545,0.06578974124344315,0.8095732969127242,0.5858899290990223
0.9882652464942683,0.02901343156632682,0.02632581887288135,0.10933941179840305,0.8741284115569811,0.5878331546318729
0.9789360599817514,0.021576237965084753,0.06987548942784125,0.17389452644265999,0.8940494818480105,0.43743325980077996
0.995781979952265,0.012247051452567857,0.062438295826599176,0.13326597239578683,0.8193669401959065,0.5861812415276058
0.9864527934397481,0.0048098578513257875,0.02180974177972602,0.058583430743682816,0.8629166107508663,0.5867851240205135
0.9771236069272312,0.048359528406285684,0.08636485642398295,0.07850450103471224,0.8270110945828982,0.5873790157835037
0.9939695268977449,0.03903034189376879,0.07892766282274088,0.03787594698783908,0.7523285529307943,0.586032634534325
0.984640340385228,0.03159314829252672,0.03829910877586773,0.08142561754279898,0.8168836675750512,0.5867698820353556
0.9753111538727111,0.02415595469128465,0.08184877933082763,0.14598073218705593,0.8368047378660806,0.5902377701367936
0.9921570738432247,0.014826768178767755,0.07441158572958556,0.10535217814018277,0.7621221962139766,0.5861872242521512
0.9828278873307078,0.007389574577525686,0.033783031682712406,0.030669636488078758,0.8056718667689364,0.5866333671732872
0.9996738073012215,0.05093924513248558,0.09833814632696934,0.05059070677910818,0.7697663506009683,0.5857620116834911
0.9903446207887046,0.04350205153124351,0.057709592280096186,0.09414037733406808,0.8343214652452252,0.586548535307462
0.9810154342761876,0.036064857930001436,0.01708103823322303,0.01945783568196406,0.8778711358001852,0.5870873651253462
0.9978613542467013,0.02673567141748454,0.009643844631980963,0.06300750623692396,0.9424262504444421,0.49361665194937715
0.9885321677341844,0.01929847781624247,0.05319351518694086,0.1275626208811809,0.9623473207354715,0.4409310824779306
0.9792029812216675,0.011861284215000403,0.012564961140067707,0.05288007922907688,0.9822683910265009,0.4413573630488038
0.9960489011921811,0.002532097702483506,0.005127767538825638,0.012251525182203724,0.9075858493743969,0.5860481620223664
0.9867197146796642,0.0460817682574434,0.06968288218308258,0.032172595473233145,0.8716803332064288,0.5867186510570951
0.9773905281671473,0.03864457465620133,0.029054328136209423,0.07572226602819304,0.9362354478506857,0.418699684901363
0.994236448137661,0.029315388143684434,0.021617134534967355,0.035093711981319886,0.8615529061985817,0.586136876071368
0.9849072616251441,0.021878194542442365,0.06516680508992725,0.09964882662557682,0.8814739764896111,0.5882668292064208
0.9755780751126272,0.014441000941200297,0.0245382510430541,0.024966284973472808,0.925023647044571,0.5883169420148247
0.9924239950831408,0.0051118144286834005,0.01710105744181203,0.0685159555284327,0.9895787616888279,0.44177243276837924
0.9830948085706239,0.0486614849836433,0.08165617208606897,0.08843702581946213,0.9536732455208597,0.43842496073159715
0.9999407285411376,0.0393322984711264,0.0742189784848269,0.04780847177258897,0.8789907038687558,0.5857504003477936
0.9906115420286207,0.03189510486988433,0.03359042443795375,0.09135814232754887,0.9435458185130127,0.4337244898335923
0.9812823555161038,0.024457911268642264,0.07714009499291365,0.1559132569718058,0.9634668888040421,0.44205241791033373
0.9981282754866174,0.015128724756125367,0.06970290139167158,0.11528470292493265,0.8887843471519381,0.5867386867798703
0.9887990889741005,0.007691531154883298,0.029074347344798426,0.04060216127282863,0.9323340177068979,0.5872982139778382
0.9794699024615836,0.00025433755364122866,0.07262401789975832,0.10515727591708557,0.9522550879979274,0.4402803704576981
0.9963158224320973,0.04380400810860113,0.13717913254401526,0.125078346208115,0.9163495718299592,0.4228767524350995
0.9869866359195804,0.036366814507359055,0.0965505784971421,0.05039580455601099,0.9598992423849191,0.4183716868053904
0.9776574494070635,0.028929620906116987,0.05592202445026895,0.09394547511097089,0.9798203126759485,0.4419445386561569
0.9945033693775771,0.01960043439360009,0.048484830849026876,0.05331692106409773,0.9051377710238445,0.5863719249178896
0.9851741828650602,0.012163240792358022,0.00785627680215372,0.09686659161905763,0.9696928856681014,0.44114269739785933
0.9758449963525433,0.004726047191115953,0.05140594735711362,0.16142170626331456,0.9896139559591308,0.4439232945741796
0.992690916323057,0.04827571774607585,0.11596106200137055,0.181342776554344,0.9537084397911627,0.4402864899665696
0.98336172981054,0.04083852414483378,0.07533250795449739,0.10666023490223998,0.9972581103461227,0.4414918762231441
0.9740325432980231,0.033401330543591706,0.034703953907624235,0.03197769325013597,0.9613525941781546,0.5912058872811776
0.9908784632685368,0.02407214403107481,0.027266760306382167,0.07552736380509587,0.981273664469184,0.44084453810048096
0.9815492767560199,0.01663495042983274,0.07081643086134207,0.1400824784493528,0.9453681483012158,0.4408431786986638
0.9983951967265335,0.007305763917315845,0.0633792372601,0.09945392440247963,0.8706856066491119,0.5859590264957948
0.9890660102140166,0.05085543447227574,0.12793435190435692,0.11937499469350905,0.8347800904811438,0.5869428176246546
0.9797368237014997,0.043418240871033666,0.08730579785748377,0.04469245304140504,0.8783297610361036,0.5874292449381293
0.9965827436720134,0.034089054358516765,0.0798686042562417,0.004063898994531884,0.8036472193839996,0.585920472017173
0.9872535571594965,0.026651860757274697,0.03924005020936855,0.04761356954949178,0.8682023340282565,0.5867157995266962
0.9779243706469796,0.01921466715603263,0.08278972076432844,0.11216868419374872,0.8881234043192859,0.5941159122081978
0.9947702906174932,0.009885480643515732,0.07535252716308638,0.07154013014687556,0.813440862667182,0.5860663032461011
0.9854411041049763,0.0024482870422736632,0.034723973116213225,0.11508980070183546,0.8779959773114389,0.589279656803241
0.9761119175924594,0.04599795759723356,0.09927908776047016,0.13501087099286488,0.8420904611434707,0.589556631464572
0.9929578375629731,0.03666877108471667,0.0918418941592281,0.09438231694599172,0.7674079194913668,0.5861415616231327
0.9836286510504562,0.0292315774834746,0.05121334011235494,0.01969977529388771,0.8109575900463266,0.5866077169096989
0.9742994645379393,0.02179438388223253,0.010584786065481785,0.0632494458488476,0.8755127046905835,0.5880897540674486
0.9911453845084529,0.012465197369715634,0.0031475924642397164,0.02262089180197445,0.8008301630384795,0.5861914191972497
0.981816197995936,0.005028003768473565,0.04669726301919961,0.08717600644623139,0.820751233329509,0.5870006718914657
0.9986621179664497,0.04857767432343346,0.11125237766345655,0.10709707673726081,0.7848457171615408,0.58583193040935
0.9893329314539328,0.04114048072219139,0.0706238236165834,0.03241453508515679,0.8283953877165007,0.5863665014503802
0.9800037449414158,0.03370328712094932,0.029995269569710242,0.07596420564011669,0.8929505023607576,0.5884185969040058
0.9968496649119295,0.024374100608432422,0.022558075968468174,0.03533565159324353,0.8182679607086536,0.585920153866051
0.9875204783994126,0.016936907007190354,0.06610774652342807,0.09989076623750047,0.838189030999683,0.5868534649061531
0.9781912918868957,0.009499713405948285,0.025479192476554918,0.025208224585396455,0.881738701554643,0.5873067870511559
0.9950372118574093,0.0001705268934313886,0.01804199887531285,0.06875789514035635,0.9462938161988999,0.4144478079604886
0.9857080253448924,0.043720197448391285,0.08259711351956979,0.08867896543138577,0.9103883000309317,0.5906021206941472
0.9763788388323755,0.03628300384714921,0.041968559472696634,0.013996423779281758,0.9539379705858917,0.5890933581986693
0.9932247588028892,0.026953817334632316,0.03453136587145456,0.057546094334241654,0.9738590408769211,0.43795415276906385
0.9838955722903723,0.019516623733390248,0.07808103642641445,0.12210120897849859,0.9937801111679505,0.44226079282042086
0.9745663857778554,0.01207943013214818,0.037452482379541296,0.047418667326394576,0.9578745949999824,0.4244351622125835
0.991412305748369,0.0027502436196312832,0.030015288778299228,0.00679011327952142,0.8831920533478784,0.5862902997098202
0.9820831192358521,0.04629991417459118,0.09457040342255617,0.026711183570550846,0.8472865371799103,0.5868681612956361
0.9989290392063658,0.03697072766207428,0.0871332098213141,0.07026085412551074,0.9118416518241672,0.5859251794041712
0.9895998526938489,0.02953353406083221,0.04650465577444095,0.11381052468047063,0.9763967664684241,0.4411265158005717
0.980270666181332,0.022096340459590143,0.005876101727567792,0.03912798302836662,0.9963178367594535,0.44206559172862914
0.9971165861518456,0.012767153947073246,0.04942577228252769,0.10368309767262356,0.9604123205914854,0.43806659795881703
0.9877873996393287,0.005329960345831177,0.008797218235654533,0.02900055602051954,0.9803333908825148,0.43012295660414557
0.9784582131268118,0.048879630900791074,0.07335233287991147,0.04892162631154896,0.9444278747145467,0.5904802337049535
0.9953041330973255,0.03955044438827418,0.0659151392786694,0.008293072264675808,0.8697453330624427,0.5860589775535012
0.9859749465848086,0.03211325078703211,0.02528658523179625,0.051842742819635704,0.9343004477066996,0.5882739012483579
0.9766457600722916,0.02467605718579004,0.06883625578675615,0.11639785746389264,0.954221517997729,0.44110137200719174
0.9934916800428053,0.015346870673273144,0.061399062185514074,0.07576930341701948,0.8795389763456251,0.586449987470629
0.9841624935302884,0.007909677072031076,0.020770508138640918,0.0010867617649154698,0.923088646900585,0.5871125087473448
0.9748333070177715,0.00047248347078900684,0.06432017869360082,0.0656418764091724,0.9430097171916144,0.4198954709733213
0.9916792269882851,0.044022154025748904,0.12887529333785774,0.08556294670020183,0.9071042010236463,0.5876550433004063
0.9823500404757682,0.03658496042450683,0.08824673929098459,0.010880405048097813,0.9506538715786061,0.5880916218568889
0.9991959604462819,0.027255773911989935,0.08080954568974252,0.05443007560305771,0.9705749418696356,0.4293227811081565
0.989866773933765,0.019818580310747867,0.04018099164286937,0.0979797461580176,0.990496012160665,0.44164796292231545
0.9805375874212481,0.012381386709505799,0.08373066219782926,0.16253486080227453,0.9545904959926969,0.4421615034587204
0.9973835073917617,0.0030522001969889023,0.0762934685965872,0.12190630675540137,0.8799079543405929,0.586912003090889
0.9880543208792448,0.0466018707519488,0.14084858324084415,0.1418273770464308,0.8440024381726248,0.5881103315590352
0.9787251343667279,0.03916467715070673,0.100220029193971,0.0671448353943268,0.8875521087275846,0.5881212277365294
0.9955710543372416,0.02983549063818983,0.09278283559272893,0.026516281347453638,0.8128695670754806,0.585983695898885
0.9862418678247247,0.022398297036947762,0.052154281545855774,0.07006595190241353,0.8774246817197375,0.5871178243643834
0.9769126813122078,0.014961103435705694,0.011525727498982619,0.11361562245737343,0.9419797963639944,0.4396509250874532
0.9937586012827214,0.005631916923188797,0.0040885338977405495,0.07298706841050027,0.8672972547118905,0.5863071945433618
0.9844294147702045,0.04918158747814869,0.06864364854199749,0.0929081387015297,0.8313917385439223,0.5870063517367102
0.9751002282576876,0.04174439387690662,0.028015094495124335,0.018225597049425682,0.8749414090988823,0.5874846106911579
0.9919461482282013,0.03241520736438973,0.020577900893882266,0.06177526760438558,0.9394965237431392,0.5893744577803395
0.9826169617156844,0.02497801376314766,0.06412757144884217,0.12633038224864251,0.9594175940341686,0.441238230991019
0.999462881686198,0.015648827250630763,0.056690377847600094,0.08570182820176936,0.8847350523820646,0.5858173950007454
0.9901336951736811,0.008211633649388695,0.01606182380072694,0.011019286549665344,0.9282847229370246,0.5866812585240611
0.9808045086611642,0.000774440048146626,0.059611494355686835,0.07557440119392228,0.948205793228054,0.4324596251909684
0.9976504286316779,0.04432411060310652,0.12416660899994378,0.0954954714849517,0.9123002770600859,0.5056032263412529
0.988321242119161,0.03688691700186445,0.08353805495307062,0.020812929832847687,0.9558499476150457,0.5875782610160379
0.978992055606644,0.029449723400622383,0.04290950090619747,0.06436260038780758,0.9757710179060751,0.44083373575966445
0.9958379755771577,0.020120536888105486,0.035472307304955396,0.023734046340934428,0.9010884762539711,0.5860913240733747
0.9865087890646408,0.012683343286863418,0.0790219778599153,0.08828916098519136,0.9210095465450006,0.42992415517787963
0.9771796025521239,0.005246149685621349,0.03839342381304214,0.01360661933308735,0.9645592170999604,0.589231432419315
0.9940255225226375,0.048795820240581246,0.10294853845729908,0.03352768962411677,0.9286537009319923,0.5865100672668667
0.9846963360101206,0.041358626639339174,0.062319984410425924,0.07707736017907667,0.9932088155762492,0.4412547691851841
0.9753671494976037,0.0339214330380971,0.02169143036355277,0.002394818526972653,0.9573032994082811,0.5893810015485197
0.9922130694681174,0.024592246525580206,0.0142542367623107,0.04594448908193255,0.9772243696993105,0.4374211379629754
0.9828838829556005,0.017155052924338138,0.0578039073172706,0.11049960372618949,0.9971454399903399,0.4424056556191714
0.9997298029261141,0.007825866411821241,0.05036671371602853,0.06987104967931633,0.9224628983382359,0.585803743977274
0.9904006164135972,0.000388672810579172,0.009738159669155373,0.11342072023427623,0.9870180129824928,0.4425929060744315
0.9810714299010803,0.04393834336553907,0.07429327431341232,0.13334179052530565,0.9511124968145247,0.44077780692964935
0.997917349871594,0.03460915685302217,0.06685608071217025,0.09271323647843249,0.8764299551624207,0.5860234533933197
0.9885881633590771,0.0271719632517801,0.026227526665297096,0.018030694826328478,0.9199796257173807,0.5868414045729585
0.9792589768465602,0.019734769650538032,0.06977719722025699,0.08258580947058541,0.9399006960084101,0.42863194075491906
0.9961048968170738,0.010405583138021136,0.06234000361901492,0.04195725542371226,0.8652181543563061,0.5860207970112706
0.9867757103045569,0.0029683895367790666,0.021711449572141765,0.08550692597867215,0.929773269000563,0.41651987646063543
0.97744652379204,0.046518060091738964,0.0862665642163987,0.10542799626970158,0.8938677528325949,0.5936332294831681
0.9942924437625537,0.03718887357922207,0.07882937061515663,0.06479944222282842,0.8191852111804909,0.5861035736773074
0.9849632572500368,0.029751679977980002,0.038200816568283474,0.10834911277778832,0.8837403258247478,0.5892350673617891
0.9756340707375198,0.022314486376737934,0.08175048712324337,0.17290422742204525,0.9036613961157772,0.43920035571986243
0.9924799907080335,0.012985299864221037,0.0743132935220013,0.1322756733751721,0.8289788544636733,0.5866247433839092
0.9831508041955166,0.005548106262978968,0.03368473947512815,0.05759313172306808,0.8725285250186332,0.5871402105252255
0.9999967241660302,0.049097776817938865,0.09823985411938509,0.0775142020140975,0.8366230088506651,0.585745645140622
0.9906675376535133,0.041660583216696793,0.05761130007251193,0.0028316603619934905,0.880172679405625,0.5864379681484495
0.9813383511409964,0.03422338961545472,0.016982746025638776,0.04638133091695339,0.9447277940498819,0.5895194252167796
0.9981842711115101,0.024894203102937825,0.009545552424396708,0.005752776870080231,0.870045252397778,0.5858631855525338
0.9888550845989932,0.017457009501695757,0.05309522297935661,0.07030789151433717,0.8899663226888074,0.5870387223415215
0.9795258980864763,0.010019815900453689,0.012466668932483452,0.11385756206929706,0.9545214373330643,0.4409069654180091
0.9963718180569899,0.000690629387936792,0.005029475331241383,0.07322900802242391,0.8798388956809603,0.5861169894473418
0.987042631544473,0.04424029994289669,0.06958458997549832,0.09315007831345333,0.8439333795129922,0.5869169615294383
0.9777134450319561,0.036803106341654616,0.028956035928625168,0.018467536661349315,0.887483050067952,0.5874208282689135
0.9945593650024698,0.02747391982913772,0.0215188423273831,0.06201720721630921,0.9520381647122089,0.41549909998708845
0.9852301784899529,0.02003672622789565,0.065068512882343,0.12657232186056616,0.9719592350032383,0.4417397327447664
0.975900991977436,0.012599532626653583,0.024439958835469844,0.05188978020846215,0.9918803052942677,0.4425521163481321
0.9927469119479496,0.0032703461141366866,0.017002765234227776,0.011261226161588991,0.9171977636421638,0.5863479709328823
0.9834177254354327,0.04682001666909658,0.08155787987848472,0.031182296452618417,0.8812922474741957,0.5870424444799167
0.9740885389229158,0.03938282306785451,0.04092932583161156,0.07473196700757831,0.9458473621184526,0.4305144614402992
0.9909344588934295,0.030053636555337614,0.03349213223036949,0.034103412960705154,0.8711648204663486,0.5863974166832535
0.9816052723809126,0.022616442954095546,0.07704180278532938,0.09865852760496209,0.891085890757378,0.5896136841916642
0.9984511923514262,0.01328725644157865,0.06960460918408731,0.058029973558088935,0.816403349105274,0.5858367296961616
0.9891220058389093,0.00585006284033658,0.028976055137214157,0.10157964411304883,0.8809584637495309,0.5876030259726539
0.9797928193263924,0.04939973339529648,0.0935311697814711,0.12150071440407825,0.8450529475815628,0.5883888928425358
0.996638739296906,0.040070546882779584,0.08609397618022903,0.0808721603572051,0.7703704059294588,0.5859288440964376
0.9873095527843891,0.03263335328153751,0.04546542213335587,0.006189618705101083,0.8139200764844188,0.5864122865677956
0.9779803662718722,0.025196159680295444,0.004836868086482718,0.04973928926006098,0.8784751911286757,0.5875878933741291
0.9948262862423859,0.015866973167778547,0.048386538641442614,0.11429440390431791,0.8983962614197051,0.4332878210505609
0.985497099729869,0.00842977956653648,0.007757984594569459,0.0396118622522139,0.941945931974665,0.5880705530411343
0.9761679132173521,0.0009925859652944102,0.051307655149529355,0.10416697689647084,0.9618670022656944,0.44163931761880465
0.9930138331878657,0.04454225652025431,0.11586276979378629,0.12408804718750026,0.9259614860977263,0.4338135420036042
0.9836846466753488,0.037105062919012236,0.07523421574691314,0.049405505535396244,0.9695111566526862,0.43583474712853054
0.9743554601628319,0.029667869317770167,0.03460566170003998,0.09295517609035614,0.9894322269437156,0.4423048027343834
0.9912013801333456,0.02033868280525327,0.027168468098797912,0.052326622043482984,0.9147496852916116,0.586874333720688
0.9818721936208287,0.012901489204011202,0.07071813865375781,0.11688173668773992,0.934670755582641,0.4381362552755932
0.9987181135913423,0.0035723026914943057,0.06328094505251575,0.07625318264086677,0.859988213930537,0.5858561920891487
0.9893889270788254,0.0471219732464542,0.1278360596967727,0.09617425293189619,0.8240826977625689,0.586578519712092
0.9800597405663085,0.03968477964521213,0.08720750564989954,0.021491711279792172,0.8676323683175289,0.5870983741607418
0.9969056605368222,0.030355593132695233,0.07977031204865748,0.06504138183475207,0.9321874829617858,0.5866051980918605
0.9875764740243053,0.022918399531453165,0.03914175800178432,0.10859105238971196,0.9967425976060427,0.4417821952287607
0.9782472875117884,0.015481205930211097,0.08269142855674422,0.1731461670339689,0.9608370814380746,0.44273176836938744
0.995093207482302,0.0061520194176942,0.07525423495550215,0.13251761298709575,0.8861545397859706,0.4162220827078228
0.9857640209697851,0.049701689972654096,0.1398093495997591,0.15243868327812518,0.8502490236180025,0.5919219663954121
0.9764348344572682,0.042264496371412025,0.09918079555288595,0.07775614162602117,0.8937986941729623,0.5890781052749757
0.9932807544277819,0.03293530985889513,0.09174360195164388,0.03712758757914801,0.8191161525208583,0.5861259078560396
0.983951567915265,0.025498116257653063,0.05111504790477073,0.08067725813410791,0.8836712671651152,0.587732093147742
0.974622381402748,0.018060922656410995,0.010486493857897572,0.005994716482003892,0.9272209377200751,0.5881774137030685
0.9914683013732617,0.008731736143894098,0.003049300256655503,0.04954438703696379,0.991776052364332,0.4416341652159096
0.9821391148607448,0.0012945425426520293,0.046598970811615396,0.11409950168122072,0.9558705361963639,0.4408601825563873
0.9989850348312584,0.044844213097611926,0.11115408545587233,0.13402057197225015,0.9199650200283958,0.42343707693091204
0.9896558483187415,0.037407019496369855,0.07052553140899917,0.05933803032014613,0.9635146905833556,0.43424061414162757
0.9803266618062246,0.029969825895127786,0.029896977362126015,0.10288770087510603,0.983435760874385,0.4419066217924599
0.9971725817767383,0.02064063938261089,0.022459783760883947,0.06225914682823287,0.908753219222281,0.5861285132342833
0.9878433952642214,0.013203445781368821,0.06600945431584385,0.1268142614724898,0.9286742895133104,0.4370275887144097
0.9785142087517045,0.005766252180126752,0.02538090026897069,0.052131719820385794,0.9722239600682703,0.4389617301085665
0.9953601287222181,0.04931592273508665,0.08993601491322763,0.07205279011141522,0.9363184439003022,0.430409305995401
0.9860309422097012,0.04187872913384458,0.04930746086635447,0.11560246066637511,0.9562395141913316,0.4401369903988592
0.9767017556971843,0.034441535532602506,0.008678906819481316,0.0409199190142711,0.9997891847462914,0.4418455983085249
0.993547675667698,0.02511234902008561,0.0012417132182392472,0.0002913649673979418,0.9251066430941874,0.5864388347255143
0.9842184891551811,0.01767515541884354,0.04479138377319914,0.06484647961165488,0.9450277133852168,0.41646412520636117
0.9748893026426642,0.010237961817601473,0.004162829726325985,0.10839615016661477,0.9649487836762463,0.44202771122510087
0.9917352226131778,0.0009087753050845762,0.04771250028128588,0.1729512648108717,0.9848698539672757,0.4428811628498721
0.9824060361006609,0.04445844586004447,0.11226761492554282,0.19287233510190113,0.9489643377993076,0.4415994132686807
0.9992519560711746,0.03512925934752757,0.10483042132430076,0.15224378105502798,0.8742817961472036,0.411637342181421
0.9899227695586577,0.027692065746285504,0.0642018672774276,0.07756123940292396,0.9178314667021634,0.5883130626303755
0.9805935830461407,0.020254872145043436,0.02357331323055445,0.0028786977508199474,0.9613811372571233,0.5885462395097878
0.9974395030166544,0.010925685632526539,0.01613611962931238,0.046428368305779844,0.9813022075481527,0.43752048141909483
0.9881103165041375,0.00348849203128447,0.05968579018427228,0.11098348295003678,0.9453966913801846,0.43848084170784435
0.9787811299916206,0.04703816258624437,0.12424090482852922,0.1309045532410662,0.9094911752122165,0.4322824829370796
0.9956270499621342,0.037708976073727474,0.11680371122728715,0.09027599919419305,0.8348086335601125,0.586099470922605
0.9862978634496173,0.030271782472485406,0.076175157180414,0.015593457542089031,0.8783583041150724,0.5867011953670291
0.9769686769371004,0.022834588871243337,0.03554660313354084,0.05914312809704893,0.9429134187593293,0.5855371608358277
0.9938145969076141,0.01350540235872644,0.028109409532298773,0.018514574050175772,0.8682308771072254,0.5861439412279841
0.9844854103950972,0.0060682087574843715,0.07165908008725867,0.08306968869443271,0.8881519473982548,0.5878520847677746
0.9751562238825803,0.04961787931244427,0.1362141947315156,0.10299075898546213,0.8522464312302866,0.5885336372967619
0.9920021438530939,0.040288692799927375,0.12877700113027354,0.062362204938588975,0.7775638895781827,0.5861716086357731
0.982672957340577,0.032851499198685304,0.08814844708340039,0.10591187549354887,0.8421190042224396,0.5874853188720136
0.9995188773110907,0.023522312686168407,0.08071125348215832,0.06528332144667572,0.7674364625703356,0.5857701061357758
0.9901896907985738,0.01608511908492634,0.04008269943528517,0.10883299200163561,0.8319915772145925,0.586635144870281
0.9808605042860569,0.00864792548368427,0.08363236999024506,0.17338810664589255,0.8519126475056219,0.41799465948687314
0.9977064242565705,0.0012107318824422014,0.04300381594337191,0.09870556499378853,0.8954623180605819,0.5863121139807942
0.9883772377440536,0.0447604024374021,0.10755893058762885,0.11862663528481796,0.8595568018926137,0.5876149594119009
0.9790480512315367,0.03732320883616003,0.06693037654075569,0.04394409363271394,0.9031064724475737,0.5879140364727666
0.9958939712020504,0.02799402232364313,0.05949318293951362,0.003315539585840785,0.8284239307954697,0.5859708536794423
0.9865647846895335,0.020556828722401062,0.018864628892640463,0.04686521014080068,0.8929790454397266,0.5869924121063144
0.9772355981770166,0.013119635121158994,0.06241429944760036,0.11142032478505762,0.912900115730756,0.42391673240435024
0.9940815181475302,0.003790448608642097,0.05497710584635829,0.07079177073818446,0.838217574078652,0.586157735053747
0.9847523316350133,0.04734011916360199,0.11953222049061522,0.09071284102921388,0.8023120579106839,0.5867488050094124
0.9754231451224964,0.03990292556235992,0.07890366644374207,0.01603029937710987,0.8458617284656438,0.5872219785780928
0.99226906509301,0.030573739049843025,0.0714664728425,0.059579969932069765,0.9104168431099007,0.586794117876615
0.9829398785804931,0.023136545448600956,0.030837918795626848,0.10312964048702966,0.9749719577541576,0.4416680136835425
0.9997857985510068,0.01380735893608406,0.02340072519438478,0.0625010864401565,0.9002894161020536,0.5857709025852026
0.9904566120384899,0.006370165334841991,0.06695039574934468,0.12705620108441346,0.920210486393083,0.43328662702881665
0.981127425525973,0.04991983588980189,0.13150551039360162,0.1469772713754429,0.8843049702251149,0.42180460729426805
0.9979733454964866,0.04059064937728499,0.12406831679235955,0.10634871732856974,0.8096224285730109,0.5858972800362755
0.9886441589839697,0.033153455776042916,0.0834397627454864,0.03166617567646572,0.8531720991279708,0.5864789574713445
0.9793149724714528,0.025716262174800848,0.04281120869861324,0.07521584623142562,0.9177272137722277,0.5904375341691795
0.9961608924419665,0.01638707566228395,0.03537401509737117,0.03458729218455246,0.8430446721201237,0.5859787297305582
0.9868317059294496,0.008949882061041883,0.07892368565233107,0.0991424068288094,0.8629657424111531,0.587301799738287
0.9775025194169327,0.0015126884597998136,0.038295131605457916,0.024459865176705384,0.906515412966113,0.587624748457882
0.9943484393874463,0.04506235901475971,0.10285024624971485,0.044380935467734806,0.8706098967981449,0.5861866694873007
0.9850192528749294,0.03762516541351764,0.0622216922028417,0.0879306060226947,0.9351650114424018,0.4249747027904384
0.9756900663624125,0.03018797181227557,0.02159313815596854,0.013248064370590687,0.9787146819973618,0.5906200639601425
0.9925359863329262,0.020858785299758674,0.014155944554726473,0.05679773492555058,0.9986357522883912,0.441351571217711
0.9832067998204093,0.013421591698516606,0.05770561510968637,0.12135284956980752,0.9627302361204231,0.44144780328954936
0.9738776133078924,0.005984398097274537,0.017077061062813217,0.046670307917703505,0.9826513064114525,0.441498383179742
0.990723533278406,0.049534068652234434,0.08163217570707015,0.06659137820873293,0.9467457902434844,0.41589838491206427
0.9813943467658891,0.04209687505099236,0.041003621660197,0.11014104876369282,0.9666668605345138,0.44112784712990805
0.9982402667364028,0.03276768853847546,0.03356642805895493,0.06951249471681967,0.8919843188824098,0.5859552150198781
0.9889110802238859,0.025330494937233394,0.07711609861391483,0.1340676093610766,0.9119053891734392,0.4315341609228353
0.979581893711369,0.017893301335991325,0.036487544567041674,0.059385067708972575,0.9554550597283991,0.4261010519412409
0.9964278136818826,0.008564114823474429,0.029050350965799606,0.01875651366209942,0.8807725180762951,0.5859897956577883
0.9870986271693657,0.0011269212222323596,0.0726000215207595,0.08331162830635636,0.9006935883673245,0.5879838060966397
0.9777694406568488,0.04467659177719226,0.13715513616501646,0.10323269859738578,0.8647880721993564,0.5887276596983474
0.9946153606273624,0.03534740526467536,0.1297179425637744,0.06260414455051262,0.7901055305472524,0.5860432719172993
0.9852861741148455,0.027910211663433295,0.08908938851690124,0.10615381510547252,0.8546606451915093,0.5874796040604928
0.9759569876023286,0.020473018062191227,0.04846083447002808,0.0314712734533685,0.8982103157464691,0.5878185418718224
0.9928029075728423,0.01114383154967433,0.04102364086878601,0.0750209440083284,0.962765430390726,0.43733386007180747
0.9834737210603254,0.003706637948432261,0.0003950868219128531,0.00033840235622438486,0.9826865006817554,0.5886019774963067
0.9741445345478085,0.04725630850339216,0.06495020146616978,0.02025947264725381,0.9467809845137873,0.5893891806093554
0.9909904545183221,0.037927121990875265,0.05751300786492771,0.0638091432022137,0.9667020548048167,0.4371332450729846
0.9816612680058052,0.030489928389633197,0.016884453818054555,0.1073588137571736,0.9866231250958462,0.4418765907167712
0.9985071879763189,0.0211607418771163,0.009447260216812487,0.06673025971030044,0.9119405834437422,0.5859757241156627
0.989178001463802,0.013723548275874232,0.05299693077177238,0.1312853743545574,0.9318616537347716,0.43776949918435504
0.9798488149512851,0.006286354674632163,0.012368376724899224,0.05660283270245338,0.9754113242897315,0.44030261163553536
0.9966947349217987,0.04983602522959206,0.07692349136915616,0.0765239029934828,0.9395058081217634,0.4112335003724972
0.9873655484092818,0.04239883162834999,0.036294937322283005,0.001841361341378786,0.9830554786767234,0.5884873166549941
0.9780363618967649,0.034961638027107916,0.0798446078772429,0.06639647598563572,0.9471499625087553,0.4220126197525049
0.9948822818672786,0.02563245151459102,0.07240741427600084,0.025767921938762567,0.8724674208566513,0.5861007321246258
0.9855530953547617,0.01819525791334895,0.03177886022912768,0.06931759249372246,0.9370225355009082,0.4429738783821975
0.9762239088422447,0.010758064312106883,0.07532853078408758,0.13387270713797939,0.9569436057919376,0.4420527554040552
0.9930698288127584,0.0014288777995899865,0.06789133718284551,0.09324415309110623,0.8822610641398336,0.5867554950603026
0.9837406423002415,0.04497854835454988,0.13244645182710246,0.11316522338213565,0.8463555479718655,0.587658978505299
0.9744114557877246,0.03754135475330781,0.09181789778022931,0.03848268173003164,0.8899052185268255,0.5879733131033523
0.9912573757582382,0.028212168240790914,0.08438070417898724,0.08203235228499153,0.9544603331710824,0.4362871845236982
0.9819281892457213,0.020774974639548846,0.04375215013211409,0.0073498106328875185,0.9980100037260422,0.4414016653298219
0.998774109216235,0.01144578812703195,0.036314956530872015,0.050899481187847415,0.9621044875580741,0.41150915201079513
0.9894449227037181,0.00400859452578988,0.07986462708583192,0.11545459583210435,0.9820255578491035,0.44218368469181185
0.9801157361912012,0.04755826508074978,0.14441974173008887,0.1353756661231338,0.9461200416811354,0.4405247272585192
0.9969616561617148,0.03822907856823288,0.1369825481288468,0.09474711207626063,0.8714375000290314,0.5861364559332874
0.9876324696491979,0.03079188496699081,0.09635399408197365,0.020064570424156616,0.9149871705839914,0.5869102725268722
0.978303283136681,0.02335469136574874,0.05572544003510049,0.06361424097911651,0.9795422852282483,0.44140353223982226
0.9951492031071947,0.014025504853231844,0.04828824643385842,0.022985686932243357,0.9048597435761443,0.5861558559386627
0.9858200165946778,0.006588311251989775,0.007659692386985266,0.06653535748720325,0.9694148582204012,0.43926791319519193
0.9764908300821609,0.05013798180694967,0.0722148070312422,0.08645642777823268,0.9335093420524331,0.4250685846790095
0.9933367500526745,0.04080879529443278,0.06477761343000013,0.04582787373135952,0.8588268004003291,0.5862241111463669
0.9840075635401576,0.03337160169319071,0.024149059383126975,0.08937754428631942,0.923381915044586,0.4170365562653281
0.9746783770276407,0.02593440809194864,0.06769872993808687,0.15393265893057634,0.9433029853356154,0.44169716021576816
0.9915242969981544,0.016605221579431742,0.0602615363368448,0.11330410488370318,0.8686204436835114,0.5871949838830879
0.9821951104856375,0.009168027978189674,0.019632982289971644,0.03862156323159917,0.9121701142384713,0.5875902453543472
0.9990410304561511,0.0017308343769476047,0.06318265284493155,0.1031766778758561,0.9320911845295007,0.4175671839178805
0.9897118439436342,0.0452805049319075,0.12773776748918847,0.12309774816688553,0.8961856683615326,0.4145949495972057
0.9803826574311173,0.03784331133066543,0.08710921344231531,0.04841520651478151,0.9397353389164924,0.5894648233709535
0.997228577401631,0.028514124818148533,0.07967201984107325,0.007786652467908356,0.8650527972643884,0.5859226794570743
0.987899390889114,0.021076931216906465,0.039043465794200094,0.05133632302286825,0.9296079119086453,0.5876954524460407
0.9785702043765971,0.013639737615664397,0.08259313634915999,0.11589143766712519,0.9495289821996747,0.44054035601065716
0.9954161243471108,0.0043105511031475,0.07515594274791793,0.07526288362025203,0.8748464405475708,0.586206260052345
0.9860869378345939,0.047860221658107396,0.13971105739217488,0.09518395391128145,0.8389409243796027,0.5869809914836998
0.976757751322077,0.040423028056865325,0.09908250334530172,0.02050141225917744,0.8824905949345625,0.5874719855320908
0.9936036712925906,0.031093841544348428,0.09164530974405966,0.06405108281413734,0.9470457095788194,0.4123765102974549
0.9842744847800737,0.02365664794310636,0.0510167556971865,0.10760075336909723,0.9669667798698488,0.4411494544621872
0.9749452982675568,0.01621945434186429,0.010388201650313345,0.03291821171699322,0.9868878501608782,0.44100793821759154
0.9917912182380705,0.006890267829347395,0.0029510080490712754,0.07646788227195311,0.9509823339929101,0.4314024164783069
0.9824620317255536,0.05043993838430729,0.06750612269332822,0.09638895256298254,0.915076817824942,0.4221663339187213
0.9993079516960672,0.04111075187179039,0.060068929092086144,0.05576039851610938,0.840394276172838,0.5857921078676492
0.9899787651835503,0.03367355827054832,0.01944037504521299,0.09931006907106928,0.9049493908170949,0.5806712535837016
0.9806495786710334,0.02623636466930625,0.06299004560017288,0.1638651837153262,0.9248704611081243,0.44013600224965815
0.9974954986415471,0.016907178156789354,0.055552851998930806,0.12323662966845306,0.8501879194560203,0.586104193756361
0.9881663121290302,0.009469984555547286,0.014924297952057651,0.04855408801634904,0.8937375900109803,0.5868537288008988
0.9788371256165133,0.002032790954305217,0.05847396850701755,0.11310920266060598,0.9136586603020097,0.42527712529990525
0.9956830455870269,0.045582461509265114,0.12302908315127448,0.13303027295163541,0.8777531441340416,0.48955446274184483
0.98635385907451,0.03814526790802304,0.08240052910440132,0.0583477312995314,0.9213028146890014,0.5879381321657081
0.9770246725619931,0.030708074306780974,0.041771975057528166,0.1018974018544913,0.9858579293332583,0.44211975916934904
0.9938705925325068,0.021378887794264077,0.034334781456286094,0.06126884780761814,0.9111753876811544,0.5865977306196467
0.9845414060199899,0.013941694193022009,0.077884452011246,0.12582396245187508,0.9310964579721838,0.4379861014227945
0.9752122195074729,0.00650450059177994,0.03725589796437284,0.05114142079977106,0.9746461285271437,0.43990937401808733
0.9920581394779866,0.05005417114673984,0.10181101260862978,0.07106249109080048,0.9387406123591756,0.41669387802431995
0.9827289529654697,0.042616977545497765,0.06118245856175662,0.11461216164576038,0.958661682650205,0.44062275079434604
0.9995748729359833,0.033287791032980865,0.05374526496051455,0.07398360759888722,0.883979140998101,0.585793762453713
0.9902456864234664,0.025850597431738797,0.013116710913641395,0.11753327815384712,0.9485342556423579,0.43892115607358245
0.9809164999109495,0.01841340383049673,0.05666638146860129,0.18208839279810407,0.9684553259333873,0.4427518480066502
0.9977624198814632,0.009084217317979832,0.04922918786735922,0.14145983875123092,0.8937727842812834,0.41353081626788046
0.9884332333689463,0.001647023716737763,0.008600633820486064,0.0667772970991269,0.9373224548362433,0.5196177654113775
0.9791040468564294,0.04519669427169766,0.073155748464743,0.08669836739015632,0.9014169386682752,0.5898995233013986
0.995949966826943,0.03586750775918077,0.06571855486350094,0.04606981334328317,0.8267343970161712,0.5859889658804694
0.9866207803144261,0.0284303141579387,0.02509000081662778,0.08961948389824306,0.8912895116604281,0.5879555602299747
0.9772915938019092,0.02099312055669663,0.06863967137158768,0.15417459854249999,0.9112105819514575,0.4385060242586326
0.9941375137724229,0.011663934044179734,0.061202477770345605,0.11354604449562683,0.8365280402993536,0.5863334210354996
0.984808327259906,0.0042267404429376645,0.02057392372347245,0.038863502843522815,0.8800777108543134,0.5868987206355213
0.9754791407473891,0.04777641099789756,0.08512903836772939,0.05878457313455224,0.8441721946863453,0.5874924866453309
0.9923250607179027,0.03844722448538067,0.07769184476648733,0.01815601908767908,0.7694896530342413,0.5861129028291666
0.9829958742053858,0.0310100308841386,0.03706329071961417,0.06170568964263898,0.8340447676784982,0.5868755171726139
0.9998417941758995,0.021680844371621703,0.029626097118372104,0.021077135595765822,0.7593622260263942,0.5857527484839339
0.9905126076633826,0.014243650770379635,0.073175767673332,0.08563225024002276,0.7792832963174237,0.5862783937762431
0.9811834211508657,0.006806457169137566,0.03254721362645885,0.010949708587918744,0.8228329668723835,0.5867148869621621
0.9980293411213793,0.05035612772409746,0.09710232827071578,0.03087077887894817,0.7869274507044154,0.5858461975803074
0.9887001546088624,0.04291893412285539,0.05647377422384263,0.07442044943390806,0.8514825653486723,0.5866762746335917
0.9793709680963455,0.03548174052161332,0.015845220176969474,0.11797011998886796,0.9160376799929292,0.4302638471196799
0.9962168880668592,0.026152554009096423,0.008408026575727406,0.0773415659419948,0.8413551383408252,0.586032142355857
0.9868877015543422,0.018715360407854355,0.051957697130687305,0.14189668058625174,0.8612762086318546,0.5914814194436016
0.9775585150418253,0.011278166806612287,0.01132914308381415,0.06721413893414772,0.9048258791868145,0.588835167957933
0.994404435012339,0.0019489802940953899,0.003891949482572081,0.02658558488727457,0.8301433375347105,0.5860473679614578
0.9850752484998221,0.045498650849055286,0.06844706412682902,0.04650665517830399,0.7942378213667424,0.5865491222667366
0.9757460619873052,0.038061457247813214,0.027818510079955866,0.09005632573326389,0.8587929360109993,0.5882218204969221
0.9925919819578188,0.028732270735296318,0.020381316478713798,0.04942777168639073,0.7841103943588953,0.5861293685345054
0.9832627954453019,0.02129507713405425,0.0639309870336737,0.11398288633064767,0.8040314646499247,0.5869912975345191
0.973933608932785,0.013857883532812181,0.023302432986800542,0.03930034467854365,0.8475811352048845,0.5873963164267761
0.9907795289032987,0.0045286970202952845,0.015865239385558474,0.08285001523350355,0.9121362498491414,0.5880556741836948
0.9814503423907818,0.04807836757525518,0.08042035402981541,0.10277108552453297,0.8762307336811733,0.5887637725927461
0.9982962623612954,0.03874918106273828,0.07298316042857335,0.062142531477659815,0.8015481920290694,0.5858432990330337
0.9889670758487785,0.03131198746149621,0.03235460638170019,0.10569220203261971,0.8661033066733262,0.5872868384800013
0.9796378893362616,0.02387479386025414,0.07590427693666009,0.17024731667687665,0.8860243769643557,0.43417335776493793
0.9964838093067753,0.014545607347737244,0.06846708333541802,0.1296187626300035,0.8113418353122517,0.5860628293844931
0.9871546227942584,0.007108413746495175,0.02783852928854487,0.05493622097789948,0.8548915058672115,0.5866568410583205
0.9778254362817415,0.05065808430145507,0.0923936439328018,0.0748572912689289,0.8189859896992434,0.5872277810812312
0.9946713562522551,0.04132889778893817,0.08495645033155974,0.034228737222055744,0.7443034480471394,0.5859947100942023
0.9853421697397382,0.033891704187696096,0.044327896284686585,0.07777840777701564,0.8088585626913963,0.5866667980938919
0.9760129832272213,0.026454510586454028,0.00369934223781343,0.0030958661249116254,0.8524082332463563,0.5871910992340179
0.992858903197735,0.01712532407393713,0.047249012792773326,0.06765098076916856,0.8723293035373857,0.5863984236882314
0.983529716685218,0.009688130472695063,0.006620458745900171,0.11120065132412846,0.9368844181816426,0.4376850809376429
0.9742005301727011,0.0022509368714529942,0.05017012930086007,0.17575576596838538,0.956805488472672,0.44340184291447016
0.9910464501432148,0.04580060742641289,0.114725243945117,0.19567683625941482,0.9208999723047039,0.43932240285898355
0.9817172636306979,0.03836341382517082,0.07409668989824385,0.1209942946073108,0.9644496428596638,0.4412406114231357
0.9985631836012115,0.029034227312653923,0.06665949629700178,0.08036574056043765,0.8897671012075599,0.5859393118960456
0.9892339970886946,0.021597033711411855,0.026030942250128628,0.005683198908333631,0.9333167717625197,0.5868536851757928
0.9799048105761777,0.014159840110169786,0.06958061280508852,0.07023831355259057,0.9532378420535491,0.43415997687254443
0.9967507305466914,0.00483065359765289,0.06214341920384645,0.029609759505717412,0.8785553004014451,0.5859758342789803
0.9874215440341745,0.048380324152612786,0.1266985338481034,0.049530829796746834,0.842649784233477,0.5865943103961142
0.9780923575216576,0.040943130551370714,0.08606997980123024,0.09308050035170673,0.9072048988777339,0.5940790049833283
0.9949382774921712,0.031613944038853814,0.07863278619998817,0.052451946304833574,0.83252235722563,0.5860655130446664
0.9856090909796543,0.024176750437611746,0.03800423215311502,0.09600161685979347,0.8970774718698868,0.589148686559755
0.9762799044671374,0.016739556836369678,0.08155390270807492,0.16055673150405042,0.9169985421609163,0.4398102045134021
0.9931258244376511,0.007410370323852781,0.07411670910683285,0.11992817745717727,0.8423160005088123,0.5865572957114955
0.9837966379251342,0.050960040878812674,0.13867182375108977,0.1398492477482067,0.8064104843408442,0.5873516990704926
0.9744674514126173,0.0435228472775706,0.09804326970421662,0.06516670609610269,0.849960154895804,0.5877078954514007
0.9913133713831309,0.0341936607650537,0.09060607610297455,0.02453815204922953,0.7752776132437,0.5861692163916279
0.981984184870614,0.026756467163811633,0.0499775220561014,0.06808782260418943,0.8398327278879569,0.5870274645560563
0.9988301048411277,0.017427280651294737,0.042540328454859326,0.02745926855731627,0.765150186235853,0.5858007055656931
0.9895009183286108,0.009990087050052669,0.0019117744079861707,0.07100893911227617,0.8297053008801099,0.5864433394190371
0.9801717318160938,0.0025528934488105995,0.04546144496294607,0.1355640537565331,0.8496263711711393,0.5895145514715379
0.9970176517866075,0.046102564003770496,0.110016559607203,0.15548512404756254,0.8137208550031712,0.5861528112878869
0.9876884652740906,0.038665370402528425,0.06938800556032984,0.08080258239545852,0.857270525558131,0.5868712974799779
0.9783592787615737,0.031228176801286357,0.028759451513456685,0.00612004074335451,0.9008201961130908,0.58747892559103
0.9952051987320873,0.02189899028876946,0.021322257912214617,0.049669711298314406,0.9653753107573477,0.4217313853494184
0.9858760122195704,0.014461796687527392,0.06487192846717452,0.11422482594257134,0.9852963810483771,0.44217716066653895
0.9765468257070535,0.0070246030862853226,0.02424337442030136,0.03954228429046733,0.949390864880409,0.5901224441174666
0.9933927456775672,0.05057427364124522,0.0887984890645583,0.05946335458149675,0.9134853487124409,0.5867037708896217
0.9840635591650503,0.04313708004000315,0.04816993501768514,0.10301302513645665,0.9780404633566978,0.4412032002125407
0.9747343726525334,0.035699886438761076,0.007541380970811987,0.02833048348435263,0.9979615336477272,0.4418617194364678
0.991580292623047,0.02637069992624418,0.00010418736956991758,0.07188015403931253,0.9620560174797591,0.4369106942084187
0.9822511061105301,0.01893350632500211,0.04365385792452981,0.13643526868356948,0.9819770877707885,0.4423911149585205
0.9990970260810438,0.009604319812485215,0.03621666432328774,0.09580671463669632,0.9072945461186845,0.5862530410363708
0.9897678395685269,0.0021671262112431455,0.07976633487824764,0.16036182928095327,0.927215616409714,0.43897598319339237
0.98043865305601,0.04571679676620304,0.14432144952250459,0.1802828995719827,0.8913101002417458,0.4372680764192157
0.9972845730265236,0.03638761025368614,0.13688425592126252,0.13965434552510955,0.8166275585896419,0.5860467091817918
0.9879553865140067,0.028950416652444074,0.09625570187438937,0.06497180387300554,0.8601772291446017,0.5867271472273146
0.9786262000014898,0.021513223051202006,0.05562714782751621,0.10852147442796543,0.9247323437888586,0.4323262633156071
0.9954721199720035,0.01218403653868511,0.04818995422627414,0.06789292038109228,0.8500498021367546,0.5860853073888384
0.9861429334594866,0.00474684293744304,0.007561400179400983,0.11144259093605217,0.9146049167810115,0.4218557947036618
0.9768137469469697,0.04829651349240294,0.07211651482365791,0.1313636612270816,0.8786994006130434,0.4599510321214178
0.9936596669174833,0.038967326979886044,0.06467932122241585,0.09073510718020844,0.8040168589609394,0.5861606207272867
0.9843304804049664,0.03153013337864397,0.024050767175542692,0.016052565528104426,0.8475665295158994,0.5866793263409945
0.9750012938924495,0.024092939777401904,0.06760043773050259,0.08060768017236136,0.8674875998069288,0.5882626884040678
0.9918472138629632,0.014763753264885007,0.06016324412926052,0.03997912612548821,0.7928050581548248,0.586165830431764
0.9825180273504462,0.007326559663642938,0.01953469008238736,0.0835287966804481,0.8573601727990817,0.5873340519473453
0.9993639473209599,0.05087623021860283,0.08408980472664429,0.10344986697147752,0.8214546566311136,0.5857967929085566
0.990034760808443,0.04343903661736076,0.043461250679771135,0.02876732531937351,0.8650043271860735,0.5864298482327593
0.9807055742959261,0.03600184301611869,0.0028326966328979797,0.0723169958743334,0.9295594418303303,0.5928675880475215
0.9975514942664397,0.02667265650360179,0.046382367187857876,0.13687211051859033,0.9494805121213598,0.43805490408326964
0.9882223077539228,0.019235462902359723,0.00575381314098472,0.062189568866486314,0.9930301826763197,0.441718584898244
0.9788931212414059,0.011798269301117655,0.04930348369594462,0.12674468351074325,0.9571246665083516,0.4416233328623378
0.9957390412119196,0.0024690827886007585,0.041866290094702545,0.0861161294638701,0.8824421248562476,0.5862934550148687
0.9864098546994027,0.046018753343560655,0.10642140473895947,0.10603719975489952,0.8465366086882795,0.5872030672504761
0.9770806681868858,0.03858155974231858,0.06579285069208632,0.0313546581027955,0.8900862792432394,0.5876417752206772
0.9939265881573994,0.029252373229801686,0.05835565709084425,0.0749043286577554,0.9546413938874962,0.43269891241299313
0.9845974016448825,0.021815179628559618,0.01772710304397109,0.0002217870056513832,0.9981910644424561,0.5896741065685343
0.9752682151323656,0.01437798602731755,0.06127677359893099,0.06477690164990832,0.962285548274488,0.4383555166803177
0.9921141351028793,0.005048799514800653,0.053839579997688916,0.024148347603035164,0.887603006622384,0.5863215074271041
0.9827849485903624,0.04859847006976055,0.11839469464194585,0.044069417894064586,0.8516974904544159,0.5869384305296366
0.999630868560876,0.039269283557243656,0.11095750104070379,0.0034408638471914305,0.7770149488023119,0.5857632084344089
0.9903016820483591,0.031832089956001584,0.07032894699383063,0.04699053440215133,0.8415700634465688,0.586372999189048
0.9809724955358422,0.024394896354759516,0.029700392946957477,0.09054020495711122,0.9061251780908257,0.5911234996551634
0.9978184155063559,0.01506570984224262,0.02226319934571541,0.04991165091023807,0.8314426364387217,0.5858784930014762
0.988489228993839,0.00762851624100055,0.06581286990067531,0.114466765554495,0.8513637067297511,0.5871840785550948
0.979160042481322,0.00019132263975848128,0.025184315853802153,0.03978422390239099,0.8949133772847111,0.5875095470479194
0.9960059624518357,0.04374099319471838,0.08973943049805909,0.05970529419342041,0.859007861116743,0.5860602750682326
0.9866767759393188,0.03630379959347631,0.049110876451185934,0.1032549647483803,0.9235629757609999,0.4238680861463156
0.9773475894268019,0.02886660599223424,0.008482322404312778,0.028572423096276292,0.9671126463159598,0.5908357982664513
0.9941935093973155,0.019537419479717343,0.001045128803070709,0.07212209365123619,0.9870337166069892,0.4409822115318161
0.9848643228847986,0.012100225878475274,0.0445947993580306,0.13667720829549312,0.9511282004390211,0.44086275524823343
0.9755351363722817,0.004663032277233205,0.003966245311157447,0.06199466664338911,0.994677870993981,0.44317421066060825
0.9923810563427954,0.0482127028321931,0.06852135995541439,0.08191573693441853,0.9587723548260129,0.4371809440369957
0.9830518698302785,0.04077550923095103,0.027892805908541235,0.007233195282314517,0.9786934251170423,0.5890060994886279
0.9998977898007921,0.03144632271843413,0.020455612307299167,0.05078286583727441,0.9986144954080717,0.4392841484440037
0.9905686032882752,0.024009129117192062,0.06400528286225907,0.11533798048153135,0.9627089792401036,0.44031371749219234
0.9812394167757583,0.016571935515949994,0.02337672881538591,0.040655438829427334,0.982630049531133,0.44014133088378765
0.998085336746272,0.007242749003433097,0.015939535214143843,2.6884782554179032e-05,0.907947507879029,0.5858891595406616
0.9887561502337551,0.05079241955839299,0.08049464985840078,0.019947955073583604,0.8720419917110609,0.5865344585710442
0.9794269637212382,0.04335522595715092,0.03986609581152763,0.0634976256285435,0.9365971063553178,0.593470707358038
0.9962728836917518,0.03402603944463402,0.032428902210285555,0.02286907158167034,0.8619145647032138,0.585988002996248
0.9869436971792349,0.02658884584339195,0.07597857276524544,0.08742418622592728,0.8818356349942432,0.5874901210039593
0.977614510666718,0.01915165224214988,0.03535001871837229,0.012741644573823263,0.9253853055492032,0.5879115434894039
0.9944604306372317,0.009822465729632985,0.02791282511713022,0.05629131512878316,0.9899404201934601,0.4411928667697598
0.9851312441247148,0.002385272128390916,0.07146249567209012,0.1208464297730401,0.954034904025492,0.4405996121632103
0.9758020576121978,0.04593494268335081,0.13601761031634707,0.14076750006406952,0.9181293878575238,0.4383851017773567
0.9926479775827115,0.03660575617083392,0.128580416715105,0.10013894601719636,0.8434468462054199,0.5864522985487328
0.9833187910701946,0.02916856256959185,0.08795186266823185,0.025456404365092347,0.8869965167603797,0.587029558313539
0.9739896045576777,0.021731368968349783,0.047323308621358695,0.06900607492005224,0.9515516314046366,0.432800052290624
0.9908355245281913,0.012402182455832887,0.03988611502011662,0.028377520873179088,0.8768690897525326,0.5863945826796094
0.9815063380156744,0.004964988854590817,0.08343578557507653,0.09293263551743602,0.896790160043562,0.5895752277549917
0.9983522579861881,0.048514659409550714,0.14799090021933348,0.11285370580846545,0.8608846438755939,0.5859880017277492
0.9890230714736712,0.04107746580830864,0.10736234617246032,0.03817116415636143,0.9044343144305538,0.5868441844548506
0.9796938849611543,0.03364027220706657,0.06673379212558717,0.08172083471132133,0.9689894290748107,0.44074102210187727
0.9965398049316679,0.024311085694549674,0.059296598524345094,0.04109228066444817,0.8943068874227067,0.5860563850740181
0.987210618419151,0.016873892093307606,0.01866804447747194,0.08464195121940807,0.9588620020669636,0.43862511588661685
0.9778814319066341,0.009436698492065538,0.062217715032431835,0.149197065863665,0.978783072357993,0.44310981735111993
0.9947273518771478,0.00010751197954864122,0.05478052143118976,0.10856851181679184,0.904100530705889,0.42799542258577056
0.9853981653646309,0.04365718253450854,0.1193356360754467,0.12848958210782127,0.8681950145379209,0.5901052862029654
0.976068978852114,0.036219988933266466,0.07870708202857354,0.053807040455717256,0.9117446850928808,0.588839682980627
0.9929148988226276,0.02689080242074957,0.07126988842733148,0.0131784864088441,0.8370621434407768,0.5861470062889218
0.9835857123101107,0.0194536088195075,0.030641334380458324,0.056728156963804,0.9016172580850337,0.5876155757027528
0.9742565257975938,0.012016415218265433,0.07419100493541822,0.12128327160806093,0.9215383283760631,0.43660215963074817
0.9911024457681075,0.002687228705748536,0.06675381133417616,0.08065471756118778,0.8468557867239591,0.5864550142382815
0.9817732592555906,0.04623689926070843,0.13130892597843308,0.1005757878522172,0.810950270555991,0.5870853577317393
0.9986191792261042,0.03690771274819153,0.12387173237719101,0.059947233805344044,0.736267728903887,0.5858115010378716
0.9892899927135873,0.029470519146949464,0.08324317833031786,0.10349690436030394,0.8008228435481439,0.5864791960861634
0.9799608062010704,0.022033325545707395,0.0426146242834447,0.028814362708199925,0.8443725141031038,0.5869566338461043
0.9968067261715841,0.012704139033190499,0.03517743068220263,0.07236403326315982,0.9089276287473607,0.5862633758170239
