prior,sens_tac,spec_tac,sens_vis,spec_vis,density
0.11289991266444582,0.6052293612689541,0.32982026229001793,0.29814937370166583,0.12871283342225012,0.7989888727994301
0.12697650943188882,0.6474753140774828,0.32454117227044976,0.21659290188647756,0.041742337537809066,0.8494467080985852
0.12697650943188882,0.6474753140774828,0.32454117227044976,0.21659290188647756,0.041742337537809066,0.4720226979029694
0.1410531061993318,0.6897212668860115,0.3192620822508816,0.1350364300712893,0.09449720575433881,0.4720226979029694
0.1551297029667748,0.7319672196945403,0.31398299223131343,0.05347995825610101,0.0075267098698977575,0.46056134077157423
0.1692062997342178,0.774213172503069,0.30870390221174526,0.10623482647263076,0.05247692397124684,0.4605698379828844
0.1832828965016608,0.8164591253115977,0.3034248121921771,0.024678354657442475,0.10523179218777659,0.4605841003537258
0.1973594932691038,0.8587050781201264,0.29814572217260893,0.07743322287397222,0.15018200628912567,0.4605889893949746
0.2114360900365468,0.9009510309286551,0.29286663215304076,0.13018809109050197,0.19513222039047476,0.4605874581318985
0.22551268680398978,0.9431969837371839,0.2875875421334726,0.04863161927531369,0.1081617245060337,0.4605975325252295
0.23958928357143278,0.9854429365457126,0.28230845211390443,0.10138648749184344,0.15311193860738279,0.46059462354796243
0.25366588033887577,0.9801638465261444,0.20075198029871616,0.014415991607402381,0.20586680682391253,0.46057508084527365
0.26774247710631877,0.9748847565065762,0.11919550848352788,0.06717085982393213,0.2508170209252616,0.4605409601203401
0.28181907387376176,0.9696056664870081,0.03763903666833959,0.11992572804046188,0.2957672350266107,0.4603543230424964
0.29589567064120476,0.9643265764674399,0.09039390488486934,0.16487594214181095,0.3133121533132499,0.4604657288351028
0.30997226740864775,0.9590474864478717,0.008837433069681058,0.07790544625736989,0.36606702152977966,0.4551899609845251
0.32404886417609075,0.9537683964283036,0.06159230128621081,0.12285566035871898,0.3836119398164189,0.46538606211510736
0.33812546094353374,0.9960143492368323,0.05631321126664262,0.04129918854353069,0.29664144393197783,0.4604687827680601
0.35220205771097673,0.9907352592172641,0.10906807948317238,0.08624940264487978,0.31418636221861707,0.4604374637404122
0.36627865447841973,0.985456169197696,0.027511607667984092,0.13900427086140954,0.35913657631996615,0.4607498739771387
0.3803552512458627,0.9801770791781278,0.08026647588451384,0.18395448496275862,0.3766814946066054,0.46405123081230665
0.3944318480133057,0.9748979891585596,0.1330213441010436,0.2289046990641077,0.3942264128932446,0.4780863418237387
0.4085084447807487,0.9696188991389915,0.05146487228585532,0.14193420317966665,0.44698128110977436,0.4908261637696931
0.4225850415481917,0.9643398091194233,0.10421974050238507,0.18688441728101574,0.4645261993964136,0.5395052946888506
0.4366616383156347,0.9590607190998551,0.022663268687196786,0.09991392139657468,0.5172810676129433,0.4504551635067161
0.4507382350830777,0.953781629080287,0.07541813690372653,0.14486413549792376,0.5348259858995826,0.6257044987403663
0.4507382350830777,0.953781629080287,0.07541813690372653,0.14486413549792376,0.5348259858995826,0.4733448372985115
0.4648148318505207,0.9960275818888157,0.07013904688415835,0.06330766368273548,0.4478554900151416,0.4733448372985115
0.4788914286179637,0.9907484918692475,0.1228939151006881,0.10825787778408456,0.4654004083017808,0.5017073172472993
0.4929680253854067,0.9854694018496793,0.04133744328549982,0.021287381899643507,0.5181552765183106,0.518917170242969
0.5070446221528496,0.9801903118301112,0.09409231150202957,0.06623759600099259,0.5357001948049499,0.5806217032731205
0.5211212189202926,0.974911221810543,0.012535839686841285,0.11899246421752234,0.5806504089062989,0.44996280254141263
0.5351978156877356,0.9696321317909748,0.06529070790337103,0.16394267831887144,0.5981953271929382,0.6932621611781218
0.5492744124551786,0.9643530417714067,0.11804557611990078,0.20889289242022052,0.6157402454795775,0.6967668395928538
0.5492744124551786,0.9643530417714067,0.11804557611990078,0.20889289242022052,0.6157402454795775,0.4514619343528025
0.5633510092226216,0.9590739517518385,0.0364891043047125,0.12192239653577946,0.6684951136961073,0.4514619343528025
0.5774276059900646,0.9537948617322703,0.08924397252124225,0.16687261063712855,0.6860400319827465,0.6896036109515913
0.5915042027575076,0.9960408145407991,0.08396488250167407,0.08531613882194027,0.5990695360983055,0.6870318456990107
0.5915042027575076,0.9960408145407991,0.08396488250167407,0.08531613882194027,0.5990695360983055,0.44908643129941184
0.6055807995249506,0.9907617245212309,0.0024084106864857846,0.13807100703847003,0.6440197501996545,0.44908643129941184
0.6196573962923936,0.9854826345016627,0.055163278903015533,0.1830212211398191,0.6615646684862938,0.6867886705406893
0.6337339930598366,0.9802035444820946,0.10791814711954528,0.2279714352411682,0.6791095867729331,0.6825829808808811
0.6478105898272796,0.9749244544625264,0.026361675304357,0.14100093935672714,0.7318644549894628,0.6803354072584643
0.6618871865947226,0.9696453644429582,0.07911654352088675,0.18595115345807622,0.7494093732761021,0.6714703055362929
0.6759637833621656,0.9643662744233901,0.1318714117374165,0.2309013675594253,0.7669542915627414,0.6729399091704964
0.6900403801296086,0.9590871844038219,0.05031493992222823,0.14393087167498425,0.8197091597792712,0.6628012597147003
0.6900403801296086,0.9590871844038219,0.05031493992222823,0.14393087167498425,0.8197091597792712,0.44522947495413945
0.7041169768970515,0.9538080943842537,0.10306980813875798,0.18888108577633334,0.8372540780659105,0.44522947495413945
0.7181935736644945,0.9960540471927825,0.0977907181191898,0.10732461396114505,0.7502835821814694,0.662510596780774
0.7322701704319375,0.9907749571732143,0.016234246304001512,0.020354118076703995,0.8030384503979991,0.6578319062182867
0.7463467671993805,0.9854958671536461,0.06898911452053126,0.06530433217805308,0.8205833686846384,0.651355005719499
0.7604233639668235,0.980216777134078,0.12174398273706101,0.11025454627940216,0.8381282869712777,0.6448570813690744
0.7744999607342665,0.9749376871145098,0.04018751092187273,0.023284050394961106,0.8908831551878075,0.6408449932673745
0.7885765575017095,0.9696585970949416,0.09294237913840248,0.06823426449631019,0.9084280734744468,0.6362944583174955
0.8026531542691525,0.9643795070753735,0.011385907323214192,0.12098913271283994,0.9533782875757959,0.6342679371432997
0.8026531542691525,0.9643795070753735,0.011385907323214192,0.12098913271283994,0.9533782875757959,0.44643882268266544
0.8167297510365955,0.9591004170558053,0.06414077553974394,0.16593934681418904,0.9709232058624352,0.44643882268266544
0.8308063478040385,0.9538213270362371,0.11689564375627369,0.21088956091553812,0.9884681241490745,0.4451371141566867
0.8448829445714815,0.9960672798447658,0.11161655373670551,0.12933308910034985,0.9014976282646334,0.439755629318617
0.8589595413389245,0.9907881898251977,0.030060081921517226,0.042362593215908795,0.9542524964811632,0.623808227897854
0.8589595413389245,0.9907881898251977,0.030060081921517226,0.042362593215908795,0.9542524964811632,0.44530488440153826
0.8730361381063675,0.9855090998056295,0.08281495013804697,0.08731280731725788,0.9717974147678025,0.44530488440153826
0.8871127348738105,0.9802300097860613,0.0012584783228586915,0.00034231143281682197,0.9893423330544417,0.4470844615491085
0.9011893316412535,0.9749509197664932,0.05401334653938844,0.045292525534165906,0.9215863105203803,0.6088709788008373
0.9011893316412535,0.9749509197664932,0.05401334653938844,0.045292525534165906,0.9215863105203803,0.43920550125864877
0.9152659284086965,0.969671829746925,0.10676821475591819,0.09024273963551499,0.9391312288070196,0.43920550125864877
0.9293425251761395,0.9643927397273568,0.025211742940729906,0.0032722437510739333,0.9918860970235494,0.442396586887254
0.9434191219435825,0.9591136497077887,0.07796661115725965,0.04822245785242302,0.9241300744894879,0.5988886138404673
0.9434191219435825,0.9591136497077887,0.07796661115725965,0.04822245785242302,0.9241300744894879,0.43658821973657846
0.9574957187110255,0.9538345596882205,0.13072147937378942,0.0931726719537721,0.9416749927761272,0.43658821973657846
0.9715723154784685,0.9960805124967492,0.12544238935422122,0.011616200138583818,0.8547044968916861,0.5938178597220617
0.9856489122459114,0.9908014224771811,0.04388591753903294,0.06437106835511357,0.8996547109930353,0.589113623765417
0.9856489122459114,0.9908014224771811,0.04388591753903294,0.06437106835511357,0.8996547109930353,0.4058079554390551
0.9997255090133544,0.9855223324576129,0.09664078575556269,0.10932128245646265,0.9171996292796746,0.4058079554390551
0.9944464189937863,0.9039658606424246,0.009670289871121632,0.16207615067299241,0.9621498433810236,0.5873242798157214
0.9891673289742181,0.8224093888272362,0.06242515808765138,0.2070263647743415,0.9796947616676629,0.5897265444015822
0.9838882389546499,0.7408529170120479,0.11518002630418113,0.2519765788756906,0.9972396799543022,0.5939666503845065
0.9979648357220929,0.7830988698205766,0.10990093628461295,0.1704201070605023,0.9102691840698611,0.5862711835289776
0.9926857457025248,0.7015423980053883,0.022930440400171892,0.22317497527703206,0.9552193981712103,0.5884787468600827
0.9874066556829566,0.6199859261902,0.07568530861670164,0.26812518937838115,0.9727643164578496,0.5925645652852052
0.9821275656633884,0.5384294543750117,0.1284401768332314,0.31307540347973023,0.9903092347444888,0.599752451929028
0.9962041624308314,0.5806754071835404,0.12316108681366321,0.23151893166454196,0.9033387388600478,0.5870007709869534
0.9909250724112633,0.4991189353683521,0.03619059092922215,0.2842737998810717,0.9482889529613969,0.5921462423885704
0.9856459823916951,0.41756246355316384,0.0889454591457519,0.3292240139824208,0.9658338712480362,0.6023173709056929
0.9997225791591381,0.45980841636169256,0.08366636912618372,0.24766754216723252,0.8788633753635952,0.5859016965178084
0.9944434891395699,0.3782519445465043,0.13642123734271347,0.2926177562685816,0.8964082936502344,0.5910712347537678
0.9944434891395699,0.3782519445465043,0.13642123734271347,0.2926177562685816,0.8964082936502344,0.4247358975487593
0.9891643991200018,0.296695472731316,0.04945074145827241,0.34537262448511136,0.9413585077515836,0.4247358975487593
0.9838853091004336,0.21513900091612775,0.10220560967480216,0.39032283858646044,0.9589034260382229,0.4433537994871271
0.9979619058678766,0.25738495372465653,0.09692651965523398,0.30876636677127217,0.8719329301537818,0.41821814865618623
0.9926828158483084,0.17582848190946826,0.009956023770792924,0.3615212349878019,0.9168831442551308,0.4399377578166797
0.9874037258287403,0.09427201009427998,0.06271089198732267,0.406471449089151,0.9344280625417701,0.4457233059437973
0.9821246358091721,0.012715538279091693,0.11546576020385242,0.4514216631905001,0.9519729808284094,0.4514423530724175
0.9962012325766151,0.05496149108762044,0.11018667018428424,0.3698651913753118,0.8650024849439684,0.43975637962541025
0.9909221425570469,0.10771635930415019,0.15513688428563333,0.38741010966195105,0.7972464624099069,0.4385930805787591
0.9856430525374787,0.026159887488961905,0.06816638840119227,0.4401649778784808,0.8421966765112561,0.4472163327568385
0.9997196493049217,0.06840584029749065,0.06288729838162409,0.35860850606329253,0.755226180626815,0.4120211378826642
0.9944405592853536,0.1211607085140204,0.10783751248297317,0.37615342434993176,0.6874701580927536,0.4135066720245856
0.9891614692657854,0.03960423669883212,0.020867016598532115,0.4289082925664615,0.7324203721941027,0.4371412427137041
0.9838823792462172,0.09235910491536187,0.0658172306998812,0.44645321085310075,0.6646643496600413,0.42906641431705594
0.9979589760136602,0.13460505772389061,0.06053814068031301,0.3648967390379125,0.5776938537756002,0.5859360625221196
0.9926798859940921,0.05304858590870233,0.11329300889684277,0.40984695313926156,0.5952387720622395,0.5890894501394122
0.9874007959745239,0.10580345412523208,0.15824322299819185,0.4273918714259008,0.5274827495281781,0.5871632713618768
0.9874007959745239,0.10580345412523208,0.15824322299819185,0.4273918714259008,0.5274827495281781,0.4266448682473153
0.9821217059549557,0.024246982310043796,0.0712727271137508,0.48014673964243054,0.5724329636295271,0.4266448682473153
0.9961983027223987,0.06649293511857254,0.06599363709418261,0.3985902678272423,0.48546246774508606,0.5859648514016963
0.9909192127028306,0.11924780333510229,0.1109438511955317,0.4161351861138815,0.4177064452110246,0.5862029514493625
0.9856401226832624,0.03769133151991401,0.02397335531109064,0.46889005433041125,0.4626566593123737,0.5868853510139527
0.9997167194507054,0.07993728432844276,0.018694265291522454,0.387333582515223,0.37568616342793265,0.5857580108955789
0.9944376294311372,0.13269215254497252,0.06364447939287154,0.4048785008018622,0.3079301408938712,0.5859889675641866
0.9891585394115691,0.051135680729784236,0.1163993476094013,0.4498287149032113,0.32547505918051045,0.5862343007818852
0.9838794493920009,0.10389054894631398,0.16134956171075038,0.46737363318985053,0.257719036646449,0.5864604900969808
0.9979560461594439,0.14613650175484272,0.15607047169118218,0.38581716137466227,0.17074854076200796,0.5858306211917736
0.9926769561398757,0.06458002993965443,0.06909997580674113,0.438572029591192,0.21569875486335705,0.5860489219430832
0.9873978661203076,0.11733489815618418,0.11405018990809021,0.45611694787783125,0.1479427323292956,0.5862714453443084
0.9821187761007394,0.0357784263409959,0.027079694023649153,0.508871816094361,0.1928929464306447,0.5864939718076633
0.9961953728681824,0.07802437914952465,0.021800604004080966,0.4273153442791728,0.10592245054620364,0.5858966378721611
0.9909162828486142,0.1307792473660544,0.06675081810543004,0.444860262565812,0.03816642801214219,0.5861114398370038
0.985637192829046,0.04922277555086611,0.11950568632195979,0.4898104766671611,0.055711346298781446,0.5863193493801433
0.999713789596489,0.09146872835939486,0.11422659630239161,0.40825400485197283,0.10846621451531119,0.585756906450222
0.9944346995769209,0.009912256544206577,0.027256100417950554,0.4610088730685026,0.15341642861666027,0.5859650838743103
0.9891556095573527,0.06266712476073633,0.07220631451929964,0.4785537913551418,0.08566040608259883,0.5861805633098786
0.9838765195377845,0.11542199297726607,0.11715652862064872,0.49609870964178104,0.017904383548537378,0.5864024286482048
0.9979531163052275,0.15766794578579482,0.11187743860108054,0.4145422378265928,0.07065925176506713,0.5858290543534976
0.9926740262856594,0.07611147397060654,0.024906942716639485,0.4672971060431225,0.11560946586641621,0.5860407462131835
0.9873949362660912,0.12886634218713627,0.06985715681798857,0.48484202432976176,0.047853443332354764,0.5862595746603984
0.982115846246523,0.04730987037194799,0.12261202503451832,0.5297922384311109,0.06539836161899401,0.5864716159086671
0.996192443013966,0.08955582318047674,0.11733293501495014,0.4482357666159226,0.11815322983552376,0.5859005855392987
0.9909133529943979,0.007999351365288454,0.03036243913050908,0.5009906348324524,0.16310344393687284,0.5861118341861303
0.9856342629748297,0.0607542195818182,0.07531265323185816,0.5185355531190917,0.0953474214028114,0.5863315304464668
0.9997108597422727,0.10300017239034695,0.07003356321228998,0.43697908130390345,0.00837692551837034,0.5857568301263463
0.9944317697227045,0.021443700575158667,0.12278843142881973,0.48192929540525253,0.025921843805009594,0.5859620385664752
0.9891526797031364,0.07419856879168842,0.16773864553016882,0.49947421369189177,0.03726078667827065,0.5861857355646914
0.9838735896835682,0.12695343700821815,0.2126888596315179,0.517019131978531,0.04859972955153171,0.5864266329797757
0.9979501864510112,0.1691993898167469,0.2074097696119497,0.43546266016334273,0.10135459776806147,0.585832071960004
0.992671096431443,0.08764291800155861,0.12043927372750865,0.4882175283798725,0.14630481186941055,0.5860512481034302
0.9873920064118749,0.006086446186370331,0.03346877784306759,0.5409723965964022,0.19125502597075963,0.5862767323420479
0.9821129163923067,0.05884131440290008,0.07841899194441668,0.5585173148830415,0.12349900343669819,0.5864986841548542
0.9961895131597497,0.10108726721142883,0.0731399019248485,0.4769608430678532,0.03652850755225713,0.5858983037264385
0.9909104231401815,0.019530795396240544,0.12589477014137823,0.5219110571692023,0.054073425838896384,0.586105901240783
0.9856313331206134,0.07228566361277029,0.17084498424272732,0.5394559754558416,0.06541236871215744,0.5863416834397015
0.9997079298880563,0.11453161642129904,0.16556589422315912,0.4578995036406533,0.11816723692868719,0.5857575249846741
0.9944288398684882,0.03297514460611076,0.07859539833871806,0.510654371857183,0.16311745103003628,0.5859752245646977
0.98914974984892,0.0857300128226405,0.12354561244006715,0.5281992901438223,0.09536142849597483,0.5861968781790079
0.9838706598293518,0.004173541007452222,0.03657511655562609,0.580954158360352,0.14031164259732393,0.5864200918148373
0.9979472565967948,0.04641949381598097,0.031296026536057904,0.49939768654516375,0.05334114671288287,0.5858262502070485
0.9926681665772267,0.09917436203251072,0.07624624063740698,0.516942604831803,0.06468008958614392,0.5860451869375473
0.9873890765576585,0.017617890217322435,0.12900110885393673,0.561892818933152,0.08222500787278317,0.5862595469558516
0.9821099865380903,0.07037275843385218,0.17395132295528581,0.5794377372197913,0.014468985338721721,0.5864884176538577
0.9961865833055333,0.11261871124238093,0.16867223293571762,0.49788126540460304,0.06722385355525147,0.5859034886267925
0.9909074932859652,0.031062239427192648,0.08170173705127656,0.5506361336211327,0.11217406765660055,0.5861188113687394
0.985628403266397,0.0838171076437224,0.12665195115262565,0.568181051907772,0.04441804512253911,0.5863422993745728
0.99970500003384,0.12606306045225113,0.12137286113305747,0.48662458009258375,0.09717291333906886,0.5857576455837843
0.9944259100142718,0.04450658863706285,0.03440236524861641,0.5393794483091134,0.14212312744041794,0.5859763580736115
0.9891468199947037,0.0972614568535926,0.0793525793499655,0.5569243665957527,0.0743671049063565,0.5861973863597473
0.9838677299751355,0.015704985038404312,0.13210744756649523,0.6018745806971018,0.09191202319299574,0.5864236263706589
0.9979443267425785,0.05795093784693306,0.12682835754692703,0.5203181088819134,0.004941527308554683,0.585827345421239
0.9926652367230103,0.11070580606346281,0.17177857164827612,0.5378630271685527,0.01628047018181574,0.5860493137281229
0.9873861467034422,0.029149334248274525,0.08480807576383506,0.5906178953850825,0.061230684283164825,0.5862616664848082
0.982107056683874,0.08190420246480427,0.12975828986518415,0.6081628136717218,0.07256962715642588,0.5865145083256961
0.996183653451317,0.12415015527333302,0.12447919984561596,0.5266063418565334,0.12532449537295565,0.5859080801257006
0.9909045634317488,0.04259368345814474,0.03750870396117491,0.5793612100730632,0.17027470947430473,0.5861415612102804
0.9856254734121807,0.09534855167467449,0.08245891806252399,0.5969061283597025,0.10251868694024328,0.5863659407547531
0.9997020701796236,0.13759450448320323,0.07717982804295581,0.5153496565445141,0.015548191055802227,0.5857575547670364
0.9944229801600555,0.05603803266801495,0.12993469625948556,0.5602998706458633,0.03309310934244148,0.5859723816644112
0.9891438901404873,0.1087929008845447,0.17488491036083464,0.5778447889325026,0.04443205221570254,0.5862067577386563
0.9838648001209191,0.027236429069356416,0.08791441447639359,0.6305996571490323,0.08938226631705162,0.5864362803009219
0.9979413968883621,0.06948238187788516,0.08263532445682541,0.549043185333844,0.002411770432610566,0.5858279461188678
0.992662306868794,0.12223725009441491,0.1275855385581745,0.5665881036204833,0.013750713305871623,0.5860509379712716
0.9873832168492258,0.04068077827922663,0.04061504267373345,0.619342971837013,0.05870092740722071,0.5862684943835156
0.9821041268296576,0.09343564649575638,0.08556525677508253,0.6368878901236523,0.07003987028048177,0.5865250192878588
0.9961807235971006,0.13568159930428514,0.08028616675551435,0.555331418308464,0.12279473849701152,0.5859098347502107
0.9909016335775325,0.054125127489096855,0.13304103497204411,0.600281632409813,0.14033965678365076,0.5861476490518644
0.9856225435579643,0.1068799957056266,0.1779912490733932,0.6178265506964523,0.07258363424958932,0.5863806682190146
0.9996991403254073,0.14912594851415534,0.172712159053825,0.536270078881264,0.12533850246611905,0.585758512759948
0.9944200503058391,0.06756947669896705,0.08574166316938395,0.5890249470977937,0.17028871656746813,0.5859948257868268
0.989140960286271,0.1203243449154968,0.13069187727073303,0.606569865384433,0.10253269403340669,0.5862260838311307
0.9838618702667028,0.03876787310030852,0.043721381386291974,0.6593247336009628,0.14748290813475579,0.5865072798224172
0.9979384670341458,0.08101382590883727,0.03844229136672379,0.5777682617857745,0.06051241225031473,0.5858302544893957
0.9926593770145776,0.13376869412536702,0.08339250546807286,0.5953131800724137,0.07185135512357578,0.5860603976919045
0.9873802869950095,0.05221222231017873,0.1361473736846026,0.6402633941737628,0.08939627341021503,0.5863025025580819
0.9821011969754413,0.10496709052670848,0.1810975877859517,0.6578083124604021,0.02164025087615358,0.5865438647909701
0.9961777937428843,0.14721304333523721,0.1758184977663835,0.5762518406452137,0.07439511909268333,0.5859119106397843
0.9908987037233161,0.06565657152004893,0.08884800188194245,0.6290067088617435,0.11934533319403241,0.586150001661337
0.985619613703748,0.11841143973657868,0.13379821598329153,0.6465516271483828,0.051589310659970966,0.5863825552057723
0.999696210471191,0.1606573925451074,0.12851912596372334,0.5649951553331944,0.10434417887650071,0.5857586492810897
0.9944171204516228,0.07910092072991913,0.04154863007928228,0.6177500235497242,0.1492943929778498,0.5859964592090253
0.9891380304320546,0.1318557889464489,0.08649884418063136,0.6352949418363635,0.08153837044378835,0.5862273718483872
0.9838589404124864,0.05029931713126061,0.1392537123971611,0.6802451559377125,0.0990832887304276,0.5865052467439187
0.9979355371799294,0.09254526993978936,0.13397462237759292,0.5986886841225242,0.012112792845986542,0.5858314548348639
0.9926564471603613,0.010988798124601074,0.04700412649315186,0.6514435523390539,0.057063006947335626,0.5860518414681332
0.9873773571407931,0.06374366634113082,0.09195434059450094,0.6689884706256932,0.06840194982059668,0.5863051306718273
0.9820982671212249,0.11649853455766057,0.13690455469585003,0.6865333889123325,0.0006459272865352306,0.5865782067334485
0.9961748638886679,0.15874448736618932,0.13162546467628183,0.6049769170971442,0.05340079550306498,0.5859121031808273
0.9908957738690998,0.07718801555100104,0.04465496879184078,0.6577317853136739,0.09835100960441406,0.5861519532526808
0.9856166838495316,0.12994288376753077,0.08960518289318986,0.6752767036003132,0.030594987070352617,0.5863839374613855
0.9996932806169746,0.17218883657605952,0.08432609287362168,0.5937202317851249,0.08334985528688237,0.5857587831367984
0.9944141905974064,0.09063236476087123,0.13708096109015144,0.638670445886474,0.10089477357352161,0.5859969831367862
0.9891351005778383,0.00907589294568295,0.050110465205710386,0.6914253141030038,0.1458449876748707,0.5862882044903486
0.9838560105582701,0.0618307611622127,0.09506067930705947,0.7089702323896431,0.07808896514080925,0.5865115695460118
0.9979326073257131,0.10407671397074145,0.08978158928749129,0.6274137605744547,0.130843833357339,0.5858392125829225
0.9926535173061449,0.022520242155553163,0.0028110934030502327,0.6801686287909845,0.1757940474586881,0.5861260371121406
0.9873744272865768,0.07527511037208291,0.04776130750439932,0.6977135470776238,0.10803802492462665,0.5863512693546781
0.9820953372670086,0.12802997858861265,0.0927115216057484,0.7152584653642631,0.0402820023905652,0.5865844488818369
0.9961719340344516,0.1702759313971414,0.08743243158618022,0.6337019935490747,0.09303687060709495,0.58591848049258
0.9908928440148834,0.08871945958195311,0.00046193570173916343,0.6864568617656045,0.13798708470844404,0.5861910197218669
0.9856137539953153,0.007162987766764828,0.05321680391826891,0.7314070758669535,0.1555320029950833,0.5866051195886257
0.9996903507627583,0.049408940575293575,0.047937713898700725,0.6498506040517652,0.06856150711064224,0.5857586143453427
0.9944112607431901,0.10216380879182332,0.0928879280000498,0.6673955223384045,0.0008054845765807922,0.5859893497278614
0.9891321707236219,0.02060733697663504,0.005917432115608745,0.7201503905549342,0.045755698677929876,0.5862242516889001
0.9838530807040538,0.07336220519316479,0.05086764621695783,0.7376953088415735,0.057094641551190935,0.5865158349464624
0.9979296774714967,0.11560815800169354,0.04558855619738964,0.6561388370263852,0.10984950976772068,0.5858397827375753
0.9926505874519286,0.03405168618650525,0.09834342441391938,0.7010890511277343,0.12739442805435994,0.5861152250403859
0.9873714974323604,0.086806554403035,0.14329363851526847,0.7186339694143736,0.05963840552029849,0.5863589766969804
0.9820924074127922,0.005250082587846719,0.05632314263082741,0.7713888376309034,0.10458861962164757,0.5867866164007077
0.9961690041802352,0.047496035396375466,0.05104405261125922,0.689832365815715,0.017618123737206517,0.5859089182162458
0.9908899141606671,0.10025090361290522,0.0959942667126083,0.7073772841023543,0.028957066610467576,0.5861590151533861
0.9856108241410989,0.01869443179771693,0.009023770828167244,0.7601321523188841,0.07390728071181665,0.5864622108044684
0.9996874209085419,0.06094038460624568,0.0037446808085990577,0.6785756805036958,0.1266621489283464,0.5857600291504592
0.9944083308889737,0.11369525282277543,0.04869489490994814,0.696120598790335,0.058906126394284955,0.5859990746406486
0.9891292408694056,0.032138781007587144,0.10144976312647788,0.7410708128916841,0.0764510446809242,0.5862910897895941
0.9838501508498374,0.0848936492241169,0.14639997722782697,0.7586157311783234,0.008695022146862755,0.5865719972983262
0.9979267476172804,0.12713960203264563,0.14112088720825877,0.677059259363135,0.061449890363392504,0.5858410185388161
0.9926476575977122,0.04558313021745734,0.054150391323817715,0.7298141275796648,0.10640010446474159,0.5861202543476312
0.9873685675781441,0.09833799843398709,0.0991006054251668,0.7473590458663041,0.03864408193068014,0.5863638176525043
0.9820894775585759,0.01678152661879881,0.012130109540725742,0.8001139140828338,0.08359429603202922,0.5868061769849433
0.9961660743260189,0.059027479427327556,0.006851019521157556,0.7185574422676455,0.13634916424855897,0.5859469065944906
0.9908869843064507,0.1117823476438573,0.05180123362250664,0.7361023605542848,0.06859314171449753,0.5861911238298924
0.9856078942868826,0.03022587582866902,0.10455610183903638,0.7810525746556338,0.08613806000113677,0.5865922771875572
0.9996844910543256,0.07247182863719777,0.0992770118194682,0.6994961028404455,0.13889292821766652,0.5857617810526571
0.9944054010347574,0.1252266968537275,0.14422722592081727,0.7170410211270848,0.07113690568360508,0.5860236331227918
0.9891263110151892,0.04367022503853922,0.05725673003637621,0.7697958893436145,0.11608711978495416,0.5864088608573677
0.983847220995621,0.09642509325506897,0.1022069441377253,0.7873408076302538,0.04833109725089271,0.5866395838013118
0.997923817763064,0.1386710460635977,0.09692785411815712,0.7057843358150655,0.10108596546742246,0.5858489663260984
0.9926447277434959,0.05711457424840942,0.00995735823371606,0.7585392040315952,0.14603617956877155,0.5862246180512495
0.9873656377239277,0.10986944246493917,0.054907572335065144,0.7760841223182345,0.0782801570347101,0.5864477685261943
0.9820865477043595,0.028312970649750885,0.10766244055159489,0.8210343364195836,0.09582507532134935,0.5871306529772615
0.9961631444718025,0.07055892345827963,0.10238335053202671,0.7394778646043952,0.008854579436908289,0.5859249926499707
0.9908840544522344,0.12331379167480938,0.1473335646333758,0.7570227828910345,0.020193522310169347,0.586215254944595
0.9856049644326662,0.0417573198596211,0.06036306874893474,0.8097776511075643,0.06514373641151844,0.5866078588409107
0.9996815612001092,0.08400327266814984,0.05508397872936655,0.728221179292376,0.11789860462804819,0.5857621733767795
0.994402471180541,0.0024468008529615615,0.1078388469458963,0.773171393393725,0.13544352291468745,0.5861364693757966
0.9891233811609729,0.05520166906949131,0.15278906104724538,0.7907163116803643,0.067687500380626,0.5864059675434349
0.9838442911414047,0.10795653728602106,0.19773927514859446,0.8082612299670036,0.07902644325388705,0.5869466477946004
0.9979208879088477,0.1502024900945498,0.19246018512902627,0.7267047581518152,0.1317813114704168,0.5858705858053346
0.9926417978892795,0.06864601827936152,0.10548968924458521,0.779459626368345,0.17673152557176589,0.5865428133324745
0.9873627078697114,0.12140088649589127,0.1504399033459343,0.7970045446549843,0.10897550303770444,0.5866965218959453
0.9820836178501432,0.03984441468070299,0.06346940746149324,0.849759412871514,0.1539257171390535,0.5933273276891848
0.9961602146175862,0.08209036748923174,0.05819031744192505,0.7682029410563257,0.06695522125461245,0.585945752147696
0.990881124598018,0.0005338956740434525,0.11094518565845479,0.8131531551576747,0.08450013954125171,0.5863682666731826
0.9856020345784499,0.0532887638905732,0.15589539975980388,0.830698073444314,0.016744117007190265,0.5867148687640551
0.9996786313458929,0.09553471669910195,0.15061630974023568,0.7491416016291257,0.06949898522372001,0.5857624563661836
0.9943995413263247,0.013978244883913665,0.06364581385579463,0.8018964698456554,0.1144491993250691,0.586152209395729
0.9891204513067565,0.06673311310044341,0.10859602795714371,0.8194413881322947,0.04669317679100765,0.5864217567754839
0.9838413612871884,0.11948798131697316,0.1535462420584928,0.836986306418934,0.05803211966426871,0.5869885058842527
0.9979179580546313,0.1617339341255019,0.1482671520389246,0.7554298346037457,0.11078698788079847,0.585873279691484
0.9926388680350632,0.08017746231031363,0.06129665615448354,0.8081847028202754,0.15573720198214755,0.5866157493869255
0.987359778015495,0.1329323305268434,0.10624687025583263,0.8257296211069147,0.0879811794480861,0.5867301368638963
0.987359778015495,0.1329323305268434,0.10624687025583263,0.8257296211069147,0.0879811794480861,0.4408054148581607
0.9820806879959268,0.051375858711655106,0.01927637437139157,0.8784844893234445,0.13293139354943517,0.4408054148581607
0.9961572847633698,0.09362181152018385,0.013997284351823383,0.7969280175082561,0.045960897664994116,0.5859472087299429
0.9908781947438017,0.01206533970499557,0.06675215256835314,0.8418782316096052,0.06350581595163338,0.586387134435056
0.9855991047242335,0.06482020792152532,0.11170236666970222,0.8594231498962445,0.07484475882489443,0.5870723910188926
0.9996757014916765,0.10706616073005407,0.10642327665013404,0.7778666780810561,0.1275996270414242,0.5857682175212192
0.9943966114721083,0.025509688914865783,0.019452780765692984,0.8306215462975859,0.17254984114277327,0.5884850818746961
0.9891175214525402,0.07826455713139553,0.06440299486704207,0.8481664645842252,0.10479381860871183,0.5868681941361337
0.983838431432972,0.13101942534792527,0.10935320896839115,0.8657113828708645,0.03703779607465038,0.5870371997009785
0.997915028200415,0.17326537815645401,0.10407411894882297,0.7841549110556761,0.08979266429118013,0.5858759953882858
0.9926359381808468,0.09170890634126573,0.017103623064381915,0.8369097792722059,0.13474287839252921,0.5867039617603398
0.9926359381808468,0.09170890634126573,0.017103623064381915,0.8369097792722059,0.13474287839252921,0.4311825009846214
0.9873568481612787,0.010152434526077447,0.06985849128091166,0.8818599933735549,0.15228779667916847,0.4311825009846214
0.9820777581417105,0.0629073027426072,0.11480870538226075,0.8994049116601942,0.08453177414510703,0.5887505079909005
0.9961543549091535,0.10515325555113594,0.10952961536269257,0.8178484398450059,0.1372866423616368,0.5861615837364583
0.9961543549091535,0.10515325555113594,0.10952961536269257,0.8178484398450059,0.1372866423616368,0.43734160116970644
0.9908752648895853,0.02359678373594766,0.02255911947825151,0.8706033080615356,0.18223685646298587,0.43734160116970644
0.9855961748700172,0.07635165195247741,0.0675093335796006,0.8881482263481749,0.11448083392892443,0.592255836564328
0.9996727716374602,0.11859760476100616,0.06223024356003241,0.8065917545329866,0.02751033804448337,0.5857631436527398
0.994393681617892,0.03704113294581787,0.11498511177656215,0.8515419686343357,0.045055256331122624,0.5861565439606474
0.9891145915983238,0.08979600116234762,0.15993532587791123,0.869086886920975,0.05639419920438368,0.5867921265979943
0.9891145915983238,0.08979600116234762,0.15993532587791123,0.869086886920975,0.05639419920438368,0.43362178408519747
0.9838355015787557,0.008239529347159338,0.07296482999347018,0.9218417551375048,0.10134441330573277,0.43362178408519747
0.9979120983461987,0.050485482155688086,0.067685739973902,0.8402852833223164,0.01437391742129171,0.5858693148381703
0.9926330083266305,0.10324035037221783,0.11263595407525108,0.8578302016089557,0.025712860294552768,0.5862842560182908
0.9873539183070623,0.02168387855702955,0.025665458190810023,0.9105850698254855,0.07066307439590186,0.5876205976999275
0.9820748282874942,0.0744387467735593,0.0706156722921591,0.9281299881121248,0.0029070518618404123,0.5878735548469397
0.9961514250549371,0.11668469958208805,0.06533658227259093,0.8465735162969364,0.05566192007837016,0.5860188647529455
0.990872335035369,0.035128227766899764,0.11809145048912068,0.8915237303982855,0.07320683836500941,0.586897808387518
0.9855932450158008,0.08788309598342951,0.16304166459046976,0.9090686486849248,0.005450815830947961,0.5877453398053132
0.9996698417832438,0.13012904879195825,0.15776257457090156,0.8275121768697364,0.05820568404747771,0.5857694602312333
0.9943907517636756,0.04857257697676996,0.07079207868646051,0.8802670450862662,0.1031558981488268,0.5866615253667761
0.9891116617441075,0.10132744519329971,0.11574229278780959,0.8978119633729055,0.03539987561476535,0.5868538327575483
0.9891116617441075,0.10132744519329971,0.11574229278780959,0.8978119633729055,0.03539987561476535,0.45012779138235004
0.9838325717245393,0.01977097337811143,0.028771796903368535,0.9505668315894352,0.08035008971611443,0.45012779138235004
0.9979091684919823,0.062016926186640176,0.023492706883800347,0.8690103597742469,0.13310495793264418,0.5867432230840272
0.9926300784724141,0.11477179440316992,0.06844292098514942,0.8865552780608862,0.06534893539858273,0.5865218433328506
0.9926300784724141,0.11477179440316992,0.06844292098514942,0.8865552780608862,0.06534893539858273,0.4232815770707683
0.987350988452846,0.03321532258798164,0.12119778920167917,0.9315054921622352,0.08289385368522198,0.4232815770707683
0.9820718984332778,0.08597019080451139,0.16614800330302826,0.9490504104488745,0.015137831151160533,0.5891489287832212
0.9961484952007208,0.12821614361304012,0.16086891328346006,0.8674939386336862,0.06789269936769028,0.5861391615636994
0.9961484952007208,0.12821614361304012,0.16086891328346006,0.8674939386336862,0.06789269936769028,0.4373785818955724
0.9908694051811526,0.04665967179785184,0.073898417399019,0.9202488068502159,0.11284291346903937,0.4373785818955724
0.9855903151615845,0.09941454001438159,0.11884863150036809,0.9377937251368552,0.04508689093497792,0.5881402927095738
0.9996669119290275,0.14166049282291032,0.11356954148079991,0.8562372533216669,0.09784175915150767,0.5857820380798926
0.9996669119290275,0.14166049282291032,0.11356954148079991,0.8562372533216669,0.09784175915150767,0.4430753588744602
0.9943878219094593,0.06010402100772204,0.026599045596358853,0.9089921215381966,0.14279197325285675,0.4430753588744602
0.9891087318898911,0.11285888922425179,0.07154925969770794,0.9265370398248359,0.0750359507187953,0.590872760399912
0.983829641870323,0.031302417409063504,0.12430412791423769,0.971487253926185,0.09258086900543455,0.4560329650059427
0.997906238637766,0.07354837021759225,0.1190250378946695,0.8899307821109966,0.005610373120993495,0.585944214626316
0.9926271486181978,0.126303238434122,0.1639752519960186,0.9074757003976359,0.016949315994254553,0.5866750595668451
0.9926271486181978,0.126303238434122,0.1639752519960186,0.9074757003976359,0.016949315994254553,0.44717965748791266
0.9873480585986296,0.04474676661893372,0.07700475611157753,0.9602305686141657,0.06189953009560364,0.44717965748791266
0.9820689685790615,0.09750163483546347,0.12195497021292662,0.977775486900805,0.0732384729688647,0.456177554115125
0.9961455653465044,0.1397475876439922,0.11667588019335844,0.8962190150856166,0.12599334118539446,0.4153447478654334
0.9908664753269363,0.058191115828803916,0.02970538430891738,0.9489738833021464,0.17094355528674354,0.4555974116458482
0.9855873853073681,0.11094598404533366,0.07465559841026646,0.9665188015887857,0.1031875327526821,0.4557686483307824
0.9996639820748111,0.1531919368538624,0.06937650839069828,0.8849623297735973,0.01621703686824104,0.585771645926232
0.9943848920552429,0.07163546503867411,0.12213137660722803,0.9299125438749465,0.03376195515488029,0.5865218632527051
0.9891058020356748,0.12439033325520386,0.16708159070857712,0.9474574621615858,0.04510089802814135,0.5879388153044584
0.9838267120161066,0.04283386144001558,0.08011109482413606,0.9924076762629348,0.06264581631478061,0.45762541666495554
0.9979033087835496,0.08507981424854433,0.07483200480456788,0.9108512044477465,0.11540068453131036,0.4191290215297832
0.9926242187639814,0.0035233424333560442,0.1275868730210976,0.9558014185490955,0.13294560281794962,0.4548897672650268
0.9873451287444133,0.05627821064988579,0.1725370871224467,0.9733463368357348,0.06518958028388817,0.45446294102428925
0.9820660387248451,0.10903307886641554,0.21748730122379578,0.9908912551223741,0.07652852315714923,0.4567290952983856
0.9961426354922881,0.15127903167494428,0.2122082112042276,0.9093347833071858,0.12928339137367897,0.43065181343565645
0.9908635454727199,0.06972255985975599,0.12523771531978653,0.9620896515237155,0.17423360547502806,0.4563439477221049
0.9855844554531518,0.12247742807628574,0.17018792942113561,0.9796345698103548,0.10647758294096661,0.456635196976018
0.9996610522205948,0.16472338088481447,0.16490883940156742,0.8980780979951665,0.019507087056525554,0.5857851109921322
0.9996610522205948,0.16472338088481447,0.16490883940156742,0.8980780979951665,0.019507087056525554,0.4271806168331116
0.9943819622010266,0.08316690906962619,0.07793834351712636,0.9508329662116962,0.06445730115787464,0.4271806168331116
0.9891028721814584,0.0016104372544379075,0.1306932117336561,0.9957831803130452,0.08200221944451389,0.45742440939659323
0.9838237821618903,0.054365305470967656,0.1756434258350052,0.9280271577789838,0.09334116231777494,0.43292430953195055
0.9979003789293333,0.0966112582794964,0.170364335815437,0.8464706859637955,0.00637066643333388,0.5859161401459142
0.9926212889097651,0.01505478646430812,0.08339383993099594,0.8992255541803252,0.051320880534682964,0.5865282921520082
0.9873421988901969,0.06780965468083787,0.12834405403234503,0.9167704724669645,0.06265982340794402,0.5877305887835875
0.9873421988901969,0.06780965468083787,0.12834405403234503,0.9167704724669645,0.06265982340794402,0.42514048998865117
0.9820631088706288,0.12056452289736762,0.1732942681336941,0.9343153907536038,0.07399876628120507,0.42514048998865117
0.9961397056380717,0.16281047570589635,0.16801517811412592,0.8527589189384155,0.1267536344977348,0.5863743175843575
0.9961397056380717,0.16281047570589635,0.16801517811412592,0.8527589189384155,0.1267536344977348,0.451038548906893
0.9908606156185036,0.08125400389070807,0.08104468222968486,0.9055137871549452,0.17170384859908389,0.451038548906893
0.9855815255989354,0.13400887210723783,0.12599489633103395,0.9230587054415845,0.10394782606502244,0.4361973551646662
0.9996581223663784,0.17625482491576658,0.12071580631146576,0.8415022336263962,0.016977330180581382,0.5857690029163186
0.9943790323468102,0.0946983531005783,0.03374531042702471,0.894257101842926,0.061927544281930466,0.5863394312612873
0.9943790323468102,0.0946983531005783,0.03374531042702471,0.894257101842926,0.061927544281930466,0.431355059756425
0.9890999423272421,0.013141881285390011,0.08650017864355446,0.9392073159442751,0.07947246256856971,0.431355059756425
0.9838208523076739,0.06589674950191976,0.13145039274490355,0.9567522342309144,0.011716440034508266,0.5887138356408509
0.9978974490751169,0.10814270231044851,0.12617130272533536,0.875195762415726,0.06447130825103801,0.5859570268458696
0.9978974490751169,0.10814270231044851,0.12617130272533536,0.875195762415726,0.06447130825103801,0.4422860281539634
0.9926183590555487,0.026586230495260224,0.0392008068408943,0.9279506306322558,0.1094215223523871,0.4422860281539634
0.9873392690359806,0.07934109871178997,0.08415102094224339,0.9454955489188951,0.04166549981832565,0.5879026865827907
0.9873392690359806,0.07934109871178997,0.08415102094224339,0.9454955489188951,0.04166549981832565,0.4434373852655853
0.9820601790164124,0.1320959669283197,0.12910123504359247,0.9630404672055344,0.05300444269158671,0.4434373852655853
0.9961367757838554,0.17434191973684846,0.12382214502402429,0.881483995390346,0.10575931090811647,0.5864618981265717
0.9908576857642872,0.09278544792166017,0.036851649139583234,0.9342388636068758,0.15070952500946555,0.45359796168259464
0.9855785957447191,0.011228976106471888,0.08960651735611298,0.9791890777082248,0.1682544432961048,0.4575117713678415
0.9996551925121621,0.053474928915000636,0.0843274273365448,0.8976326058930365,0.08128394741166375,0.5857964937189278
0.9943761024925939,0.10622979713153038,0.1292776414378939,0.9151775241796758,0.013527924877602307,0.5864172250006184
0.9943761024925939,0.10622979713153038,0.1292776414378939,0.9151775241796758,0.013527924877602307,0.45150636091672014
0.9890970124730257,0.0246733253163421,0.04230714555345283,0.9679323923962055,0.05847813897895139,0.45150636091672014
0.9838179224534576,0.07742819353287185,0.08725735965480191,0.9854773106828448,0.06981708185221244,0.4569821699718006
0.9978945192209006,0.1196741463414006,0.08197826963523373,0.9039208388676565,0.12257195006874219,0.4171022990488805
0.9926154292013324,0.038117674526212314,0.1347331378517635,0.9488710529690056,0.14011686835538145,0.45442940312078334
0.9873363391817642,0.09087254274274206,0.17968335195311258,0.9664159712556449,0.07236084582132,0.45358366255846444
0.982057249162196,0.00931607092755378,0.09271285606867152,0.9839608895422842,0.004604823287258558,0.5896666114489642
0.996133845929639,0.05156202373608253,0.08743376604910334,0.9024044177270959,0.05735969150378831,0.5861980852193177
0.9908547559100709,0.10431689195261228,0.13238398015045244,0.9199493360137352,0.06869863437704936,0.5874300987491269
0.9855756658905027,0.022760420137423992,0.045413484266011384,0.9727042042302649,0.11364884847839844,0.45666573272482136
0.9996522626579457,0.06500637294595274,0.040134394246443196,0.8911477324150766,0.026678352593957386,0.5857724952411115
0.9943731726383775,0.11776124116248249,0.08508460834779227,0.9086926507017159,0.038017295467218444,0.5863498691656862
0.9943731726383775,0.11776124116248249,0.08508460834779227,0.9086926507017159,0.038017295467218444,0.42087598442376883
0.9890940826188094,0.036204769347294205,0.13783947656432202,0.953642864803065,0.0555622137538577,0.42087598442376883
0.9838149925992412,0.08895963756382395,0.1827896906656711,0.9711877830897043,0.06690115662711875,0.4544871596059011
0.9978915893666842,0.1312055903723527,0.1775106006461029,0.889631311274516,0.1196560248436485,0.5134228969087127
0.992612499347116,0.049649118557164404,0.09054010476166185,0.9423861794910458,0.1646062389449976,0.4546657126551315
0.9873334093275479,0.10240398677369415,0.13549031886301094,0.959931097777685,0.09685021641093615,0.45441568316655473
0.9820543193079797,0.02084751495850587,0.04851982297856988,0.9774760160643243,0.029094193876874702,0.43418288007262446
0.9961309160754227,0.06309346776703462,0.043240732959001695,0.895919544249136,0.08184906209340445,0.5862940094781539
0.9908518260558545,0.11584833598356437,0.08819094706035077,0.9134644625357753,0.014093039559343004,0.5866775656600778
0.9908518260558545,0.11584833598356437,0.08819094706035077,0.9134644625357753,0.014093039559343004,0.451468384741866
0.9855727360362864,0.03429186416837608,0.0012204511759097147,0.966219330752305,0.05904325366069209,0.451468384741866
0.9996493328037294,0.07653781697690483,0.053975319392439464,0.9837642490389443,0.07038219653395314,0.4536231417761557
0.9943702427841612,0.12929268519343456,0.09892553349378855,0.9160082265048829,0.08172113940721419,0.5873477139672018
0.989091152764593,0.04773621337824628,0.01195503760934749,0.9687630947214126,0.1266713535085633,0.45636354522111605
0.9838120627450249,0.10049108159477603,0.056905251710696575,0.9863080130080519,0.05891533097450184,0.456824814068103
0.9978886595124679,0.14273703440330476,0.05162616169112839,0.9047515411928636,0.11167019919103159,0.4144693228104171
0.9926095694928997,0.06118056258811648,0.10438102990765813,0.9497017552942126,0.12921511747767084,0.4540718290369517
0.9873304794733315,0.11393543080464623,0.1493312440090072,0.9672466735808519,0.06145909494360939,0.4522036155480971
0.9820513894537634,0.032378958989457945,0.06236074812456616,0.9847915918674912,0.07279803781687044,0.4571117635506288
0.9961279862212064,0.07462491179798669,0.05708165810499797,0.9032351200523029,0.1255529060334002,0.4237112481138068
0.9908488962016382,0.12737978001451644,0.10203187220634705,0.9207800383389422,0.057796883499338744,0.5871376821721535
0.98556980618207,0.04582330819932816,0.01506137632190599,0.9735349065554719,0.10274709760068783,0.4565106178945363
0.999646402949513,0.0880692610078569,0.009782286302337804,0.8919784347402836,0.01577660171624677,0.5857704360383299
0.9943673129299448,0.006512789192668622,0.06253715451886756,0.9369286488416326,0.033321520002886025,0.5864906063027163
0.9890882229103767,0.05926765740919837,0.10748736862021664,0.9544735671282719,0.04466046287614708,0.5891039513322668
0.9890882229103767,0.05926765740919837,0.10748736862021664,0.9544735671282719,0.04466046287614708,0.4533756637095416
0.9838091328908085,0.11202252562572812,0.1524375827215657,0.9720184854149112,0.05599940574940814,0.4533756637095416
0.9978857296582515,0.15426847843425687,0.14715849270199752,0.8904620135997229,0.1087542739659379,0.5864728797529495
0.9926066396386833,0.07271200661906858,0.06018799681755646,0.9432168818162526,0.15370448806728698,0.4543887941459631
0.9873275496191152,0.12546687483559832,0.10513821091890554,0.9607618001028919,0.08594846553322553,0.4537446912274654
0.982048459599547,0.043910403020410035,0.018167715034464488,0.9783067183895312,0.018192442999164088,0.5892182993440874
0.99612505636699,0.08615635582893878,0.012888625014896302,0.8967502465743429,0.07094731121569384,0.5862052643743424
0.99612505636699,0.08615635582893878,0.012888625014896302,0.8967502465743429,0.07094731121569384,0.4435852190619142
0.9908459663474218,0.004599884013750499,0.06564349323142606,0.941700460675692,0.0884922295023331,0.4435852190619142
0.9855668763278537,0.05735475223028025,0.11059370733277514,0.9592453789623313,0.02073620696827165,0.5882256548777004
0.9996434730952967,0.099600705038809,0.10531461731320696,0.877688907147143,0.0734910751848014,0.5857837090335831
0.9996434730952967,0.099600705038809,0.10531461731320696,0.877688907147143,0.0734910751848014,0.4479689121245383
0.9943643830757285,0.018044233223620712,0.018344121428765903,0.9304437753636727,0.11844128928615048,0.4479689121245383
0.9890852930561603,0.07079910144015046,0.06329433553011499,0.947988693650312,0.05068526675208904,0.5889125571938181
0.9890852930561603,0.07079910144015046,0.06329433553011499,0.947988693650312,0.05068526675208904,0.45217102820338784
0.9838062030365922,0.12355396965668021,0.10824454963146407,0.9655336119369513,0.062024209625350095,0.45217102820338784
0.9978827998040352,0.16579992246520897,0.10296545961189589,0.883977140121763,0.11477907784187985,0.5864437462343305
0.992603709784467,0.08424345065002069,0.015994963727454833,0.9367320083382927,0.15972929194322893,0.4539758253344372
0.9873246197648988,0.002686978834832404,0.06874983194398458,0.9816822224396418,0.1772742102298682,0.4576591304230681
0.9820455297453307,0.05544184705136215,0.11370004604533367,0.999227140726281,0.10951818769580675,0.45790906186084707
0.9961221265127737,0.0976877998598909,0.10842095602576549,0.9176706689110927,0.02254769181136569,0.5861858426198745
0.9908430364932055,0.016131328044702617,0.02145046014132443,0.9704255371276225,0.06749790591271478,0.4535697733271398
0.9855639464736373,0.06888619626123237,0.06640067424267351,0.9879704554142618,0.07883684878597583,0.45738065792609556
0.9996405432410803,0.11113214906976111,0.061121584223105326,0.9064139835990734,0.13159171700250558,0.4192940450926788
0.9943614532215121,0.02957567725457283,0.11387645243963507,0.9513641977004226,0.14913663528914484,0.454686224527333
0.989082363201944,0.08233054547110258,0.15882666654098415,0.9689091159870619,0.08138061275508339,0.4546504973281222
0.9838032731823758,0.0007740736559142952,0.0718561706565431,0.9864540342737012,0.013624590221021943,0.592174716699187
0.9978798699498188,0.04302002646444304,0.06657708063697491,0.9048975624585128,0.06637945843755169,0.5860218715232399
0.9926007799302506,0.09577489468097279,0.111527294738324,0.9224424807451521,0.07771840131081274,0.5885822461188542
0.9873216899106825,0.014218422865784508,0.02455679885388294,0.9751973489616819,0.12266861541216183,0.4569309782628231
0.9820425998911143,0.06697329108231426,0.06950701295523203,0.9927422672483212,0.05491259287810038,0.45765461986273537
0.9961191966585573,0.109219243890843,0.06422792293566384,0.9111857954331328,0.10766746109463013,0.4154426091380564
0.9908401066389891,0.02766277207565472,0.1169827911521936,0.956136009534482,0.1252123793812694,0.4549049405392664
0.985561016619421,0.08041764029218447,0.16193300525354268,0.9736809278211213,0.05745635684720794,0.453908388288721
0.999637613386864,0.12266359310071322,0.15665391523397448,0.8921244560059329,0.11021122506373769,0.5859339262765626
0.9943585233672958,0.041107121285524933,0.06968341934953343,0.9448793242224627,0.1551614391650868,0.45427229569645794
0.9890794333477276,0.09386198950205468,0.11463363345088251,0.962424242509102,0.08740541663102534,0.4539593878670837
0.9838003433281595,0.012305517686866399,0.027663137566441454,0.9799691607957413,0.019649394096963896,0.5907291160177615
0.9978769400956025,0.054551470495395146,0.022384047546873266,0.8984126889805529,0.07240426231349364,0.5860097224023986
0.9925978500760343,0.1073063387119249,0.06733426164822234,0.9159576072671922,0.004648239779432198,0.5864918786003953
0.9873187600564661,0.025749866896736612,0.12008912986475209,0.9609078213685414,0.02219315806607145,0.5880007504409083
0.9873187600564661,0.025749866896736612,0.12008912986475209,0.9609078213685414,0.02219315806607145,0.4486913840990702
0.982039670036898,0.07850473511326636,0.16503934396610118,0.9784527396551806,0.03353210093933251,0.4486913840990702
0.996116266804341,0.12075068792179511,0.15976025394653298,0.8968962678399923,0.08628696915586226,0.5864054476828285
0.9908371767847728,0.039194216106606825,0.07278975806209192,0.9496511360565221,0.13123718325721134,0.45444821594471463
0.9855580867652046,0.09194908432313657,0.11773997216344101,0.9671960543431614,0.0634811607231499,0.45283371141464146
0.9996346835326476,0.1341950371316653,0.11246088214387283,0.885639582527973,0.11623602893967964,0.5859201320781103
0.9943555935130794,0.05263856531647702,0.02549038625943177,0.9383944507445028,0.16118624304102874,0.45384690334808836
0.9890765034935113,0.10539343353300677,0.07044060036078086,0.9559393690311421,0.0934302205069673,0.4532377824295077
0.9837974134739431,0.02383696171781849,0.1231954685773106,0.9734842873177814,0.02567419797290585,0.5903137199142968
0.9978740102413861,0.06608291452634724,0.11791637855774242,0.891927815502593,0.0784290661894356,0.5860319305075951
0.992594920221818,0.11883778274287699,0.1628665926590915,0.9094727337892323,0.010673043655374151,0.5867306084883138
0.992594920221818,0.11883778274287699,0.1628665926590915,0.9094727337892323,0.010673043655374151,0.4433851470880872
0.9873158302022498,0.0372813109276887,0.07589609677465045,0.9622276020057621,0.055623257756723235,0.4433851470880872
0.9820367401826816,0.09003617914421845,0.12084631087599954,0.9797725202924014,0.06696220062998429,0.45619603001505066
0.9961133369501246,0.13228213195274718,0.11556722085643135,0.898216048477213,0.11971706884651404,0.41498864781938305
0.9908342469305564,0.0507256601375589,0.028596724971990298,0.9509709166937428,0.16466728294786312,0.45561049851369706
0.9855551569109883,0.10348052835408865,0.07354693907333938,0.9685158349803821,0.09691126041380167,0.45576760572868097
0.9996317536784313,0.14572648116261738,0.0682678490537712,0.8869593631651937,0.009940764529360616,0.5857743394678208
0.9943526636588631,0.0641700093474291,0.12102271727030095,0.9319095772665429,0.02748568281599987,0.5865149319004307
0.9890735736392949,0.11692487756395885,0.16597293137165003,0.9494544955531822,0.03882462568926093,0.587811686851908
0.9837944836197268,0.035368405748770565,0.07900243548720898,0.9944047096545312,0.05636954397590018,0.4577663016777135
0.9978710803871698,0.07761435855729931,0.0737233454676408,0.9128482378393429,0.10912441219242994,0.4150253909806144
0.9925919903676016,0.13036922677382906,0.11867355956898988,0.9303931561259822,0.04136838965836849,0.5868366059910223
0.9873129003480334,0.04881275495864078,0.031703063684548824,0.9831480243425119,0.08631860375971757,0.4569904550252698
0.9820338103284653,0.10156762317517053,0.07665327778589791,0.9153920018084505,0.09765754663297863,0.4221399732750368
0.9961104070959083,0.14381357598369926,0.07137418776632973,0.8338355299932622,0.010687050748537569,0.5859786097612287
0.9908313170763401,0.06225710416851098,0.12412905598285948,0.8787857440946112,0.028231969035176822,0.5865313688785022
0.9855522270567719,0.11501197238504073,0.16907927008420856,0.8963306623812505,0.03957091190843788,0.5874268003214808
0.9996288238242149,0.15725792519356946,0.16380018006464037,0.8147741905660622,0.09232578012496763,0.585774791828577
0.9943497338046468,0.07570145337838118,0.07682968418019931,0.8675290587825919,0.1372759942263167,0.5879201409679299
0.9890706437850786,0.12845632159491094,0.1217798982815484,0.8850739770692312,0.06951997169225525,0.5870114735906862
0.9890706437850786,0.12845632159491094,0.1217798982815484,0.8850739770692312,0.06951997169225525,0.45249290155629873
0.9837915537655104,0.046899849779722655,0.034809402397107336,0.9378288452857609,0.11447018579360434,0.45249290155629873
0.9978681505329534,0.0891458025882514,0.02953031237753915,0.8562723734705726,0.02749968990916328,0.5858795125889824
0.9925890605133852,0.007589330773063119,0.08228518059406889,0.9012225875719218,0.045044608195802534,0.5865054247216162
0.9873099704938171,0.06034419898959287,0.12723539469541797,0.918767505858561,0.05638355106906359,0.587636975930763
0.9820308804742489,0.11309906720612262,0.17218560879676706,0.9363124241452003,0.06772249394232464,0.5062571462633552
0.9961074772416919,0.15534502001465136,0.16690651877719886,0.854755952330012,0.12047736215885439,0.5863324456121873
0.9961074772416919,0.15534502001465136,0.16690651877719886,0.854755952330012,0.12047736215885439,0.45075449588770444
0.9908283872221237,0.07378854819946308,0.07993602289275781,0.9075108205465418,0.1654275762602035,0.45075449588770444
0.9855492972025556,0.12654341641599282,0.12488623699410689,0.925055738833181,0.09767155372614204,0.4328328079001268
0.9996258939699986,0.16878936922452156,0.11960714697453871,0.8434992670179927,0.010701057841700987,0.5857714818736267
0.9943468039504304,0.08723289740933328,0.032636651090097654,0.8962541352345225,0.05565127194305007,0.5863161983267117
0.9943468039504304,0.08723289740933328,0.032636651090097654,0.8962541352345225,0.05565127194305007,0.4259554195120325
0.9890677139308622,0.005676425594144996,0.0853915193066274,0.9412043493358715,0.07319619022968932,0.4259554195120325
0.9837886239112941,0.058431293810674745,0.1303417334079765,0.9587492676225108,0.0054401676956278705,0.5890786647874231
0.9978652206787371,0.10067724661920349,0.1250626433884083,0.8771927958073225,0.05819503591215762,0.5859542893379525
0.9978652206787371,0.10067724661920349,0.1250626433884083,0.8771927958073225,0.05819503591215762,0.4396770173184281
0.9925861306591689,0.01912077480401521,0.03809214750396725,0.9299476640238522,0.1031452500135067,0.4396770173184281
0.9873070406396007,0.07187564302054496,0.08304236160531633,0.9474925823104915,0.03538922747944526,0.5877864309092812
0.9873070406396007,0.07187564302054496,0.08304236160531633,0.9474925823104915,0.03538922747944526,0.43698343875150625
0.9820279506200326,0.1246305112370747,0.12799257570666542,0.9650375005971308,0.046728170352706315,0.43698343875150625
0.9961045473874756,0.16687646404560347,0.12271348568709724,0.8834810287819425,0.09948303856923607,0.5863963485704566
0.9908254573679074,0.08531999223041518,0.03574298980265618,0.9362358969984722,0.14443325267058515,0.45351292247328934
0.9855463673483392,0.003763520415226901,0.08849785801918593,0.9811861110998212,0.16197817095722442,0.45756683696404166
0.9996229641157822,0.04600947322375565,0.08321876799961775,0.8996296392846329,0.07500767507278336,0.5857975522856752
0.994343874096214,0.0987643414402854,0.12816898210096683,0.9171745575712722,0.007251652538721912,0.5864570784232122
0.994343874096214,0.0987643414402854,0.12816898210096683,0.9171745575712722,0.007251652538721912,0.45061442492619597
0.9890647840766459,0.017207869625097114,0.041198486216525776,0.969929425787802,0.052201866640070996,0.45061442492619597
0.9837856940570777,0.06996273784162686,0.08614870031787486,0.9874743440744412,0.06354080951333205,0.4570733532517634
0.9978622908245207,0.11220869065015561,0.08086961029830668,0.9059178722592529,0.1162956777298618,0.4138052316449469
0.9925832008049525,0.030652218834967326,0.13362447851483644,0.950868086360602,0.13384059601650106,0.4544039669223652
0.9873041107853844,0.08340708705149708,0.17857469261618553,0.9684130046472413,0.06608457348243961,0.4533429422703477
0.9820250207658162,0.0018506152363087919,0.09160419673174447,0.9859579229338806,0.07742351635570066,0.4572706535689501
0.9961016175332592,0.04409656804483754,0.08632510671217629,0.9044014511186923,0.1301783845722304,0.4284556465646388
0.990822527513691,0.09685143626136729,0.1312753208135254,0.9219463694053316,0.06242236203816896,0.5872994869499751
0.9855434374941229,0.015294964446179005,0.04430482492908433,0.9747012376218613,0.10737257613951805,0.4567121346963698
0.9996200342615659,0.05754091725470775,0.03902573490951614,0.893144765806673,0.02040208025507699,0.5857744306871832
0.9943409442419977,0.1102957854712375,0.08397594901086522,0.9106896840933123,0.03174102312833805,0.5863383769907773
0.9943409442419977,0.1102957854712375,0.08397594901086522,0.9106896840933123,0.03174102312833805,0.43248641563831186
0.9890618542224295,0.028739313656049217,0.13673081722739497,0.9556398981946614,0.0492859414149773,0.43248641563831186
0.9837827642028614,0.08149418187257897,0.18168103132874405,0.9731848164813007,0.06062488428823836,0.45432291962342686
0.9978593609703044,0.12374013468110771,0.17640194130917586,0.8916283446661124,0.11337975250476812,0.5861766817596342
0.9925802709507362,0.04218366286591943,0.0894314454247348,0.9443832128826422,0.1583299666061172,0.4546535006277141
0.987301180931168,0.09493853108244918,0.13438165952608389,0.9619281311692814,0.09057394407205575,0.45432159341707634
0.9820220909115999,0.013382059267260896,0.04741116364164283,0.9794730494559207,0.022817921537994307,0.4288658475023669
0.9960986876790429,0.05562801207578964,0.04213207362207464,0.8979165776407324,0.07557278975452406,0.586260168327696
0.9908195976594747,0.10838288029231939,0.08708228772342372,0.9154614959273717,0.007816767220462609,0.5867018595858775
0.9908195976594747,0.10838288029231939,0.08708228772342372,0.9154614959273717,0.007816767220462609,0.4503922506399324
0.9855405076399065,0.02682640847713111,0.0001117918389826611,0.9682163641439014,0.05276698132181169,0.4503922506399324
0.9996171044073495,0.06907236128565986,0.05286666005551241,0.9857612824305407,0.06410592419507274,0.4538526651571536
0.9943380143877814,0.1218272295021896,0.0978168741568615,0.9180052598964793,0.0754448670683338,0.5869499062471445
0.9890589243682132,0.04027075768700132,0.010846378272420437,0.970760128113009,0.12039508116968288,0.45640586093689695
0.983779834348645,0.09302562590353107,0.05579659237376952,0.9883050463996483,0.05263905863562143,0.45691895768529883
0.997856431116088,0.1352715787120598,0.050517502354201334,0.90674857458446,0.10539392685215118,0.4311785328879629
0.9925773410965198,0.05371510689687152,0.10327237057073108,0.951698788685809,0.12293884513879044,0.4540203880549036
0.9872982510769517,0.10646997511340127,0.14822258467208016,0.9692437069724483,0.055182822604728995,0.45156032307554705
0.9820191610573835,0.024913503298212986,0.0612520887876391,0.9867886252590876,0.06652176547799005,0.45719941270442316
0.9960957578248265,0.06715945610674173,0.055972998768070915,0.9052321534438993,0.1192766336945198,0.4197463318172201
0.9908166678052583,0.11991432432327148,0.10092321286941999,0.9227770717305386,0.05152061116045835,0.5870731957918887
0.9855375777856902,0.0383578525080832,0.013952716984978936,0.9755319399470683,0.09647082526180743,0.45655251657965956
0.9996141745531332,0.08060380531661195,0.00867362696541075,0.89397546813188,0.009500329377366376,0.585772252347961
0.994335084533565,0.13335867353314168,0.05362384106675983,0.9115203864185193,0.020839272250627434,0.5862725724276651
0.9890559945139968,0.0518022017179534,0.10637870928328957,0.9564706005198684,0.03838419053726669,0.5879826791847351
0.9890559945139968,0.0518022017179534,0.10637870928328957,0.9564706005198684,0.03838419053726669,0.45292801845861963
0.9837769044944287,0.10455706993448315,0.15132892338463866,0.9740155188065077,0.049723133410527746,0.45292801845861963
0.9978535012618717,0.14680302274301188,0.14604983336507046,0.8924590469913194,0.1024780016270575,0.5862736646277942
0.9925744112423035,0.0652465509278236,0.05907933748062941,0.9452139152078491,0.1474282157284066,0.45436151211952486
0.9872953212227353,0.11800141914435335,0.10402955158197849,0.9627588334944884,0.07967219319434514,0.45355880273642124
0.9820162312031672,0.03644494732916506,0.017059055697537434,0.9803037517811277,0.011916170660283693,0.5888394956124657
0.9960928279706102,0.07869090013769381,0.011779965677969248,0.8987472799659394,0.06467103887681344,0.5861828022875124
0.990813737951042,0.13144576835422356,0.05673017977931833,0.9162921982525787,0.07600998175007449,0.5875925838981398
0.9855346479314738,0.049889296539035274,0.10948504799584807,0.9612424123539278,0.09355490003671374,0.4546122854127616
0.9996112446989168,0.09213524934756402,0.10420595797627989,0.8796859405387395,0.006584404152272683,0.5857776477325349
0.9943321546793487,0.010578777532375738,0.017235462091838835,0.9324408087552692,0.05153461825362177,0.5866051133445467
0.9943321546793487,0.010578777532375738,0.017235462091838835,0.9324408087552692,0.05153461825362177,0.42729219876315344
0.9890530646597805,0.06333364574890549,0.06218567619318792,0.9499857270419085,0.06287356112688282,0.42729219876315344
0.9837739746402123,0.11608851396543524,0.107135890294537,0.9675306453285478,0.07421250400014387,0.45443723517036133
0.9978505714076553,0.15833446677396398,0.10185680027496882,0.8859741735133595,0.12696737221667362,0.44920117626636
0.9925714813880872,0.0767779949587757,0.014886304390527766,0.9387290417298892,0.1719175863180227,0.45459380679502437
0.987292391368519,0.12953286317530543,0.05983651849187685,0.9562739600165285,0.10416156378396126,0.45435418768524133
0.9820133013489508,0.04797639136011715,0.1125913867084066,0.9738188783031678,0.03640554124989981,0.4408696622787437
0.9960898981163938,0.0902223441686459,0.10731229668883842,0.8922624064879795,0.08916040946642956,0.586365408053294
0.9908108080968256,0.008665872353457615,0.02034180080439736,0.9450172747045092,0.13411062356777864,0.4540496039725276
0.9855317180772575,0.061420740569987364,0.06529201490574645,0.9625621929911485,0.0663546010337172,0.45169192613745857
0.9996083148447005,0.10366669337851611,0.06001292488617826,0.8810057211759602,0.11910946925024694,0.5858942828149997
0.9996083148447005,0.10366669337851611,0.06001292488617826,0.8810057211759602,0.11910946925024694,0.4502063840246654
0.9943292248251323,0.022110221563327828,0.11276779310270801,0.9259559352773092,0.1366543875368862,0.4502063840246654
0.9890501348055641,0.07486508977985758,0.1577180072040571,0.9435008535639485,0.06889836500282474,0.4228042773580739
0.983771044785996,0.1276199579963873,0.20266822130540618,0.9610457718505878,0.0011423424687632966,0.5923728914616884
0.997847641553439,0.16986591080491606,0.197389131285838,0.8794893000353995,0.053897210685293045,0.5859941010841248
0.997847641553439,0.16986591080491606,0.197389131285838,0.8794893000353995,0.053897210685293045,0.43828857709293956
0.9925685515338708,0.08830943898972778,0.11041863540139693,0.9322441682519292,0.09884742478664213,0.43828857709293956
0.9872894615143026,0.006752967174539493,0.023448139516955874,0.984999036468459,0.1437976388879912,0.4578091686582964
0.9820103714947345,0.05950783539106924,0.06839835361830496,0.9172430139343976,0.15513658176125228,0.4529211691218377
0.9960869682621775,0.10175378819959799,0.06311926359873678,0.8356865421192092,0.06816608587681122,0.5860208959079187
0.9908078782426093,0.020197316384409705,0.11587413181526653,0.8806367562205584,0.08571100416345048,0.586911403341886
0.9855287882230411,0.07295218460093945,0.1608243459166156,0.8981816745071977,0.017954981629389036,0.587358432090583
0.9996053849904841,0.1151981374094682,0.1555452558970474,0.8166252026920093,0.07070984984591878,0.5857734116776054
0.994326294970916,0.03364166559427992,0.06857476001260635,0.8693800709085391,0.11566006394726787,0.586720493258475
0.9890472049513478,0.08639653381080967,0.11352497411395543,0.8869249891951784,0.04790404141320642,0.5868209837792144
0.9890472049513478,0.08639653381080967,0.11352497411395543,0.8869249891951784,0.04790404141320642,0.44801844974902794
0.9837681149317796,0.004840061995621384,0.026554478229514372,0.9396798574117081,0.0928542555145555,0.44801844974902794
0.9978447116992226,0.04708601480415013,0.021275388209946185,0.8581233855965198,0.005883759630114449,0.5858740152741839
0.9925656216796545,0.09984088302067988,0.06622560231129526,0.8756683038831591,0.017222702503375507,0.5862832413779044
0.9872865316600863,0.018284411205491596,0.11898047052782501,0.9206185179845081,0.03476762079001476,0.5873316109481488
0.9820074416405181,0.07103927942202135,0.1639306846291741,0.9381634362711474,0.04610656366327582,0.5889427220326929
0.9960840384079611,0.11328523223055009,0.1586515946096059,0.8566069644559591,0.09886143187980556,0.5862015657738596
0.9960840384079611,0.11328523223055009,0.1586515946096059,0.8566069644559591,0.09886143187980556,0.44659111180373445
0.990804948388393,0.03172876041536181,0.07168109872516484,0.9093618326724888,0.14381164598115465,0.44659111180373445
0.9855258583688248,0.08448362863189156,0.11663131282651393,0.9269067509591281,0.0760556234470932,0.5812673810477132
0.9996024551362678,0.1267295814404203,0.11135222280694575,0.8453502791439398,0.12881049166362296,0.5858019543605073
0.9996024551362678,0.1267295814404203,0.11135222280694575,0.8453502791439398,0.12881049166362296,0.4480244242583001
0.9943233651166996,0.04517310962523201,0.02438172692250469,0.8981051473604695,0.17376070576497205,0.4480244242583001
0.9890442750971314,0.09792797784176176,0.06933194102385377,0.9156500656471088,0.1060046832309106,0.427203841161864
0.9837651850775633,0.016371506026573474,0.12208680924038352,0.9606002797484579,0.12354960151754985,0.4559300255897979
0.9978417818450063,0.05861745883510222,0.11680771922081534,0.8790438079332695,0.03657910563310879,0.5859320178396428
0.9925626918254381,0.11137232705163197,0.16175793332216443,0.8965887262199088,0.04791804850636985,0.5866252383554996
0.9925626918254381,0.11137232705163197,0.16175793332216443,0.8965887262199088,0.04791804850636985,0.45191377951831424
0.9872836018058699,0.029815855236443686,0.07478743743772337,0.9493435944364386,0.09286826260771894,0.45191377951831424
0.9820045117863018,0.08257072345297344,0.11973765153907245,0.9668885127230779,0.02511224007365749,0.589197892192718
0.9960811085537448,0.12481667626150218,0.11445856151950427,0.8853320409078895,0.07786710829018724,0.5862322015950481
0.9908020185341766,0.0432602044463139,0.027488065635063216,0.9380869091244193,0.12281732239153632,0.4522736846947248
0.9855229285146084,0.09601507266284365,0.0724382797364123,0.9556318274110586,0.05506129985747488,0.42788392709200956
0.9995995252820514,0.1382610254713724,0.06715918971684412,0.8740753555958702,0.10781616807400463,0.585809077814573
0.9995995252820514,0.1382610254713724,0.06715918971684412,0.8740753555958702,0.10781616807400463,0.4414871241432041
0.9943204352624833,0.05670455365618411,0.11991405793337387,0.9190255696972194,0.1253610863606439,0.4414871241432041
0.9890413452429151,0.10945942187271386,0.16486427203472295,0.9365704879838587,0.05760506382658244,0.5881079086037805
0.9837622552233469,0.027902950057525577,0.0778937761502819,0.9893253562003884,0.10255527792793152,0.45774708364979505
0.9978388519907899,0.07014890286605432,0.07261468613071372,0.9077688843852001,0.015584782043490467,0.585942528657299
0.9925597619712218,0.12290377108258407,0.1175649002320628,0.9253138026718394,0.026923724916751525,0.5866984033981849
0.9872806719516536,0.04134729926739579,0.030594404347621743,0.9780686708883691,0.0718739390181006,0.4558707089576076
0.9820015819320854,0.09410216748392554,0.07554461844897083,0.9956135891750084,0.004117916484039155,0.5901613206652385
0.9960781786995284,0.1363481202924543,0.07026552842940265,0.9140571173598201,0.056872784700568904,0.5862656964139035
0.9960781786995284,0.1363481202924543,0.07026552842940265,0.9140571173598201,0.056872784700568904,0.4510248244527697
0.9907990886799602,0.05479164847726602,0.1230203966459324,0.9590073314611691,0.07441770298720815,0.4510248244527697
0.9855199986603921,0.10754651669379577,0.16797061074728148,0.9765522497478084,0.006661680453146704,0.5896961830981351
0.9995965954278351,0.1497924695023245,0.16269152072771328,0.8949957779326201,0.05941654866967645,0.5857962263981908
0.9995965954278351,0.1497924695023245,0.16269152072771328,0.8949957779326201,0.05941654866967645,0.4514753743326589
0.9943175054082669,0.06823599768713622,0.07572102484327223,0.9477506461491498,0.10436676277102554,0.4514753743326589
0.9890384153886987,0.12099086590366596,0.12067123894462131,0.9652955644357891,0.03661074023696409,0.5494339715397077
0.9837593253691306,0.03943439408847768,0.033700743060180255,0.9828404827224284,0.04794968311022515,0.45553571252754377
0.9978359221365736,0.08168034689700643,0.028421653040612067,0.9012840109072401,0.1007045513267549,0.5868394366584766
0.9925568321170054,0.000123875081818145,0.08117652125714181,0.9462342250085891,0.11824946961339416,0.45294055148328527
0.9872777420974372,0.052878743298347894,0.1261267353584909,0.9637791432952284,0.05049344707933272,0.4382071878421994
0.9819986520778691,0.10563361151487764,0.17107694945983998,0.9813240615818677,0.061832389952593776,0.4560799271479147
0.9960752488453121,0.14787956432340638,0.16579785944027178,0.8997675897666794,0.11458725816912352,0.4220208671151548
0.9907961588257439,0.06632309250821809,0.07882736355583073,0.9525224579832091,0.1595374722704726,0.45559676144388633
0.9855170688061757,0.11907796072474784,0.12377757765717981,0.9700673762698484,0.09178144973641116,0.4557075150988406
0.9995936655736187,0.16132391353327658,0.11849848763761163,0.8885109044546601,0.004810953851970098,0.5857854735189918
0.9943145755540506,0.07976744171808829,0.03152799175317057,0.9412657726711898,0.04976116795331918,0.5867633409536334
0.9943145755540506,0.07976744171808829,0.03152799175317057,0.9412657726711898,0.04976116795331918,0.442898496111168
0.9890354855344824,0.13252230993461805,0.07647820585451966,0.9588106909578291,0.06110011082658024,0.442898496111168
0.9837563955149142,0.05096583811942977,0.1292330740710494,0.9763556092444684,0.0724390536998413,0.4558379898441085
0.9978329922823572,0.09321179092795852,0.12395398405148121,0.8947991374292801,0.12519392191637105,0.41302851090999226
0.9925539022627891,0.011655319112770235,0.036983488167040154,0.9475540056458098,0.17014413601772013,0.45525776157684844
0.9872748122432209,0.06441018732929998,0.08193370226838924,0.9650989239324491,0.10238811348365869,0.45543069873186054
0.9819957222236527,0.11716505554582973,0.12688391636973834,0.9826438422190884,0.03463209094959724,0.4535497903734111
0.9960723189910957,0.15941100835435848,0.12160482635017016,0.9010873704039001,0.08738695916612699,0.5864786119867277
0.9907932289715276,0.0778545365391702,0.0346343304657291,0.9538422386204298,0.13233717326747607,0.45495799939988063
0.9855141389519594,0.13060940475569993,0.07958454456707818,0.9713871569070691,0.06458115073341462,0.45418405276527407
0.9995907357194024,0.17285535756422868,0.07430545454751,0.8898306850918808,0.11733601894994437,0.5838854251731727
0.9943116456998342,0.0912988857490404,0.12706032276403975,0.9347808991932298,0.13488093723658362,0.4518851282477867
0.989032555680266,0.009742413933852112,0.040089826879598695,0.9875357674097596,0.1798311513379327,0.4579735728054454
0.9837534656606979,0.06249728215038186,0.08504004098094778,0.9197797448756981,0.19117009421119377,0.4547108508445868
0.9978300624281409,0.10474323495891061,0.0797609509613796,0.8382232730605098,0.10419959832675271,0.5859483284235937
0.9925509724085727,0.023186763143722325,0.13251581917790933,0.8831734871618588,0.12174451661339197,0.5847277532504562
0.9872718823890045,0.07594163136025207,0.17746603327925842,0.9007184054484981,0.053988494079330526,0.5874072976568651
0.9819927923694364,0.1286964995767818,0.2224162473806075,0.9182633237351374,0.06532743695259158,0.5890792450973739
0.9960693891368794,0.17094245238531056,0.2171371573610393,0.8367068519199491,0.11808230516912133,0.5862294390581559
0.9960693891368794,0.17094245238531056,0.2171371573610393,0.8367068519199491,0.11808230516912133,0.44073197558622584
0.9907902991173112,0.08938598057012227,0.13016666147659825,0.8894617201364788,0.1630325192704704,0.44073197558622584
0.985511209097743,0.00782950875493399,0.04319616559215719,0.9422165883530086,0.2079827333718195,0.4562980505894678
0.999587805865186,0.050075461563462736,0.037917075572589005,0.8606601165378203,0.12101223748737844,0.5858101981462901
0.9943087158456179,0.10283032977999249,0.08286728967393808,0.8782050348244596,0.05325621495331699,0.5862569659171403
0.9890296258260497,0.021273857964804202,0.13562215789046783,0.9231552489258086,0.07080113323995624,0.5881307141191888
0.9837505358064815,0.07402872618133395,0.18057237199181692,0.9407001672124479,0.0030451107058947907,0.58963018173148
0.9978271325739245,0.1162746789898627,0.17529328197224872,0.8591436953972595,0.05579997892242454,0.5859445585150135
0.9978271325739245,0.1162746789898627,0.17529328197224872,0.8591436953972595,0.05579997892242454,0.4197329386577973
0.9925480425543564,0.034718207174674415,0.08832278608780766,0.9118985636137893,0.10075019302377362,0.4197329386577973
0.9872689525347882,0.08747307539120416,0.13327300018915675,0.9294434819004286,0.03299417048971218,0.5875466441343148
0.98198986251522,0.00591660357601588,0.04630250430471569,0.9821983501169583,0.07794438459106126,0.45696984321659184
0.996066459282663,0.04816255638454463,0.041023414285147504,0.90064187830177,0.130699252807591,0.4255149115881893
0.9907873692630949,0.10091742460107438,0.08597362838649658,0.9181867965884093,0.06294323027352956,0.5871723091448505
0.9855082792435267,0.019360952785886093,0.13872849660302633,0.9631370106897583,0.08048814856016881,0.4539295748389579
0.9995848760109697,0.06160690559441484,0.13344940658345814,0.88158053887457,0.13324301677669856,0.464055160041413
0.9943057859914015,0.11436177381094459,0.17839962068480722,0.8991254571612093,0.06548699424263711,0.5865433301667904
0.9890266959718333,0.032805301995756306,0.09142912480036616,0.951880325377739,0.1104372083439862,0.45387790991881544
0.9837476059522652,0.08556017021228605,0.13637933890171525,0.9694252436643783,0.04268118580992475,0.44023019446898665
0.9978242027197082,0.1278061230208148,0.13110024888214705,0.88786877184919,0.0954360540264545,0.5861104467255223
0.99254511270014,0.046249651205626505,0.044129752997705995,0.9406236400657197,0.14038626812780358,0.4535310330309979
0.9872660226805718,0.09900451942215625,0.08907996709905508,0.958168558352359,0.07263024559374213,0.45099274169960674
0.9819869326610037,0.01744804760696797,0.0021094712146140226,0.9757134766389983,0.004874223059680688,0.5882805675455982
0.9819869326610037,0.01744804760696797,0.0021094712146140226,0.9757134766389983,0.004874223059680688,0.4527557659725091
0.9960635294284467,0.05969400041549672,0.05486433943114377,0.9932583949256376,0.016213165932941746,0.4527557659725091
0.9907844394088785,0.11244886863202647,0.09981455353249286,0.9255023723915762,0.027552108806202805,0.5868780946828758
0.9855053493893103,0.030892396816838183,0.012844057648051799,0.9782572406081059,0.07250232290755189,0.4560737070293244
0.9995819461567533,0.07313834962536693,0.007564967628483613,0.8967007687929176,0.12525719112408162,0.4098225622915329
0.9943028561371852,0.12589321784189667,0.052515181729832695,0.9142456870795569,0.05750116859002018,0.5864940275368251
0.9943028561371852,0.12589321784189667,0.052515181729832695,0.9142456870795569,0.05750116859002018,0.45163711097778375
0.989023766117617,0.04433674602670838,0.10527004994636244,0.9591959011809059,0.07504608687665942,0.45163711097778375
0.9837446760980488,0.09709161424323813,0.15022026404771152,0.9767408194675452,0.007290064342597977,0.5897617466250822
0.9978212728654918,0.13933756705176686,0.14494117402814333,0.8951843476523569,0.060044932559127726,0.5860127709630253
0.9925421828459237,0.05778109523657858,0.05797067814370227,0.9479392158688866,0.10499514666047681,0.4520809102758502
0.9872630928263555,0.11053596345310833,0.10292089224505135,0.9654841341555259,0.03723912412641536,0.4708702465448311
0.9819840028067873,0.028979491637920046,0.015950396360610297,0.9830290524421652,0.04857806699967642,0.4557686794090612
0.9960605995742303,0.0712254444464488,0.010671306341042111,0.9014725806269769,0.10133293521620618,0.5878727989052968
0.9907815095546622,0.12398031266297854,0.055621520442391194,0.9190174989136162,0.03357691268214473,0.5867525085881907
0.9907815095546622,0.12398031266297854,0.055621520442391194,0.9190174989136162,0.03357691268214473,0.44099863657339605
0.985502419535094,0.04242384084779026,0.10837638865892094,0.9639677130149653,0.051121830968783984,0.44099863657339605
0.999579016302537,0.084669793656319,0.10309729863935276,0.882411241199777,0.10387669918531373,0.5858200770595656
0.9942999262829688,0.003113321841130723,0.016126802754911698,0.9351661094163067,0.1488269132866628,0.45290520913448995
0.9890208362634006,0.05586819005766047,0.06107701685626078,0.952711027702946,0.08107089075260136,0.45032196375981226
0.9837417462438325,0.10862305827419022,0.10602723095760987,0.9702559459895853,0.013314868218539916,0.58881346287485
0.9978183430112755,0.15086901108271897,0.10074814093804169,0.888699474174397,0.06606973643506966,0.5859927129115592
0.9978183430112755,0.15086901108271897,0.10074814093804169,0.888699474174397,0.06606973643506966,0.4512977185663903
0.9925392529917073,0.06931253926753068,0.013777645053600629,0.9414543423909267,0.11101995053641875,0.4512977185663903
0.9872601629721391,0.12206740748406043,0.05872785915494971,0.958999260677566,0.0432639280023573,0.5411549028645106
0.981981072952571,0.04051093566887215,0.11148272737147946,0.9765441789642053,0.05460287087561836,0.4547146373927544
0.996057669720014,0.0827568884774009,0.10620363735191128,0.894987707149017,0.1073577390921481,0.5877557027485011
0.9907785797004458,0.001200416662212614,0.019233141467470224,0.9477425753655467,0.1523079531934972,0.45503929591012726
0.9854994896808776,0.05395528487874236,0.06418335556881931,0.965287493652186,0.08455193065943574,0.45468200068557324
0.9995760864483206,0.09620123768727111,0.05890426554925112,0.8837310218369977,0.13730679887596547,0.4172020915974428
0.9942969964287525,0.014644765872082827,0.11165913376578088,0.9286812359383467,0.15485171716260474,0.4523984304849849
0.9890179064091843,0.06739963408861258,0.15660934786712996,0.946226154224986,0.08709569462854329,0.4482627544058175
0.9837388163896161,0.12015450230514232,0.20155956196847905,0.9637710725116253,0.01933967209448184,0.5894230948712798
0.9978154131570591,0.16240045511367107,0.19628047194891085,0.882214600696437,0.07209454031101159,0.5860283953669135
0.9978154131570591,0.16240045511367107,0.19628047194891085,0.882214600696437,0.07209454031101159,0.45035619455534714
0.992536323137491,0.08084398329848279,0.1093099760644698,0.9349694689129667,0.11704475441236067,0.45035619455534714
0.9872572331179228,0.13359885151501255,0.15426019016581888,0.952514387199606,0.04928873187829923,0.586231757496533
0.9819781430983546,0.05204237969982427,0.06728969428137782,0.9974646013009552,0.06683365016493847,0.4582148094826558
0.9960547398657976,0.09428833250835301,0.06201060426180963,0.9159081294857668,0.11958851838146822,0.432104286896071
0.9907756498462295,0.012731860693164732,0.11476547247833938,0.9608583435871159,0.13713343666810748,0.45571265113491516
0.9854965598266613,0.06548672890969448,0.15971568657968846,0.9784032618737551,0.06937741413404604,0.4558151834973498
0.9995731565941043,0.10773268171822323,0.15443659656012027,0.8968467900585668,0.12213228235057579,0.41768376483104636
0.9942940665745361,0.026176209903034944,0.06746610067567921,0.9496016582750966,0.16708249645192486,0.45505764377651836
0.989014976554968,0.0789310781195647,0.11241631477702829,0.9671465765617359,0.09932647391786341,0.45536326556179835
0.9837358865353998,0.13168594633609443,0.15736652887837738,0.9846914948483751,0.03157045138380196,0.45364810458634325
0.9978124833028428,0.17393189914462318,0.15208743885880918,0.9031350230331868,0.08432531960033171,0.5861492916192559
0.9925333932832746,0.09237542732943489,0.06511694297436812,0.9558898912497166,0.1292755337016808,0.4548092629484436
0.9872543032637064,0.010818955514246609,0.11787181119089787,0.9734348095363559,0.06151951116761935,0.4541606352453986
0.9819752132441383,0.06357382373077636,0.16282202529224696,0.9909797278229951,0.0728584540408804,0.4572233148711042
0.9960518100115813,0.1058197765393051,0.15754293527267876,0.9094232560078068,0.12561332225741015,0.4293666551173782
0.9907727199920131,0.02426330472411682,0.0705724393882377,0.9621781242243366,0.17056353635875923,0.4564385613475426
0.9854936299724449,0.07701817294064657,0.11552265348958679,0.9797230425109759,0.10280751382469779,0.45689811401025443
0.9995702267398879,0.11926412574917532,0.11024356347001861,0.8981665706957875,0.01583701794025673,0.5857865697140394
0.9995702267398879,0.11926412574917532,0.11024356347001861,0.8981665706957875,0.01583701794025673,0.42054691016711865
0.9942911367203198,0.037707653933987034,0.023273067585577553,0.9509214389123173,0.06078723204160581,0.42054691016711865
0.9890120467007516,0.09046252215051678,0.06822328168692664,0.9684663571989566,0.07212617491486686,0.45385806401781276
0.9837329566811834,0.0089060503353285,0.12097814990345639,0.9860112754855959,0.004370152380805417,0.589721576771849
0.9978095534486264,0.05115200314385725,0.1156990598838882,0.9044548036704075,0.057125020597335166,0.5860171122570463
0.9925304634290583,0.103906871360387,0.1606492739852373,0.9219997219570468,0.06846396347059622,0.5872039284312406
0.9872513734094901,0.022350399545198713,0.07367877810079623,0.9747545901735766,0.1134141775719453,0.4566951450482037
0.9819722833899219,0.07510526776172846,0.11862899220214532,0.9922995084602159,0.045658155037883855,0.45723852556998185
0.9960488801573649,0.11735122057025721,0.11334990218257714,0.9107430366450275,0.0984130232544136,0.4535768321745303
0.9907697901377968,0.035794748755068925,0.02637940629813608,0.9634979048615573,0.14336323735576267,0.4561186405922995
0.9854907001182286,0.08854961697159867,0.07132962039948516,0.9810428231481966,0.07560721482170123,0.4565424223342653
0.9995672968856716,0.1307955697801274,0.06605053037991698,0.8994863513330082,0.128362083038231,0.40962098323278595
0.9942882068661034,0.049239097964939124,0.11880539859644673,0.9444365654343574,0.14590700132487025,0.4538697919715135
0.9890091168465353,0.10199396618146887,0.16375561269779582,0.9619814837209967,0.0781509787908088,0.4529410834645288
0.9837300268269671,0.02043749436628059,0.07678511681335476,0.979526402007636,0.010394956256747356,0.5888130909619587
0.9978066235944101,0.06268344717480934,0.07150602679378658,0.8979699301924476,0.0631498244732771,0.585999661650375
0.9925275335748419,0.11543831539133909,0.11645624089513566,0.9155148484790869,0.07448876734653816,0.5871670134895841
0.9872484435552737,0.0338818435761508,0.029485745010694606,0.9682697166956167,0.11943898144788724,0.4563041943343135
0.9819693535357056,0.08663671179268055,0.07443595911204369,0.985814634982256,0.051682958913825794,0.456522323780752
0.9960459503031486,0.12888266460120928,0.06915686909247551,0.9042581631670676,0.10443782713035554,0.47254701148167505
