{
  "synch": {
    "name": "synch",
    "mean": [
      -24.49746973405749,
      -23.83438159120723,
      -23.060252856193838,
      -22.198953460764624,
      -21.250890027955688,
      -20.216069949222845,
      -19.094493166618573,
      -17.886159924726787,
      -16.591070248295388,
      -15.209224244633958,
      -13.740622297718787,
      -12.18526708073845,
      -10.543172755921102,
      -8.814422788390852,
      -4.936363715603136,
      -1.0990862499489555,
      -0.026093429192183493,
      -0.0003201071028460234,
      -3.5550072636780783e-6,
      -3.61942804616433e-8,
      -3.3787905806548224e-10,
      -2.8919089345436078e-12,
      -2.3092638912203256e-14,
      0.0,
      0.0,
      0.0,
      0.0,
      0.0,
      0.0,
      0.0,
      0.0,
      0.0,
      0.0,
      0.0,
      0.0,
      0.0,
      0.0,
      0.0,
      0.0,
      0.0,
      0.0,
      0.0,
      0.0,
      0.0,
      0.0,
      0.0,
      0.0,
      0.0,
      0.0,
      0.0,
      0.0,
      0.0,
      0.0,
      0.0,
      0.0,
      0.0,
      0.0,
      0.0,
      0.0,
      0.0,
      0.0,
      0.0,
      0.0,
      0.0,
      0.0,
      0.0,
      0.0,
      0.0,
      0.0,
      0.0,
      0.0,
      0.0,
      0.0,
      0.0,
      0.0,
      0.0,
      0.0,
      0.0,
      0.0,
      0.0,
      0.0,
      0.0,
      0.0,
      0.0,
      0.0,
      0.0,
      0.0,
      0.0,
      0.0,
      0.0,
      0.0,
      0.0,
      0.0,
      0.0,
      0.0,
      0.0,
      0.0,
      0.0,
      0.0,
      0.0,
      0.0,
      0.0,
      0.0,
      0.0,
      0.0,
      0.0,
      0.0,
      0.0,
      0.0,
      0.0,
      0.0,
      0.0,
      0.0,
      0.0,
      0.0,
      0.0,
      0.0,
      0.0,
      0.0,
      0.0,
      0.0,
      0.0,
      0.0,
      0.0,
      0.0,
      0.0,
      0.0,
      0.0,
      0.0,
      0.0,
      0.0,
      0.0,
      0.0,
      0.0,
      0.0,
      0.0,
      0.0,
      0.0,
      0.0,
      0.0,
      0.0,
      0.0,
      0.0,
      0.0,
      0.0,
      0.0,
      0.0,
      0.0,
      0.0,
      0.0,
      0.0,
      0.0,
      0.0,
      0.0,
      0.0,
      0.0,
      0.0,
      0.0,
      0.0,
      0.0,
      0.0,
      0.0,
      0.0,
      0.0,
      0.0,
      0.0,
      0.0,
      0.0,
      0.0,
      0.0,
      0.0,
      0.0,
      0.0,
      0.0,
      0.0,
      0.0,
      0.0,
      0.0,
      0.0,
      0.0,
      0.0,
      0.0,
      0.0,
      0.0,
      0.0,
      0.0,
      0.0,
      0.0,
      0.0,
      0.0,
      0.0,
      0.0,
      0.0,
      0.0,
      0.0,
      0.0,
      0.0,
      0.0,
      0.0,
      0.0,
      0.0,
      0.0,
      0.0,
      0.0,
      0.0,
      0.0,
      0.0,
      0.0,
      0.0,
      0.0,
      0.0,
      0.0,
      0.0,
      0.0,
      0.0,
      0.0,
      0.0,
      0.0,
      0.0,
      0.0,
      0.0,
      0.0,
      0.0,
      0.0,
      0.0,
      0.0,
      0.0,
      0.0,
      0.0,
      0.0,
      0.0,
      0.0,
      0.0,
      0.0,
      0.0
    ]
  },
  "asynch": {
    "name": "asynch",
    "mean": [
      -24.49746973405749,
      -23.83438159120723,
      -23.060252856193838,
      -22.198953460764624,
      -21.250890027955688,
      -20.216069949222845,
      -19.094493166618573,
      -17.886159924726787,
      -16.591070248295388,
      -16.876505670977984,
      -20.769115578972418,
      -28.446926962218726,
      -39.91789389737606,
      -55.18411112912655,
      -69.8956356156683,
      -84.4289722550726,
      -98.87458039411068,
      -113.23342181333065,
      -127.50550557263853,
      -141.69083214887144,
      -155.7894015420294,
      -169.80121565946104,
      -185.3935546983099,
      -204.59306956418516,
      -227.57778311856748,
      -254.3556571114874,
      -284.9287862885809,
      -314.94722176679136,
      -344.78747273572446,
      -374.53999997266294,
      -404.2057638276434,
      -433.78477479108335,
      -463.27703286298276,
      -492.68253804334165,
      -522.00129033216,
      -552.9005689729071,
      -587.4070272553778,
      -625.6986827958441,
      -667.783498774848,
      -713.6635570634222,
      -758.9889383424139,
      -804.136131297431,
      -849.1955967057562,
      -894.1682949174261,
      -939.0542364228583,
      -983.8534212220526,
      -1028.565849315009,
      -1073.1915207017278,
      -1119.3977155793523,
      -1169.2110862840032,
      -1222.809658061347,
      -1280.2013931382512,
      -1341.388374339423,
      -1402.0206699479436,
      -1462.4747772324895,
      -1522.8411569703435,
      -1583.1207704652165,
      -1643.3136272538518,
      -1703.4197273362493,
      -1763.4390688050603,
      -1823.3716535676335,
      -1884.8847608674382,
      -1950.005045901618,
      -2018.9105329621648,
      -2091.6091909516667,
      -2168.1030950654363,
      -2244.0423135865544,
      -2319.803343783698,
      -2395.4766492951726,
      -2471.0631895173406,
      -2546.562973986945,
      -2621.976002703986,
      -2697.3022756684636,
      -2772.5417928803777,
      -2849.361834536872,
      -2929.789053927741,
      -3014.0014753449773,
      -3102.007060061774,
      -3193.8078909028386,
      -3285.0540208924626,
      -3376.121962558112,
      -3467.1021795380925,
      -3557.9956312287663,
      -3648.8023271668767,
      -3739.5222673524236,
      -3830.155451785407,
      -3920.701880465827,
      -4012.8288259614324,
      -4108.562933932624,
      -4208.082236300788,
      -4311.394694339118,
      -4418.502396594367,
      -4525.055413256965,
      -4631.430241595588,
      -4737.717345248542,
      -4843.91768361219,
      -4950.031266223274,
      -5056.058093081794,
      -5161.998164187751,
      -5267.851479541145,
      -5375.285311709724,
      -5486.326306353889,
      -5601.152495395027,
      -5719.77184010633,
      -5842.186430941902,
      -5964.0463361848215,
      -6085.728053103767,
      -6207.322045337043,
      -6328.829272281013,
      -6450.249743472419,
      -6571.583458911262,
      -6692.830418597541,
      -6813.990622531257,
      -6936.73134137281,
      -7063.079218875251,
      -7193.212290774665,
      -7327.138514529548,
      -7464.859984408698,
      -7602.026762973152,
      -7739.015345584236,
      -7875.916197787605,
      -8012.730277072273,
      -8149.457594882331,
      -8286.09815121778,
      -8422.65194607862,
      -8559.11897946485,
      -8697.16652585157,
      -8838.82122708448,
      -8984.261118899665,
      -9133.494158755622,
      -9286.52244092115,
      -9438.996035586677,
      -9591.291434298835,
      -9743.499102603279,
      -9895.61999798902,
      -10047.654131900154,
      -10199.601504336677,
      -10351.462115298591,
      -10503.235964785896,
      -10656.590323458991,
      -10813.551836978279,
      -10974.298541079841,
      -11138.838393222175,
      -11307.17348767408,
      -11474.953894625984,
      -11642.556105624519,
      -11810.070586215339,
      -11977.498293887458,
      -12144.839240084968,
      -12312.093424807868,
      -12479.26084805616,
      -12646.341509829841,
      -12815.002684604011,
      -12987.271014224372,
      -13163.324534427009,
      -13343.171172152839,
      -13526.813021670661,
      -13709.900168429695,
      -13892.80908871778,
      -14075.630263339363,
      -14258.364649783454,
      -14441.012259494148,
      -14623.573092471443,
      -14806.047148715339,
      -14988.434428225837,
      -15172.402205478034,
      -15359.977168094001,
      -15551.337351809821,
      -15746.490653048835,
      -15945.439166079841,
      -16143.832976352058,
      -16342.04856015333,
      -16540.176398288095,
      -16738.21744824537,
      -16936.171721469247,
      -17134.039217959726,
      -17331.819937716806,
      -17529.513880740487,
      -17728.78832150587,
      -17931.66994763502,
      -18138.336794864023,
      -18348.79675961622,
      -18563.05193616041,
      -18776.75240994581,
      -18990.274657260263,
      -19203.709158908212,
      -19417.05687237867,
      -19630.31780911573,
      -19843.491969119394,
      -20056.579352389657,
      -20269.579958926523,
      -20484.161063205087,
      -20702.34935284742,
      -20924.32286358961,
      -21150.08949185499,
      -21379.651331912362,
      -21608.658469210946,
      -21837.487380038583,
      -22066.228545199716,
      -22294.88292218336,
      -22523.450522433603,
      -22751.93134595045,
      -22980.325392733896,
      -23208.632658969247,
      -23438.520422946298,
      -23672.01537228712,
      -23909.295542727792,
      -24150.36883069166,
      -24395.23733044752,
      -24639.55112744459,
      -24883.686697970712,
      -25127.73452283033,
      -25371.69555951246,
      -25615.56981946119,
      -25859.357302676523,
      -26103.058009158456,
      -26346.67193890699,
      -26591.866366397226,
      -26840.667983065927,
      -27093.254813205087,
      -27349.634768496835,
      -27609.809939395273,
      -27869.43041134962,
      -28128.872660647714,
      -28388.227168094003,
      -28647.4948911775,
      -28906.675841342294,
      -29165.770018588388,
      -29424.77742291578,
      -29683.69805432447,
      -29944.199179660165,
      -30208.307494174325,
      -30476.201022158944,
      -30747.88767529615,
      -31023.369544040048
    ]
  },
  "random": {
    "name": "random",
    "mean": [
      -24.49746973405749,
      -23.83438159120723,
      -23.060252856193838,
      -20.133619261480284,
      -19.572117521429455,
      -19.253653720277534,
      -22.92088527579447,
      -24.704099844793866,
      -29.162223528704857,
      -31.7530376423216,
      -36.857307623705864,
      -41.10073776134014,
      -45.084554861865044,
      -48.97777957805157,
      -54.452214430651665,
      -59.42090148814678,
      -62.87628097423077,
      -66.0372821796751,
      -69.1074258793211,
      -73.75874919780254,
      -77.06021327861309,
      -82.36124439128399,
      -86.77292270549299,
      -93.07802028544904,
      -103.51209468730451,
      -113.4215356815672,
      -124.53619785197736,
      -139.5973112095213,
      -158.60077686198713,
      -175.59300441630842,
      -192.325599860034,
      -211.10969943889143,
      -229.88580150493146,
      -248.0857316959715,
      -266.13477153666975,
      -286.2452470768309,
      -306.34386081584455,
      -325.12271518596174,
      -345.87350101359846,
      -370.29820651896955,
      -398.5096742618895,
      -426.20378131755353,
      -456.5768434513426,
      -486.66729373820783,
      -516.2864038456297,
      -545.7622034061766,
      -576.8186609257078,
      -608.5942880619383,
      -639.6528970707274,
      -670.5180742252684,
      -699.2469827640867,
      -730.485153387866,
      -759.8537103641844,
      -789.0743410099363,
      -819.8748704899168,
      -854.2825510013914,
      -892.4754220951414,
      -930.1509248722409,
      -967.6482927311276,
      -1007.2104608524655,
      -1045.8741304386472,
      -1086.99562473186,
      -1126.281887244067,
      -1164.0495111454343,
      -1201.5625955570554,
      -1240.669525336108,
      -1279.273670386157,
      -1317.6961976993894,
      -1358.183441351733,
      -1397.772205542407,
      -1436.0846597660397,
      -1473.2305185306882,
      -1512.5517007816647,
      -1555.575687598071,
      -1596.4058649052,
      -1636.9793359745358,
      -1677.462291907153,
      -1720.0004846561765,
      -1762.530018042407,
      -1806.0737115848874,
      -1848.6684534061765,
      -1893.2181589115476,
      -1937.776111792407,
      -1983.3361551273679,
      -2032.9006998051022,
      -2086.4659311283444,
      -2143.9449808109616,
      -2201.145168494067,
      -2259.345348547778,
      -2315.909572790942,
      -2372.2804147709226,
      -2430.704349707446,
      -2489.1199838627194,
      -2546.9593851078366,
      -2607.308468054614,
      -2665.853176306567,
      -2725.921848486743,
      -2789.5971109379147,
      -2852.8066675175046,
      -2914.4723932255124,
      -2975.8369104374265,
      -3037.1103784550046,
      -3100.4391366947507,
      -3162.8683893192624,
      -3227.755443762622,
      -3292.8758127201413,
      -3356.3609506595944,
      -3421.402904700122,
      -3490.0557443607663,
      -3558.56780643352,
      -3627.9690591801022,
      -3701.1051523197507,
      -3774.039280127368,
      -3845.3911706913327,
      -3916.608883093677,
      -3989.407322119556,
      -4060.8559076298097,
      -4134.27704257854,
      -4207.259029578052,
      -4280.060833166919,
      -4354.44256992229,
      -4429.5437204349855,
      -4503.0596048344,
      -4578.979427527271,
      -4654.725147436939,
      -4731.54852695354,
      -4807.427356909595,
      -4881.789493750415,
      -4958.147251318775,
      -5034.929920386157,
      -5112.266529272876,
      -5187.996341894946,
      -5262.121265601001,
      -5335.982380102954,
      -5409.7539255131105,
      -5485.580860327564,
      -5559.813190649829,
      -5633.915195654712,
      -5710.076893042407,
      -5790.371540259204,
      -5870.140278052173,
      -5951.115162085376,
      -6030.891727637134,
      -6112.621540259204,
      -6194.360447119556,
      -6277.101215552173,
      -6358.203235815845,
      -6440.842655371509,
      -6524.200199316821,
      -6611.593708227954,
      -6698.506031226001,
      -6786.590000342212,
      -6873.402561377368,
      -6962.431217383228,
      -7051.048877905689,
      -7139.48700351604,
      -7229.504932593189,
      -7319.01712436565,
      -7408.347599219165,
      -7499.258274267993,
      -7589.663288306079,
      -7681.59019870647,
      -7772.145572851978,
      -7864.698902319751,
      -7956.363193701587,
      -8049.9209329594,
      -8143.49840183147,
      -8238.069980810962,
      -8331.002277563892,
      -8426.4023782719,
      -8525.9707376469,
      -8625.009510229907,
      -8722.802692602954,
      -8822.604862402759,
      -8920.806568335376,
      -9021.415134619556,
      -9126.187595557056,
      -9229.578678320728,
      -9331.688312720142,
      -9435.678806494556,
      -9540.157306860767,
      -9648.650303076587,
      -9755.259876440845,
      -9860.331821631275,
      -9964.45477695354,
      -10067.249958227954,
      -10172.406223486743,
      -10275.77638645061,
      -10380.67221469768,
      -10489.174747656665,
      -10601.462558935962,
      -10713.570850561939,
      -10824.020832251392,
      -10936.0410501469,
      -11048.76338596233,
      -11160.77866001018,
      -11275.005924414478,
      -11389.583500098071,
      -11504.754230688892,
      -11619.30098361858,
      -11735.38316745647,
      -11852.180576514087,
      -11968.264560889087,
      -12082.83125705608,
      -12196.346821020923,
      -12308.610157202564,
      -12423.301197241626,
      -12537.13510532268,
      -12649.678608130298,
      -12764.10826511272,
      -12882.211872290454,
      -12999.84865207561,
      -13115.941349219165,
      -13234.449787329517,
      -13356.682590674243,
      -13482.703510474048,
      -13606.525272559009,
      -13732.229419897876,
      -13862.062275122486,
      -13995.989551733814,
      -14133.897876929126,
      -14275.705890845142,
      -14416.457477759204,
      -14559.88853855022,
      -14702.465641211353,
      -14843.761509131275,
      -14983.893467139087,
      -15126.323459814868,
      -15267.893146704517,
      -15411.90805454143,
      -15555.531040381275,
      -15700.653248022876,
      -15846.497181128345,
      -15996.37700290569,
      -16144.373295019948
    ]
  },
  "sim_duration": "0:27:44.024954"
}
