sigma_exponent,distance,p(H1)_mean,p(H1)_mean_round3,p(H1)_mean_round3up,p(H1)_sem,p(H1)_sem_round3up
0,20,5.688126559846488e-30,0.0,0.001,3.588619590860326e-30,0.001
0,40,1.1246046031819029e-141,0.0,0.001,9.31017434399555e-142,0.001
0,60,0.0,0.0,0.0,0.0,0.0
0,80,0.0,0.0,0.0,0.0,0.0
0,100,0.0,0.0,0.0,0.0,0.0
0,120,0.0,0.0,0.0,0.0,0.0
0,140,0.0,0.0,0.0,0.0,0.0
0,160,0.0,0.0,0.0,0.0,0.0
0,180,0.0,0.0,0.0,0.0,0.0
0,200,0.0,0.0,0.0,0.0,0.0
0,220,0.0,0.0,0.0,0.0,0.0
5,20,0.9996234578346813,1.0,1.0,3.189903353844269e-05,0.001
5,40,0.9856236549977578,0.986,0.986,0.00026515491507419895,0.001
5,60,0.8310817089381759,0.831,0.832,0.0009607183606470405,0.001
5,80,0.3884370830054136,0.388,0.389,0.001289367690969468,0.002
5,100,0.06206073556983174,0.062,0.063,0.000598521581342758,0.001
5,120,0.002509311288362045,0.003,0.003,0.00010588150624661013,0.001
5,140,3.3894847216114854e-05,0.0,0.001,1.1244118850902232e-05,0.001
5,160,8.976796971545798e-08,0.0,0.001,7.953331530840978e-08,0.001
5,180,1.248439682525804e-11,0.0,0.001,1.1850938708683634e-11,0.001
5,200,3.058486161823755e-16,0.0,0.001,2.9872145575178896e-16,0.001
5,220,1.297234310073366e-21,0.0,0.001,1.2829849624326333e-21,0.001
10,20,0.999963468429802,1.0,1.0,1.1926042872299546e-05,0.001
10,40,0.9975889217539581,0.998,0.998,0.00010247006031570164,0.001
10,60,0.9415525535747483,0.942,0.942,0.0005891400028297676,0.001
10,80,0.6224994307615003,0.622,0.623,0.0013064015705147641,0.002
10,100,0.17066318999418006,0.171,0.171,0.0009962277976417846,0.001
10,120,0.01292027866287731,0.013,0.013,0.00026924520384966684,0.001
10,140,0.0002495757223034123,0.0,0.001,3.376185776878397e-05,0.001
10,160,2.165449845173244e-06,0.0,0.001,1.8739918248011337e-06,0.001
10,180,3.5861340250722534e-10,0.0,0.001,3.4041680913781683e-10,0.001
10,200,8.785754527182368e-15,0.0,0.001,8.581020930599062e-15,0.001
10,220,3.726413590879643e-20,0.0,0.001,3.6854811496173565e-20,0.001
15,20,0.9999634684302838,1.0,1.0,1.192604280915386e-05,0.001
15,40,0.9975889217832319,0.998,0.998,0.0001024700596738094,0.001
15,60,0.9415525540137271,0.942,0.942,0.0005891400006377606,0.001
15,80,0.6224994321509658,0.622,0.623,0.0013064015696406573,0.002
15,100,0.17066319090767185,0.171,0.171,0.000996227800053986,0.001
15,120,0.012920278781766333,0.013,0.013,0.0002692452052428453,0.001
15,140,0.0002495757252308239,0.0,0.001,3.376185798627202e-05,0.001
15,160,2.1654498843613614e-06,0.0,0.001,1.8739918577498276e-06,0.001
15,180,3.5861341025302716e-10,0.0,0.001,3.4041681649057236e-10,0.001
15,200,8.785754716954727e-15,0.0,0.001,8.581021115949175e-15,0.001
15,220,3.726413671370204e-20,0.0,0.001,3.685481229223775e-20,0.001
20,20,0.9999634684302838,1.0,1.0,1.1926042809153856e-05,0.001
20,40,0.9975889217832319,0.998,0.998,0.00010247005967380938,0.001
20,60,0.9415525540137272,0.942,0.942,0.0005891400006377606,0.001
20,80,0.6224994321509659,0.622,0.623,0.0013064015696406573,0.002
20,100,0.17066319090767187,0.171,0.171,0.0009962278000539863,0.001
20,120,0.012920278781766338,0.013,0.013,0.00026924520524284533,0.001
20,140,0.000249575725230824,0.0,0.001,3.376185798627203e-05,0.001
20,160,2.1654498843613626e-06,0.0,0.001,1.8739918577498287e-06,0.001
20,180,3.5861341025302747e-10,0.0,0.001,3.404168164905726e-10,0.001
20,200,8.785754716954735e-15,0.0,0.001,8.581021115949182e-15,0.001
20,220,3.7264136713702064e-20,0.0,0.001,3.685481229223777e-20,0.001
25,20,0.9999634684302838,1.0,1.0,1.192604280915386e-05,0.001
25,40,0.9975889217832319,0.998,0.998,0.0001024700596738094,0.001
25,60,0.9415525540137271,0.942,0.942,0.0005891400006377606,0.001
25,80,0.6224994321509658,0.622,0.623,0.0013064015696406573,0.002
25,100,0.17066319090767187,0.171,0.171,0.000996227800053986,0.001
25,120,0.012920278781766336,0.013,0.013,0.0002692452052428453,0.001
25,140,0.0002495757252308239,0.0,0.001,3.376185798627202e-05,0.001
25,160,2.1654498843613618e-06,0.0,0.001,1.8739918577498278e-06,0.001
25,180,3.5861341025302727e-10,0.0,0.001,3.404168164905724e-10,0.001
25,200,8.785754716954727e-15,0.0,0.001,8.581021115949175e-15,0.001
25,220,3.726413671370204e-20,0.0,0.001,3.685481229223775e-20,0.001
30,20,0.9999634684302838,1.0,1.0,1.192604280915386e-05,0.001
30,40,0.9975889217832319,0.998,0.998,0.0001024700596738094,0.001
30,60,0.9415525540137271,0.942,0.942,0.0005891400006377606,0.001
30,80,0.6224994321509658,0.622,0.623,0.0013064015696406573,0.002
30,100,0.17066319090767187,0.171,0.171,0.000996227800053986,0.001
30,120,0.012920278781766336,0.013,0.013,0.00026924520524284533,0.001
30,140,0.00024957572523082394,0.0,0.001,3.3761857986272026e-05,0.001
30,160,2.1654498843613618e-06,0.0,0.001,1.8739918577498278e-06,0.001
30,180,3.5861341025302727e-10,0.0,0.001,3.404168164905724e-10,0.001
30,200,8.78575471695473e-15,0.0,0.001,8.581021115949178e-15,0.001
30,220,3.726413671370204e-20,0.0,0.001,3.685481229223775e-20,0.001
35,20,0.9999634684302838,1.0,1.0,1.192604280915386e-05,0.001
35,40,0.9975889217832319,0.998,0.998,0.0001024700596738094,0.001
35,60,0.9415525540137271,0.942,0.942,0.0005891400006377606,0.001
35,80,0.6224994321509658,0.622,0.623,0.0013064015696406573,0.002
35,100,0.17066319090767187,0.171,0.171,0.000996227800053986,0.001
35,120,0.012920278781766336,0.013,0.013,0.0002692452052428453,0.001
35,140,0.0002495757252308239,0.0,0.001,3.3761857986272026e-05,0.001
35,160,2.1654498843613618e-06,0.0,0.001,1.8739918577498278e-06,0.001
35,180,3.5861341025302727e-10,0.0,0.001,3.404168164905724e-10,0.001
35,200,8.78575471695473e-15,0.0,0.001,8.581021115949178e-15,0.001
35,220,3.726413671370204e-20,0.0,0.001,3.685481229223775e-20,0.001
