{
  "description": "spatial mode",
  "gp_minimize_kwargs": {
    "n_calls": 200,
    "n_initial_points": 100,
    "initial_point_generator": "hammersly",
    "dimensions": {
      "sens_tac": [
        0.001,
        0.999
      ],
      "spec_tac": [
        0.001,
        0.999
      ],
      "sens_vis": [
        0.001,
        0.999
      ],
      "spec_vis": [
        0.001,
        0.999
      ]
    }
  },
  "mode": "spatial"
}
