timestep,input_visual,input_tactile,prob_c1,prob_is_0
0,,,-0.2231435513142097,False
1,0.0,1.0,-1.6530765481417782,False
2,1.0,1.0,-2.94741414813706,False
3,0.0,0.0,-2.835594295591097,False
4,0.0,0.0,-2.444613422491475,False
5,0.0,1.0,-3.5742205679896895,False
6,1.0,1.0,-4.253091986925254,False
7,1.0,1.0,-4.758836383419247,False
8,0.0,0.0,-3.158967547974889,False
9,0.0,0.0,-1.4113566101836916,False
10,1.0,1.0,-0.050253975141327345,False
11,1.0,1.0,-0.0006080192275703666,False
12,1.0,0.0,-3.595703080705448e-05,False
13,1.0,0.0,-7.888157724877942e-05,False
14,0.0,1.0,-0.0001502386282474788,False
15,1.0,1.0,-5.408886642044308e-05,False
16,1.0,1.0,-1.7031270878931082e-05,False
17,1.0,1.0,-4.91450315109887e-06,False
18,1.0,1.0,-1.300262781001038e-06,False
19,0.0,1.0,-2.686597717627137e-06,False
20,1.0,1.0,-1.1268731299196588e-06,False
21,0.0,0.0,-7.760167619608183e-08,False
22,0.0,0.0,-3.885084254307003e-09,False
23,0.0,1.0,-9.761436103872256e-10,False
24,0.0,0.0,-6.224354365258478e-11,False
25,0.0,0.0,-3.439026841078885e-12,False
26,1.0,0.0,-1.4779288903810084e-12,False
27,0.0,1.0,-6.323830348264892e-13,False
28,1.0,1.0,-1.4921397450962104e-13,False
29,1.0,0.0,-1.7053025658242404e-13,False
30,1.0,1.0,-4.973799150320701e-14,False
31,1.0,1.0,-1.4210854715202004e-14,False
32,0.0,0.0,0.0,True
33,0.0,1.0,0.0,True
34,0.0,0.0,0.0,True
35,0.0,1.0,0.0,True
36,1.0,0.0,0.0,True
37,0.0,0.0,0.0,True
38,1.0,1.0,0.0,True
39,1.0,1.0,0.0,True
40,1.0,0.0,0.0,True
41,0.0,1.0,0.0,True
42,1.0,1.0,0.0,True
43,0.0,1.0,0.0,True
44,0.0,1.0,-2.842170943040401e-14,False
45,0.0,1.0,-3.871036824421026e-11,False
46,0.0,1.0,-2.8246371925888525e-06,False
47,1.0,0.0,-0.137794080592343,False
48,1.0,1.0,-8.081059812858442,False
49,0.0,1.0,-20.082753139947997,False
50,0.0,1.0,-36.216896967396266,False
51,1.0,1.0,-50.3766068978162,False
52,0.0,1.0,-67.21129699181034,False
53,0.0,1.0,-88.22698684166386,False
54,0.0,1.0,-113.33759398888066,False
55,1.0,0.0,-138.02143187950566,False
56,1.0,0.0,-166.37810225914433,False
57,0.0,1.0,-194.47900481651737,False
58,1.0,1.0,-221.18148131798222,False
59,0.0,0.0,-246.10963530968144,False
60,0.0,0.0,-270.72573562096073,False
61,0.0,1.0,-296.9536141915174,False
62,0.0,1.0,-326.79531188438847,False
63,0.0,0.0,-354.46035476158573,False
64,1.0,0.0,-384.014386133656,False
65,0.0,0.0,-411.9702043099255,False
66,1.0,0.0,-442.3310708565564,False
67,0.0,1.0,-472.51764007042357,False
68,1.0,1.0,-502.19136901329466,False
69,0.0,1.0,-534.3479013008923,False
70,1.0,1.0,-564.7109841866345,False
71,0.0,0.0,-593.3450173897595,False
72,0.0,1.0,-624.38285155724,False
73,0.0,0.0,-653.5855416817517,False
74,0.0,1.0,-685.0064477486462,False
75,0.0,0.0,-714.7059564156384,False
76,0.0,1.0,-746.5606698555798,False
77,0.0,0.0,-776.7263040108533,False
78,0.0,1.0,-809.0298776192517,False
79,0.0,0.0,-839.6534051461072,False
80,0.0,0.0,-870.1031503243298,False
81,0.0,1.0,-902.1495675606579,False
82,0.0,1.0,-937.8065499825329,False
83,0.0,0.0,-971.2875375313611,False
84,1.0,1.0,-1003.4687737984509,False
85,0.0,1.0,-1038.2706994576306,False
86,0.0,0.0,-1072.2201165718884,False
87,1.0,1.0,-1104.881417231068,False
88,0.0,1.0,-1140.1623391671033,False
89,1.0,1.0,-1173.5769662422986,False
90,1.0,0.0,-1208.511284784779,False
91,1.0,0.0,-1247.052185968861,False
92,0.0,0.0,-1285.1274041695447,False
93,0.0,0.0,-1323.0244912667126,False
94,1.0,1.0,-1358.7748345894665,False
95,1.0,0.0,-1396.893135981068,False
96,1.0,1.0,-1433.1759118599743,False
97,1.0,0.0,-1471.6768960518689,False
98,1.0,1.0,-1508.456482843861,False
99,0.0,0.0,-1543.6544198555798,False
100,0.0,1.0,-1580.879677729115,False
101,1.0,1.0,-1617.6864175362439,False
102,1.0,0.0,-1655.9992150826306,False
103,1.0,0.0,-1697.9219598336072,False
104,0.0,0.0,-1739.377266840443,False
105,1.0,0.0,-1783.5113305611462,False
106,1.0,1.0,-1826.7875833077283,False
107,0.0,0.0,-1868.7825555367322,False
108,0.0,0.0,-1910.5450295967908,False
109,0.0,1.0,-1953.897255854115,False
110,0.0,1.0,-2000.858826593861,False
111,0.0,0.0,-2045.6446771187634,False
112,1.0,1.0,-2089.1305627388806,False
113,0.0,1.0,-2135.2371224922986,False
114,0.0,1.0,-2185.521622614369,False
115,1.0,1.0,-2233.831139521107,False
116,0.0,0.0,-2280.605622248158,False
117,1.0,1.0,-2326.430344538197,False
118,1.0,1.0,-2372.053460077748,False
119,0.0,1.0,-2419.7368936104626,False
120,0.0,1.0,-2471.5534524483533,False
121,1.0,1.0,-2521.3951959175915,False
122,0.0,0.0,-2569.6993341011853,False
123,1.0,1.0,-2617.0546655220837,False
124,0.0,0.0,-2663.082131342396,False
125,0.0,0.0,-2708.8649377388806,False
126,1.0,0.0,-2756.7062005562634,False
127,0.0,0.0,-2802.9500817818493,False
128,0.0,1.0,-2850.730767206654,False
129,0.0,0.0,-2897.1615991158337,False
130,1.0,0.0,-2945.592080072865,False
131,1.0,0.0,-2998.153862909779,False
132,0.0,0.0,-3048.7408837838025,False
133,0.0,0.0,-3099.1497735543103,False
134,1.0,1.0,-3147.4117669625134,False
135,1.0,1.0,-3195.324547724232,False
136,0.0,1.0,-3245.298195795521,False
137,1.0,1.0,-3293.672387079701,False
138,0.0,0.0,-3340.241555170521,False
139,1.0,0.0,-3389.149437860951,False
140,0.0,1.0,-3437.872567133412,False
141,0.0,1.0,-3490.1881036324353,False
142,1.0,0.0,-3542.340661005482,False
143,1.0,0.0,-3598.3715295357556,False
144,0.0,1.0,-3653.982689814076,False
145,0.0,0.0,-3708.4413384957165,False
146,1.0,1.0,-3761.15335936974,False
147,0.0,0.0,-3812.939187006459,False
148,1.0,1.0,-3863.407418207631,False
149,1.0,0.0,-3915.9693231148576,False
150,0.0,0.0,-3968.113442377553,False
151,0.0,1.0,-4021.7625054879045,False
152,1.0,1.0,-4074.9136743111467,False
153,1.0,1.0,-4127.884209589467,False
154,0.0,0.0,-4178.708519892201,False
155,1.0,1.0,-4228.851708368764,False
156,0.0,0.0,-4277.560677484975,False
157,0.0,1.0,-4328.427666620717,False
158,0.0,1.0,-4382.99727721642,False
159,0.0,0.0,-4435.373055414662,False
160,0.0,0.0,-4487.492119745717,False
161,1.0,1.0,-4537.487542108998,False
162,1.0,0.0,-4589.828545526967,False
163,0.0,0.0,-4641.781655268178,False
164,0.0,1.0,-4695.235024408803,False
165,1.0,0.0,-4749.40987487267,False
166,0.0,0.0,-4801.9951715035295,False
167,0.0,0.0,-4854.448723749623,False
168,0.0,1.0,-4908.482537226186,False
169,0.0,1.0,-4966.1235894722795,False
170,1.0,1.0,-5023.298943476186,False
171,1.0,1.0,-5080.296135858998,False
172,0.0,1.0,-5139.35811706017,False
173,0.0,0.0,-5197.521599726186,False
174,0.0,0.0,-5255.425026850209,False
175,1.0,1.0,-5311.205559687123,False
176,0.0,1.0,-5369.498131708608,False
177,1.0,1.0,-5425.921151117787,False
178,0.0,1.0,-5484.858300165639,False
179,0.0,1.0,-5547.966820673451,False
180,0.0,1.0,-5615.170205072865,False
181,0.0,1.0,-5686.3545465035295,False
182,1.0,1.0,-5756.19226928185,False
183,0.0,0.0,-5824.494317011342,False
184,1.0,0.0,-5895.026772455678,False
185,0.0,0.0,-5963.798562006459,False
186,1.0,1.0,-6030.827858881459,False
187,0.0,0.0,-6096.9883355660295,False
188,1.0,0.0,-6165.57100768517,False
189,0.0,0.0,-6232.364205317006,False
190,0.0,0.0,-6299.014992670522,False
191,1.0,0.0,-6367.726693109975,False
192,0.0,0.0,-6434.840950922475,False
193,0.0,1.0,-6503.491982416615,False
194,0.0,0.0,-6570.793160395131,False
195,0.0,1.0,-6640.0667047066545,False
196,0.0,0.0,-6707.750588373647,False
197,0.0,0.0,-6775.270379023061,False
198,1.0,0.0,-6844.843834833608,False
199,1.0,0.0,-6918.549752192006,False
200,0.0,0.0,-6990.280907587514,False
201,1.0,0.0,-7064.687004999623,False
202,0.0,0.0,-7137.225747065053,False
203,0.0,0.0,-7209.61673827599,False
204,0.0,0.0,-7281.920327143178,False
205,0.0,0.0,-7354.137154535756,False
206,1.0,1.0,-7424.197701410756,False
207,1.0,0.0,-7496.62520690392,False
208,1.0,0.0,-7572.776680902944,False
209,0.0,1.0,-7648.764870600209,False
210,1.0,1.0,-7723.083352045522,False
211,1.0,1.0,-7797.267830805287,False
212,0.0,1.0,-7873.511956171498,False
213,0.0,0.0,-7948.857094721303,False
214,1.0,1.0,-8022.92598815392,False
215,0.0,0.0,-8095.82833190392,False
216,1.0,1.0,-8167.542183832631,False
217,0.0,0.0,-8238.0423669381,False
218,1.0,1.0,-8307.353157953725,False
219,0.0,1.0,-8379.065529779897,False
220,0.0,1.0,-8454.94358153771,False
221,0.0,0.0,-8529.433098749623,False
222,0.0,0.0,-8603.66330810021,False
223,0.0,1.0,-8679.50736327599,False
224,1.0,1.0,-8754.85241027306,False
225,1.0,1.0,-8830.016015009389,False
226,0.0,1.0,-8907.244393305287,False
227,1.0,1.0,-8982.8734216256,False
228,1.0,0.0,-9060.039208368764,False
229,1.0,1.0,-9135.85518737267,False
230,1.0,1.0,-9211.528740839467,False
231,1.0,1.0,-9287.114449457631,False
232,1.0,1.0,-9362.613442377553,False
233,0.0,1.0,-9440.16783996056,False
234,1.0,1.0,-9516.127739862904,False
