{
  "synch": {
    "name": "synch",
    "mean": [
      -24.49746973405749,
      -23.83438159120723,
      -23.060252856193838,
      -22.198953460764624,
      -21.250890027955688,
      -20.216069949222845,
      -19.094493166618573,
      -17.886159924726787,
      -16.591070248295388,
      -15.209224244633958,
      -13.740622297718787,
      -12.18526708073845,
      -10.543172755921102,
      -8.814422788390852,
      -4.936363715603136,
      -1.0990862499489555,
      -0.026093429192183493,
      -0.0003201071028460234,
      -3.5550072636780783e-06,
      -3.61942804616433e-08,
      -3.3787905806548224e-10,
      -2.8919089345436078e-12,
      -2.3092638912203256e-14,
      0.0,
      0.0,
      0.0,
      0.0,
      0.0,
      0.0,
      0.0,
      0.0,
      0.0,
      0.0,
      0.0,
      0.0,
      0.0,
      0.0,
      0.0,
      0.0,
      0.0,
      0.0,
      0.0,
      0.0,
      0.0,
      0.0,
      0.0,
      0.0,
      0.0,
      0.0,
      0.0,
      0.0,
      0.0,
      0.0,
      0.0,
      0.0,
      0.0,
      0.0,
      0.0,
      0.0,
      0.0,
      0.0,
      0.0,
      0.0,
      0.0,
      0.0,
      0.0,
      0.0,
      0.0,
      0.0,
      0.0,
      0.0,
      0.0,
      0.0,
      0.0,
      0.0,
      0.0,
      0.0,
      0.0,
      0.0,
      0.0,
      0.0,
      0.0,
      0.0,
      0.0,
      0.0,
      0.0,
      0.0,
      0.0,
      0.0,
      0.0,
      0.0,
      0.0,
      0.0,
      0.0,
      0.0,
      0.0,
      0.0,
      0.0,
      0.0,
      0.0,
      0.0,
      0.0,
      0.0,
      0.0,
      0.0,
      0.0,
      0.0,
      0.0,
      0.0,
      0.0,
      0.0,
      0.0,
      0.0,
      0.0,
      0.0,
      0.0,
      0.0,
      0.0,
      0.0,
      0.0,
      0.0,
      0.0,
      0.0,
      0.0,
      0.0,
      0.0,
      0.0,
      0.0,
      0.0,
      0.0,
      0.0,
      0.0,
      0.0,
      0.0,
      0.0,
      0.0,
      0.0,
      0.0,
      0.0,
      0.0,
      0.0,
      0.0,
      0.0,
      0.0,
      0.0,
      0.0,
      0.0,
      0.0,
      0.0,
      0.0,
      0.0,
      0.0,
      0.0,
      0.0,
      0.0,
      0.0,
      0.0,
      0.0,
      0.0,
      0.0,
      0.0,
      0.0,
      0.0,
      0.0,
      0.0,
      0.0,
      0.0,
      0.0,
      0.0,
      0.0,
      0.0,
      0.0,
      0.0,
      0.0,
      0.0,
      0.0,
      0.0,
      0.0,
      0.0,
      0.0,
      0.0,
      0.0,
      0.0,
      0.0,
      0.0,
      0.0,
      0.0,
      0.0,
      0.0,
      0.0,
      0.0,
      0.0,
      0.0,
      0.0,
      0.0,
      0.0,
      0.0,
      0.0,
      0.0,
      0.0,
      0.0,
      0.0,
      0.0,
      0.0,
      0.0,
      0.0,
      0.0,
      0.0,
      0.0,
      0.0,
      0.0,
      0.0,
      0.0,
      0.0,
      0.0,
      0.0,
      0.0,
      0.0,
      0.0,
      0.0,
      0.0,
      0.0,
      0.0,
      0.0,
      0.0,
      0.0,
      0.0,
      0.0,
      0.0,
      0.0,
      0.0,
      0.0,
      0.0,
      0.0,
      0.0
    ],
    "is_0": null
  },
  "asynch": {
    "name": "asynch",
    "mean": [
      -24.49746973405749,
      -23.83438159120723,
      -23.060252856193838,
      -22.198953460764624,
      -21.250890027955688,
      -20.216069949222845,
      -19.094493166618573,
      -17.886159924726787,
      -16.591070248295388,
      -15.209224244633958,
      -13.740622297718787,
      -12.18526708073845,
      -12.210432630938406,
      -15.842769169262247,
      -19.009425060419886,
      -21.9979375711709,
      -24.89872063288795,
      -27.712737928710908,
      -30.439998518309658,
      -33.080502878508575,
      -35.63425100930691,
      -38.10124291070461,
      -40.48147858270168,
      -42.77495754846096,
      -44.9816802848196,
      -48.76892841943264,
      -56.16335333474636,
      -63.09209097512722,
      -69.84268416055203,
      -76.50554693826199,
      -83.08164061196804,
      -89.57097567208767,
      -95.97355211862087,
      -102.28936995156765,
      -108.518429170928,
      -114.66072882302763,
      -120.71626986154081,
      -126.68505228646757,
      -134.2343582023001,
      -145.3908418525076,
      -156.08163965829374,
      -166.59429873116972,
      -177.01923311837675,
      -187.35740412362577,
      -197.60882223733427,
      -207.77348745950223,
      -217.85139979012968,
      -227.8425592292166,
      -237.74696577676298,
      -247.56461943276884,
      -257.29552019723417,
      -268.6069473136282,
      -283.5255540717459,
      -297.97847403176786,
      -312.2532552588797,
      -326.44031180032255,
      -340.5406059134817,
      -354.5541471351004,
      -368.4809354651785,
      -382.32096899636747,
      -396.0742496360159,
      -409.7407764304495,
      -423.3205512870169,
      -436.81357420571806,
      -451.88712538369657,
      -470.56785811074735,
      -488.78290403970243,
      -506.8198093283987,
      -524.7689918387747,
      -542.6314128745413,
      -560.4070819724417,
      -578.0959991324759,
      -595.6981643546438,
      -613.2135776389456,
      -630.6422389853811,
      -647.9841483939505,
      -665.2393058646536,
      -684.0749915946341,
      -706.5178550589895,
      -728.4950317252493,
      -750.294063936553,
      -772.0053695548391,
      -793.6299098838186,
      -815.1676944602347,
      -836.6187232840872,
      -857.9829963553763,
      -879.2605136741018,
      -900.451275240264,
      -921.5552810538626,
      -942.5725311148977,
      -965.170305620513,
      -991.3752559531545,
      -1017.1145194877004,
      -1042.6756385672902,
      -1068.1490310538625,
      -1093.535658251128,
      -1118.8355296958302,
      -1144.048645387969,
      -1169.175005327544,
      -1194.2146095145558,
      -1219.167457949004,
      -1244.0335506308888,
      -1268.8128875602101,
      -1295.1727489341115,
      -1325.1397880423879,
      -1354.6411403525685,
      -1383.9643482077931,
      -1413.1998294700002,
      -1442.3485454429006,
      -1471.4105056632375,
      -1500.385710131011,
      -1529.2741588462209,
      -1558.0758518088674,
      -1586.7907890189504,
      -1615.41897047647,
      -1643.960396181426,
      -1674.0823444236134,
      -1707.8114665854787,
      -1741.074898134551,
      -1774.160175691924,
      -1807.1577228415822,
      -1840.0684970725392,
      -1872.892509828887,
      -1905.6297611106252,
      -1938.280250917754,
      -1970.8439792502736,
      -2003.3209461081838,
      -2035.7111514914845,
      -2068.014595400176,
      -2101.8985523093556,
      -2139.389679323516,
      -2176.415127168975,
      -2213.2624210227345,
      -2250.0219844687795,
      -2286.694774996123,
      -2323.2808040488576,
      -2359.7800716269826,
      -2396.192577730498,
      -2432.5183223594045,
      -2468.757301699004,
      -2504.9095195639943,
      -2540.974975954375,
      -2578.6209453452443,
      -2619.874084841094,
      -2660.6615451682424,
      -2701.2708515036916,
      -2741.792427431426,
      -2782.227230440459,
      -2822.575271974883,
      -2862.8365520346974,
      -2903.0110706199025,
      -2943.098827730498,
      -2983.0998233664845,
      -3023.0140575278615,
      -3062.841530214629,
      -3104.2495235312795,
      -3149.2646716941213,
      -3193.814140688262,
      -3238.1854556907033,
      -3282.46904028543,
      -3326.6658519614552,
      -3370.7759021628713,
      -3414.799190889678,
      -3458.735718141875,
      -3502.585483919463,
      -3546.3484882224416,
      -3590.0247310508107,
      -3633.6142124045705,
      -3678.7842067588185,
      -3727.561355959258,
      -3775.8728259909963,
      -3824.0061420310353,
      -3872.0517276633595,
      -3920.0105403769826,
      -3967.8825916159963,
      -4015.667881380401,
      -4063.366409670196,
      -4110.9781764853815,
      -4158.503181825958,
      -4205.941425691924,
      -4253.292908083282,
      -4302.224903475128,
      -4354.764053713165,
      -4406.837524782501,
      -4458.732841860137,
      -4510.540428530059,
      -4562.26124228128,
      -4613.895294557891,
      -4665.442585359893,
      -4716.903114687286,
      -4768.276882540069,
      -4819.563888918243,
      -4870.764133821807,
      -4921.877617250762,
      -4974.571613680206,
      -5030.8727649558405,
      -5086.708237062774,
      -5142.365555178008,
      -5197.935142885528,
      -5253.417957674346,
      -5308.814010988555,
      -5364.123302828155,
      -5419.345833193145,
      -5474.481598268829,
      -5529.530601869903,
      -5584.492843996368,
      -5639.368324648223,
      -5695.824318300567,
      -5755.887466799102,
      -5815.484936128936,
      -5874.904251467071,
      -5934.235836397491,
      -5993.48064840921,
      -6052.638698946319,
      -6111.709988008819,
      -6170.69451559671,
      -6229.592281709991,
      -6288.403286348663,
      -6347.127529512725,
      -6405.765011202178,
      -6465.9830020774225,
      -6529.808151613555,
      -6593.167614351592,
      -6656.348930727325,
      -6719.44252051004,
      -6782.449341188751,
      -6845.369404207549,
      -6908.202709566436,
      -6970.949257265411,
      -7033.609047304473,
      -7096.182079683624,
      -7158.668354402862,
      -7221.067871462188,
      -7285.047897707305,
      -7352.635082613311
    ],
    "is_0": null
  },
  "random": {
    "name": "random",
    "mean": [
      -24.49746973405749,
      -23.83438159120723,
      -23.060252856193838,
      -20.133619261480284,
      -19.572117521429455,
      -19.253653720277534,
      -22.92088527579447,
      -24.704099844793866,
      -29.162223528704857,
      -31.7530376423216,
      -36.857307623705864,
      -41.10073776134014,
      -45.084554861865044,
      -48.97777957805157,
      -54.452214430651665,
      -59.42090148814678,
      -62.87628097423077,
      -66.0372821796751,
      -69.1074258793211,
      -73.75874919780254,
      -77.06021327861309,
      -82.36124439128399,
      -86.77292270549299,
      -93.07802028544904,
      -103.51209468730451,
      -113.4215356815672,
      -124.53619785197736,
      -139.5973112095213,
      -158.60077686198713,
      -175.59300441630842,
      -192.325599860034,
      -211.10969943889143,
      -229.88580150493146,
      -248.0857316959715,
      -266.13477153666975,
      -286.2452470768309,
      -306.34386081584455,
      -325.12271518596174,
      -345.87350101359846,
      -370.29820651896955,
      -398.5096742618895,
      -426.20378131755353,
      -456.5768434513426,
      -486.66729373820783,
      -516.2864038456297,
      -545.7622034061766,
      -576.8186609257078,
      -608.5942880619383,
      -639.6528970707274,
      -670.5180742252684,
      -699.2469827640867,
      -730.485153387866,
      -759.8537103641844,
      -789.0743410099363,
      -819.8748704899168,
      -854.2825510013914,
      -892.4754220951414,
      -930.1509248722409,
      -967.6482927311276,
      -1007.2104608524655,
      -1045.8741304386472,
      -1086.99562473186,
      -1126.281887244067,
      -1164.0495111454343,
      -1201.5625955570554,
      -1240.669525336108,
      -1279.273670386157,
      -1317.6961976993894,
      -1358.183441351733,
      -1397.772205542407,
      -1436.0846597660397,
      -1473.2305185306882,
      -1512.5517007816647,
      -1555.575687598071,
      -1596.4058649052,
      -1636.9793359745358,
      -1677.462291907153,
      -1720.0004846561765,
      -1762.530018042407,
      -1806.0737115848874,
      -1848.6684534061765,
      -1893.2181589115476,
      -1937.776111792407,
      -1983.3361551273679,
      -2032.9006998051022,
      -2086.4659311283444,
      -2143.9449808109616,
      -2201.145168494067,
      -2259.345348547778,
      -2315.909572790942,
      -2372.2804147709226,
      -2430.704349707446,
      -2489.1199838627194,
      -2546.9593851078366,
      -2607.308468054614,
      -2665.853176306567,
      -2725.921848486743,
      -2789.5971109379147,
      -2852.8066675175046,
      -2914.4723932255124,
      -2975.8369104374265,
      -3037.1103784550046,
      -3100.4391366947507,
      -3162.8683893192624,
      -3227.755443762622,
      -3292.8758127201413,
      -3356.3609506595944,
      -3421.402904700122,
      -3490.0557443607663,
      -3558.56780643352,
      -3627.9690591801022,
      -3701.1051523197507,
      -3774.039280127368,
      -3845.3911706913327,
      -3916.608883093677,
      -3989.407322119556,
      -4060.8559076298097,
      -4134.27704257854,
      -4207.259029578052,
      -4280.060833166919,
      -4354.44256992229,
      -4429.5437204349855,
      -4503.0596048344,
      -4578.979427527271,
      -4654.725147436939,
      -4731.54852695354,
      -4807.427356909595,
      -4881.789493750415,
      -4958.147251318775,
      -5034.929920386157,
      -5112.266529272876,
      -5187.996341894946,
      -5262.121265601001,
      -5335.982380102954,
      -5409.7539255131105,
      -5485.580860327564,
      -5559.813190649829,
      -5633.915195654712,
      -5710.076893042407,
      -5790.371540259204,
      -5870.140278052173,
      -5951.115162085376,
      -6030.891727637134,
      -6112.621540259204,
      -6194.360447119556,
      -6277.101215552173,
      -6358.203235815845,
      -6440.842655371509,
      -6524.200199316821,
      -6611.593708227954,
      -6698.506031226001,
      -6786.590000342212,
      -6873.402561377368,
      -6962.431217383228,
      -7051.048877905689,
      -7139.48700351604,
      -7229.504932593189,
      -7319.01712436565,
      -7408.347599219165,
      -7499.258274267993,
      -7589.663288306079,
      -7681.59019870647,
      -7772.145572851978,
      -7864.698902319751,
      -7956.363193701587,
      -8049.9209329594,
      -8143.49840183147,
      -8238.069980810962,
      -8331.002277563892,
      -8426.4023782719,
      -8525.9707376469,
      -8625.009510229907,
      -8722.802692602954,
      -8822.604862402759,
      -8920.806568335376,
      -9021.415134619556,
      -9126.187595557056,
      -9229.578678320728,
      -9331.688312720142,
      -9435.678806494556,
      -9540.157306860767,
      -9648.650303076587,
      -9755.259876440845,
      -9860.331821631275,
      -9964.45477695354,
      -10067.249958227954,
      -10172.406223486743,
      -10275.77638645061,
      -10380.67221469768,
      -10489.174747656665,
      -10601.462558935962,
      -10713.570850561939,
      -10824.020832251392,
      -10936.0410501469,
      -11048.76338596233,
      -11160.77866001018,
      -11275.005924414478,
      -11389.583500098071,
      -11504.754230688892,
      -11619.30098361858,
      -11735.38316745647,
      -11852.180576514087,
      -11968.264560889087,
      -12082.83125705608,
      -12196.346821020923,
      -12308.610157202564,
      -12423.301197241626,
      -12537.13510532268,
      -12649.678608130298,
      -12764.10826511272,
      -12882.211872290454,
      -12999.84865207561,
      -13115.941349219165,
      -13234.449787329517,
      -13356.682590674243,
      -13482.703510474048,
      -13606.525272559009,
      -13732.229419897876,
      -13862.062275122486,
      -13995.989551733814,
      -14133.897876929126,
      -14275.705890845142,
      -14416.457477759204,
      -14559.88853855022,
      -14702.465641211353,
      -14843.761509131275,
      -14983.893467139087,
      -15126.323459814868,
      -15267.893146704517,
      -15411.90805454143,
      -15555.531040381275,
      -15700.653248022876,
      -15846.497181128345,
      -15996.37700290569,
      -16144.373295019948
    ],
    "is_0": null
  }
}
