{
  "synch": {
    "name": "synch",
    "mean": [
      -24.49746973405749,
      -23.83438159120723,
      -23.060252856193838,
      -22.198953460764624,
      -21.250890027955688,
      -20.216069949222845,
      -19.094493166618573,
      -17.886159924726787,
      -16.591070248295388,
      -15.209224244633958,
      -13.740622297718787,
      -12.18526708073845,
      -10.543172755921102,
      -8.814422788390852,
      -4.936363715603136,
      -1.0990862499489555,
      -0.026093429192183493,
      -0.0003201071028460234,
      -3.5550072636780783e-06,
      -3.61942804616433e-08,
      -3.3787905806548224e-10,
      -2.8919089345436078e-12,
      -2.3092638912203256e-14,
      0.0,
      0.0,
      0.0,
      0.0,
      0.0,
      0.0,
      0.0,
      0.0,
      0.0,
      0.0,
      0.0,
      0.0,
      0.0,
      0.0,
      0.0,
      0.0,
      0.0,
      0.0,
      0.0,
      0.0,
      0.0,
      0.0,
      0.0,
      0.0,
      0.0,
      0.0,
      0.0,
      0.0,
      0.0,
      0.0,
      0.0,
      0.0,
      0.0,
      0.0,
      0.0,
      0.0,
      0.0,
      0.0,
      0.0,
      0.0,
      0.0,
      0.0,
      0.0,
      0.0,
      0.0,
      0.0,
      0.0,
      0.0,
      0.0,
      0.0,
      0.0,
      0.0,
      0.0,
      0.0,
      0.0,
      0.0,
      0.0,
      0.0,
      0.0,
      0.0,
      0.0,
      0.0,
      0.0,
      0.0,
      0.0,
      0.0,
      0.0,
      0.0,
      0.0,
      0.0,
      0.0,
      0.0,
      0.0,
      0.0,
      0.0,
      0.0,
      0.0,
      0.0,
      0.0,
      0.0,
      0.0,
      0.0,
      0.0,
      0.0,
      0.0,
      0.0,
      0.0,
      0.0,
      0.0,
      0.0,
      0.0,
      0.0,
      0.0,
      0.0,
      0.0,
      0.0,
      0.0,
      0.0,
      0.0,
      0.0,
      0.0,
      0.0,
      0.0,
      0.0,
      0.0,
      0.0,
      0.0,
      0.0,
      0.0,
      0.0,
      0.0,
      0.0,
      0.0,
      0.0,
      0.0,
      0.0,
      0.0,
      0.0,
      0.0,
      0.0,
      0.0,
      0.0,
      0.0,
      0.0,
      0.0,
      0.0,
      0.0,
      0.0,
      0.0,
      0.0,
      0.0,
      0.0,
      0.0,
      0.0,
      0.0,
      0.0,
      0.0,
      0.0,
      0.0,
      0.0,
      0.0,
      0.0,
      0.0,
      0.0,
      0.0,
      0.0,
      0.0,
      0.0,
      0.0,
      0.0,
      0.0,
      0.0,
      0.0,
      0.0,
      0.0,
      0.0,
      0.0,
      0.0,
      0.0,
      0.0,
      0.0,
      0.0,
      0.0,
      0.0,
      0.0,
      0.0,
      0.0,
      0.0,
      0.0,
      0.0,
      0.0,
      0.0,
      0.0,
      0.0,
      0.0,
      0.0,
      0.0,
      0.0,
      0.0,
      0.0,
      0.0,
      0.0,
      0.0,
      0.0,
      0.0,
      0.0,
      0.0,
      0.0,
      0.0,
      0.0,
      0.0,
      0.0,
      0.0,
      0.0,
      0.0,
      0.0,
      0.0,
      0.0,
      0.0,
      0.0,
      0.0,
      0.0,
      0.0,
      0.0,
      0.0,
      0.0,
      0.0,
      0.0,
      0.0,
      0.0,
      0.0,
      0.0
    ],
    "is_0": null
  },
  "asynch": {
    "name": "asynch",
    "mean": [
      -24.49746973405749,
      -27.324315558754368,
      -34.044959853968614,
      -44.62654609569072,
      -59.03782178052425,
      -77.2623472321844,
      -99.29188073762415,
      -125.12236941941737,
      -154.75184286721705,
      -188.17933798917292,
      -225.40439308770655,
      -260.43870223649503,
      -295.2132938016272,
      -329.8973057378149,
      -366.63657451756956,
      -407.50831867345335,
      -452.47456432469846,
      -501.4217827428198,
      -554.2687337506628,
      -610.9664256680823,
      -671.4882052052832,
      -735.8204081166601,
      -803.9562289822912,
      -875.8923256505346,
      -945.6405074704504,
      -1015.1289751637792,
      -1084.5268590558385,
      -1155.9799964536046,
      -1231.5656135190343,
      -1311.245731126151,
      -1394.9068153012608,
      -1482.467631112418,
      -1573.879197846732,
      -1669.114850770316,
      -1768.1609256375646,
      -1871.0106160748815,
      -1977.6605813611363,
      -2082.1226308453893,
      -2186.3249662030553,
      -2290.4367168057775,
      -2396.6037147153233,
      -2506.903192292533,
      -2621.297162782035,
      -2739.67209983953,
      -2861.946760903678,
      -2988.072150002799,
      -3118.02162529119,
      -3251.781514893851,
      -3389.3450133908605,
      -3530.708779107413,
      -3669.8846433270787,
      -3808.8007848370885,
      -3947.6263415921544,
      -4088.5071370709757,
      -4233.520396958671,
      -4382.628149758659,
      -4535.716870080314,
      -4692.705314408622,
      -4853.544486771903,
      -5018.207743417106,
      -5186.681414376579,
      -5358.958693276725,
      -5535.036240350089,
      -5708.925886880241,
      -5882.555813561759,
      -6056.095156442008,
      -6231.689736138664,
      -6411.416779290519,
      -6595.23831821569,
      -6783.040825616203,
      -6974.743057977043,
      -7170.29601932653,
      -7369.6730678189615,
      -7572.8605315793375,
      -7779.851605187736,
      -7990.642946969352,
      -8199.246388207755,
      -8407.590109597526,
      -8615.843247186027,
      -8826.151636849723,
      -9040.59248996862,
      -9259.127823602043,
      -9481.644125710807,
      -9708.060107003532,
      -9938.326847802482,
      -10172.417645226798,
      -10410.31885791906,
      -10652.023649941764,
      -10897.528694878898,
      -11140.84580875524,
      -11383.903172265373,
      -11626.869934808097,
      -11871.891934167228,
      -12121.046412240348,
      -12374.295340310417,
      -12631.525236855827,
      -12892.654843102775,
      -13157.63517833837,
      -13426.439570199333,
      -13699.054377328239,
      -13975.47276378759,
      -14255.691403161369,
      -14533.722111474357,
      -14811.493069421134,
      -15089.173428307853,
      -15368.909024010978,
      -15652.777098428092,
      -15940.739622842155,
      -16232.68311573156,
      -16528.526318322503,
      -16828.220249902093,
      -17131.73823810705,
      -17439.06664157995,
      -17750.198624383294,
      -18065.130860101068,
      -18377.87516475805,
      -18690.359715234124,
      -19002.75366665014,
      -19317.202847253167,
      -19635.784500848138,
      -19958.46059871801,
      -20285.11765743383,
      -20615.674420129144,
      -20950.081906091058,
      -21288.313442956292,
      -21630.355389367425,
      -21976.200909386956,
      -22325.84667659887,
      -22673.304508935296,
      -23020.502583276117,
      -23367.61005474218,
      -23716.772759209955,
      -24070.06793666967,
      -24427.45755840429,
      -24788.828140984857,
      -25154.098427544915,
      -25523.219437371576,
      -25896.164498101556,
      -26272.919968377435,
      -26653.479008447015,
      -27037.838295708978,
      -27420.009648095453,
      -27801.92124248632,
      -28183.742234002435,
      -28567.618458520257,
      -28955.627156030023,
      -29347.73029781469,
      -29743.814400445306,
      -30143.798207055414,
      -30547.632736932122,
      -30955.29131771215,
      -31366.76030803808,
      -31782.032871972406,
      -32201.105683099115,
      -32617.990559350335,
      -33034.61567760595,
      -33451.15019298681,
      -33869.73994136938,
      -34292.46219326147,
      -34719.27895046362,
      -35150.07672954687,
      -35584.77424312719,
      -36023.32254100927,
      -36465.69488979467,
      -36911.877739678705,
      -37361.864193688714,
      -37815.65095592626,
      -38267.249752770746,
      -38718.588913689935,
      -39169.837532769525,
      -39623.1414153684,
      -40080.5778014768,
      -40542.10869289526,
      -41007.62060619482,
      -41477.03225399145,
      -41950.29468608984,
      -42427.381169091546,
      -42908.27815319189,
      -43392.97874141821,
      -43881.479637872064,
      -44367.792568932855,
      -44853.84586406835,
      -45339.80861736425,
      -45827.82663417944,
      -46319.977154504144,
      -46816.22218013891,
      -47316.44822765478,
      -47820.57400966772,
      -48328.550575982415,
      -48840.35119320043,
      -49355.96231151708,
      -49875.37703395971,
      -50398.59206462988,
      -50919.619129906976,
      -51440.38655925878,
      -51961.06344677099,
      -52483.795597802484,
      -53010.6602523435,
      -53541.619412194574,
      -54076.55959392675,
      -54615.399510156,
      -55158.090210687005,
      -55704.60496212133,
      -56254.93021083959,
      -56809.05906368383,
      -57366.98822475561,
      -57922.72942043432,
      -58478.21098018774,
      -59033.601998101556,
      -59591.04827953466,
      -60152.62706447729,
      -60718.300354729974,
      -61287.95466686376,
      -61861.50871349462,
      -62438.91354442724,
      -63020.14242626318,
      -63605.18180919775,
      -64194.024796258294,
      -64786.66809154638,
      -65377.1234214414,
      -65967.31911922582,
      -66557.42426754125,
      -67149.58468700536,
      -67745.8776137937,
      -68346.26504970678,
      -68950.63351131567,
      -69558.90171123632,
      -70171.02069927343,
      -70786.96374202856,
      -71406.71728969702,
      -72030.27444530615,
      -72657.63191295751,
      -73282.80141140112,
      -73907.71127773412,
      -74532.53059459814
    ],
    "is_0": null
  },
  "random": {
    "name": "random",
    "mean": [
      -24.49746973405749,
      -27.324315558754368,
      -28.367049764476292,
      -29.176294456801617,
      -27.857212911926098,
      -26.193793188418766,
      -24.438958774910454,
      -24.265301834454867,
      -22.741777788614552,
      -19.453962698045935,
      -15.882735270517447,
      -10.184646097217591,
      -3.814980502637205,
      -0.575615428001214,
      -0.0057026477854300595,
      -1.161219160650262e-05,
      -1.8681259206232426e-08,
      -1.4735945796928718e-10,
      -7.034373084024992e-13,
      -1.4210854715202004e-14,
      0.0,
      0.0,
      0.0,
      0.0,
      0.0,
      0.0,
      0.0,
      0.0,
      0.0,
      0.0,
      0.0,
      0.0,
      0.0,
      0.0,
      0.0,
      0.0,
      -1.4210854715202004e-14,
      -5.030642569181509e-12,
      -7.871481955135096e-08,
      -0.0007336282926360127,
      -3.4441713697219,
      -14.76922160823301,
      -25.408202088412224,
      -34.53243914894986,
      -46.25266543679166,
      -62.15015307717252,
      -76.07264224343228,
      -91.4836949472897,
      -107.62370578102994,
      -127.80066577248502,
      -152.0318135385983,
      -174.69120303444788,
      -195.81613818459437,
      -219.17151156716272,
      -241.6795605783932,
      -262.88645068459437,
      -282.93813220314905,
      -305.15971270852015,
      -331.08352938942835,
      -356.5410756235592,
      -384.6774396067135,
      -412.5312527781002,
      -441.5076321726315,
      -468.80237857155726,
      -495.9526776438229,
      -525.1639813547604,
      -558.5083645945065,
      -591.326846039819,
      -625.3514660959713,
      -663.3230160837643,
      -699.7534054880612,
      -734.647173798608,
      -771.9565457468502,
      -809.5030621653073,
      -845.413142121362,
      -883.7268857126705,
      -926.204417145776,
      -968.1528424387448,
      -1008.8556927805416,
      -1049.4151639109127,
      -1089.8867062693112,
      -1131.9389752512448,
      -1172.6416653757565,
      -1211.5799512033932,
      -1253.0901135569088,
      -1294.338221467065,
      -1336.695368683862,
      -1378.1121243601315,
      -1421.483843720483,
      -1464.864069855737,
      -1506.9118909006588,
      -1550.9626492624752,
      -1593.4154461985104,
      -1635.7377957468502,
      -1675.90828982644,
      -1715.4006756906979,
      -1757.2415951853268,
      -1798.21248904519,
      -1838.925837433862,
      -1879.5486172800533,
      -1922.226633942651,
      -1964.8959607248776,
      -2008.5794476633541,
      -2051.31396762185,
      -2093.8551739817135,
      -2134.2600583200924,
      -2177.018839753198,
      -2219.3903912668698,
      -2260.221003449487,
      -2300.0963238840573,
      -2339.7695492868893,
      -2377.302981293725,
      -2417.3405560617916,
      -2461.5532864695065,
      -2509.858744538354,
      -2556.4169415598385,
      -2602.715517914819,
      -2650.627856171655,
      -2697.168970978784,
      -2743.5658673410885,
      -2791.5538052683346,
      -2840.2543744211666,
      -2888.240839875268,
      -2938.185816681909,
      -2987.2489728098385,
      -3035.022807038354,
      -3085.4132184153073,
      -3134.950785553979,
      -3183.200312531518,
      -3234.069453156518,
      -3289.1164654856198,
      -3342.1884564524166,
      -3396.7489880686276,
      -3450.8126782541744,
      -3507.5463818674557,
      -3563.4215191965573,
      -3621.7545575266354,
      -3680.321070588159,
      -3737.2523755197994,
      -3796.5865124826905,
      -3855.746760285425,
      -3918.494837678003,
      -3981.0816296701905,
      -4043.2108258371827,
      -4107.346964753198,
      -4175.614985383081,
      -4243.357600129175,
      -4310.375285065698,
      -4375.616358674097,
      -4440.545634186792,
      -4507.086604035425,
      -4573.128382599878,
      -4640.690714753198,
      -4707.758585846948,
      -4777.496622956323,
      -4851.414194977808,
      -4929.425272858667,
      -5005.69068423562,
      -5081.696467316675,
      -5157.611674225855,
      -5231.371287262964,
      -5304.454615510034,
      -5379.4678448801515,
      -5454.039469636011,
      -5531.285303986597,
      -5612.710841095972,
      -5693.606684601831,
      -5778.106318390894,
      -5861.684321320581,
      -5945.084650910425,
      -6026.338099396753,
      -6110.091853058862,
      -6198.020655549097,
      -6290.042155182886,
      -6380.316386139917,
      -6473.0491437082765,
      -6569.506373322534,
      -6665.800562775659,
      -6761.777476227808,
      -6859.7625378733155,
      -6956.147730744409,
      -7054.939799225855,
      -7153.556757844019,
      -7251.661188996362,
      -7349.61924258523,
      -7449.638239777612,
      -7549.6455945139405,
      -7653.250498688745,
      -7756.693156159448,
      -7861.0450085764405,
      -7965.8848523264405,
      -8069.147822297144,
      -8172.2683972483155,
      -8277.449686921167,
      -8382.619578278589,
      -8486.469721711206,
      -8588.55967227273,
      -8692.776865876245,
      -8797.350306428003,
      -8902.514048493433,
      -9007.053568757105,
      -9109.903025544214,
      -9212.444575226831,
      -9312.867915070581,
      -9415.637522614526,
      -9516.58115664773,
      -9616.000864899683,
      -9714.375483429956,
      -9811.495341218042,
      -9908.385218537378,
      -10007.334834015894,
      -10106.272974885034,
      -10204.63601199441,
      -10301.325434601831,
      -10400.316126740503,
      -10497.519419587183,
      -10597.202433503198,
      -10696.02237979226,
      -10797.300654328394,
      -10898.812205231714,
      -10998.688624299097,
      -11098.432581818628,
      -11196.02515689187,
      -11295.984995759058,
      -11394.109446442651,
      -11490.715281403589,
      -11587.066706574487,
      -11685.481333649683,
      -11783.882777131128,
      -11880.964198029566,
      -11980.049662507105,
      -12077.537272370386,
      -12177.430872834253,
      -12281.488337433862,
      -12383.567912018823
    ],
    "is_0": null
  }
}
