{
  "name": "truncated_shift15",
  "n_trials": 1,
  "onset_time": 11300,
  "prob_common": 2.2955358196514148e-11,
  "target_stroke_duration": 1000,
  "stroke_rate": 0.5,
  "target_trial_duration": 18300,
  "unit_duration": 75,
  "prob_separate": 0.5,
  "tac_sensitivity": 0.98,
  "tac_specificity": 0.98,
  "vis_sensitivity": 0.99,
  "vis_specificity": 0.99,
  "shift": 1125,
  "shift_units": 15,
  "stroke_duration": 975,
  "stroke_duration_units": 13,
  "trial_duration": 17550,
  "trial_duration_units": 234,
  "trial_duration_cycles": 9
}
