{
  "synch": {
    "name": "synch",
    "mean": [
      -24.49746973405749,
      -23.83438159120723,
      -23.060252856193838,
      -22.198953460764624,
      -21.250890027955688,
      -20.216069949222845,
      -19.094493166618573,
      -17.886159924726787,
      -16.591070248295388,
      -15.209224244633958,
      -13.740622297718787,
      -12.18526708073845,
      -10.543172755921102,
      -8.814422788390852,
      -4.936363715603136,
      -1.0990862499489555,
      -0.026093429192183493,
      -0.0003201071028460234,
      -3.5550072636780783e-06,
      -3.61942804616433e-08,
      -3.3787905806548224e-10,
      -2.8919089345436078e-12,
      -2.3092638912203256e-14,
      0.0,
      0.0,
      0.0,
      0.0,
      0.0,
      0.0,
      0.0,
      0.0,
      0.0,
      0.0,
      0.0,
      0.0,
      0.0,
      0.0,
      0.0,
      0.0,
      0.0,
      0.0,
      0.0,
      0.0,
      0.0,
      0.0,
      0.0,
      0.0,
      0.0,
      0.0,
      0.0,
      0.0,
      0.0,
      0.0,
      0.0,
      0.0,
      0.0,
      0.0,
      0.0,
      0.0,
      0.0,
      0.0,
      0.0,
      0.0,
      0.0,
      0.0,
      0.0,
      0.0,
      0.0,
      0.0,
      0.0,
      0.0,
      0.0,
      0.0,
      0.0,
      0.0,
      0.0,
      0.0,
      0.0,
      0.0,
      0.0,
      0.0,
      0.0,
      0.0,
      0.0,
      0.0,
      0.0,
      0.0,
      0.0,
      0.0,
      0.0,
      0.0,
      0.0,
      0.0,
      0.0,
      0.0,
      0.0,
      0.0,
      0.0,
      0.0,
      0.0,
      0.0,
      0.0,
      0.0,
      0.0,
      0.0,
      0.0,
      0.0,
      0.0,
      0.0,
      0.0,
      0.0,
      0.0,
      0.0,
      0.0,
      0.0,
      0.0,
      0.0,
      0.0,
      0.0,
      0.0,
      0.0,
      0.0,
      0.0,
      0.0,
      0.0,
      0.0,
      0.0,
      0.0,
      0.0,
      0.0,
      0.0,
      0.0,
      0.0,
      0.0,
      0.0,
      0.0,
      0.0,
      0.0,
      0.0,
      0.0,
      0.0,
      0.0,
      0.0,
      0.0,
      0.0,
      0.0,
      0.0,
      0.0,
      0.0,
      0.0,
      0.0,
      0.0,
      0.0,
      0.0,
      0.0,
      0.0,
      0.0,
      0.0,
      0.0,
      0.0,
      0.0,
      0.0,
      0.0,
      0.0,
      0.0,
      0.0,
      0.0,
      0.0,
      0.0,
      0.0,
      0.0,
      0.0,
      0.0,
      0.0,
      0.0,
      0.0,
      0.0,
      0.0,
      0.0,
      0.0,
      0.0,
      0.0,
      0.0,
      0.0,
      0.0,
      0.0,
      0.0,
      0.0,
      0.0,
      0.0,
      0.0,
      0.0,
      0.0,
      0.0,
      0.0,
      0.0,
      0.0,
      0.0,
      0.0,
      0.0,
      0.0,
      0.0,
      0.0,
      0.0,
      0.0,
      0.0,
      0.0,
      0.0,
      0.0,
      0.0,
      0.0,
      0.0,
      0.0,
      0.0,
      0.0,
      0.0,
      0.0,
      0.0,
      0.0,
      0.0,
      0.0,
      0.0,
      0.0,
      0.0,
      0.0,
      0.0,
      0.0,
      0.0,
      0.0,
      0.0,
      0.0,
      0.0,
      0.0,
      0.0,
      0.0
    ],
    "is_0": null
  },
  "asynch": {
    "name": "asynch",
    "mean": [
      -24.49746973405749,
      -27.324315558754368,
      -34.044959853968614,
      -44.62654609569072,
      -59.03782178052425,
      -71.29294980653285,
      -83.2883641827917,
      -95.19319320806025,
      -107.01118720658778,
      -118.74242199548243,
      -130.38689924367426,
      -141.94461918958186,
      -153.4155818332052,
      -164.79978717454432,
      -178.23932326920985,
      -195.8113328326559,
      -217.47784389146327,
      -243.12533153184413,
      -266.817309986434,
      -290.2496281970358,
      -313.5913668979025,
      -336.84627641328336,
      -360.01443256028654,
      -383.0958367694235,
      -406.0904895175314,
      -428.99839080461027,
      -451.8195401538229,
      -476.6960231173849,
      -505.70498288758756,
      -538.8084431994772,
      -575.8928738940573,
      -611.021794449172,
      -645.8910542834616,
      -680.6697331775046,
      -715.3615828860617,
      -749.9666777957297,
      -784.4850198138571,
      -818.916608940444,
      -853.2614451754904,
      -887.5195285189963,
      -923.832946907363,
      -964.278838287673,
      -1008.81923020967,
      -1057.3405886996602,
      -1103.906437050185,
      -1150.2126246798848,
      -1196.4282275546407,
      -1242.5569974292134,
      -1288.599009643874,
      -1334.554265152297,
      -1380.422763954482,
      -1426.204505096755,
      -1471.89948953279,
      -1519.6498042453145,
      -1571.5325995791768,
      -1627.5098954547261,
      -1687.468158851943,
      -1745.4709121096944,
      -1803.214005600295,
      -1860.866512428603,
      -1918.4321843493794,
      -1975.911096702895,
      -2033.3032533038472,
      -2090.608654152236,
      -2147.8273068774556,
      -2204.959203850112,
      -2264.1464310992574,
      -2327.4661389697408,
      -2394.880350242934,
      -2466.2755299914693,
      -2535.7152005542134,
      -2604.895212303481,
      -2673.984640251479,
      -2742.9872342456197,
      -2811.903070579848,
      -2880.7321511615132,
      -2949.474475990615,
      -3018.130045067153,
      -3086.6988583911275,
      -3157.3230019915914,
      -3232.079626213393,
      -3310.930753837905,
      -3393.7628499377583,
      -3474.639421593032,
      -3555.2563344348287,
      -3635.782663475356,
      -3716.222158562026,
      -3796.5748959887837,
      -3876.840877662978,
      -3957.020103584609,
      -4037.1125737536763,
      -4117.118286262832,
      -4199.1793137896875,
      -4285.372806679092,
      -4375.6607953418115,
      -4469.929752479873,
      -4562.2431851733545,
      -4654.296959053359,
      -4746.260149132095,
      -4838.136505256973,
      -4929.9261037219385,
      -5021.628946434341,
      -5113.24503339418,
      -5204.774364601455,
      -5296.216940056167,
      -5389.714830528579,
      -5487.34518636354,
      -5589.070037971816,
      -5694.775858055435,
      -5798.526151787124,
      -5902.01678289064,
      -6005.416830192886,
      -6108.730039726577,
      -6211.9564916003565,
      -6315.096185814224,
      -6418.149122368179,
      -6521.115301262222,
      -6623.994722496353,
      -6728.929453026138,
      -6837.996641289077,
      -6951.158319603286,
      -7068.300958763442,
      -7183.488069664321,
      -7298.415514122329,
      -7413.25237096437,
      -7528.002386223159,
      -7642.665640007339,
      -7757.242132316909,
      -7871.73186315187,
      -7986.134832512222,
      -8100.451040397964,
      -8216.822561394058,
      -8337.326540123306,
      -8461.925008903823,
      -8590.504438530288,
      -8717.128339897476,
      -8843.492574821792,
      -8969.766222130142,
      -9095.95302785524,
      -9222.05306829103,
      -9348.066347252212,
      -9473.992864738784,
      -9599.832620750747,
      -9725.5856152881,
      -9853.393922935806,
      -9985.334688316665,
      -10121.369943748794,
      -10261.38616002687,
      -10399.446848045669,
      -10537.247869621597,
      -10674.958303581558,
      -10812.581895958267,
      -10950.118726860366,
      -11087.568796287856,
      -11224.932104240737,
      -11362.208650719009,
      -11499.398435722671,
      -11638.643533836685,
      -11782.021089683853,
      -11929.49313558229,
      -12080.946142326675,
      -12230.443620811782,
      -12379.681432854019,
      -12528.828657280288,
      -12677.889040123306,
      -12826.862661491714,
      -12975.749521385513,
      -13124.549619804702,
      -13273.262956749282,
      -13421.889532219253,
      -13572.571420799575,
      -13727.385767113052,
      -13886.294603477798,
      -14049.184400688491,
      -14210.118654381118,
      -14370.793211113296,
      -14531.377164970718,
      -14691.874261986099,
      -14852.284582268081,
      -15012.608125816665,
      -15172.84489263185,
      -15332.994882713638,
      -15493.058096062026,
      -15655.176622520767,
      -15821.42762197145,
      -15991.773065697036,
      -16166.09947026857,
      -16338.470331322038,
      -16510.581495415056,
      -16682.602056633317,
      -16854.535761009538,
      -17026.38268865236,
      -17198.142839561784,
      -17369.81621373781,
      -17541.402811180436,
      -17712.902631889665,
      -17886.457765709245,
      -18064.14537252077,
      -18245.927423607194,
      -18431.690435539567,
      -18615.497903953874,
      -18799.04567540773,
      -18982.502843986833,
      -19165.873151909196,
      -19349.15668309816,
      -19532.353437553727,
      -19715.463415275895,
      -19898.486616264665,
      -20081.423040520036,
      -20266.41477788576,
      -20455.538988243425,
      -20648.757642875993,
      -20845.95725835451,
      -21041.201330314958,
      -21236.185705314958,
      -21431.079477440202,
      -21625.886392723405,
      -21820.60653127321,
      -22015.23988927492,
      -22209.786474357927,
      -22404.246286522233,
      -22598.61932576784,
      -22795.047681938493,
      -22995.608514915788,
      -23200.263795982682,
      -23408.90004171022,
      -23615.580740104997,
      -23822.00174535402,
      -24028.332140098893,
      -24234.57568563112,
      -24440.732458244645,
      -24646.80245793947,
      -24852.785684715593,
      -25058.682138573015,
      -25264.491819511735
    ],
    "is_0": null
  },
  "random": {
    "name": "random",
    "mean": [
      -24.49746973405749,
      -27.324315558754368,
      -28.777276049933743,
      -32.87039477714062,
      -35.109195302805894,
      -35.644107412180894,
      -38.47555382140636,
      -41.1395200003004,
      -44.86967069991587,
      -46.93143827804087,
      -48.849676917872415,
      -48.61750109084605,
      -50.8876398313856,
      -52.910178970179544,
      -54.464388679347024,
      -55.87542421706675,
      -58.867092918238626,
      -65.46607572921275,
      -71.92506201156138,
      -79.27273161300181,
      -87.12567312606333,
      -94.14718229659556,
      -103.25749761947154,
      -116.05653746016978,
      -132.64269811995982,
      -148.711347411952,
      -166.26856405623911,
      -183.3255823362684,
      -201.90557463057996,
      -224.09901983626844,
      -245.82511885055067,
      -266.0073660124159,
      -285.2389143217421,
      -304.268798660121,
      -321.1588361967421,
      -337.7015112150526,
      -352.13016493209363,
      -366.21649153121473,
      -382.3638685453749,
      -402.64464552291395,
      -420.95059950240613,
      -441.93153364547254,
      -462.06098158248426,
      -481.9309156645155,
      -503.4146269071913,
      -523.52711470016,
      -545.6374738920546,
      -571.8791006315565,
      -596.7393491972304,
      -623.4818266142225,
      -649.3562505949354,
      -674.9775732267714,
      -702.2112348783827,
      -733.0586965788222,
      -767.6915090788222,
      -800.1254347074843,
      -834.4418142546034,
      -867.1598356474257,
      -901.4155119169568,
      -939.2780569303845,
      -976.6749151457166,
      -1013.8936269987439,
      -1052.6919019926404,
      -1090.1407201994275,
      -1129.5619238127088,
      -1168.5439413297986,
      -1209.0345342863416,
      -1249.0281866300916,
      -1287.5028951872205,
      -1328.2165868986463,
      -1367.1689794767713,
      -1405.9809911955213,
      -1442.6421850431775,
      -1478.9537695158338,
      -1517.3262518156384,
      -1554.0992620695447,
      -1590.7417028654431,
      -1625.2323034513806,
      -1659.044780563197,
      -1692.6730612028455,
      -1726.2129705656384,
      -1761.808223556361,
      -1796.5039709318494,
      -1833.0909536589002,
      -1868.075786422572,
      -1905.4674566496228,
      -1942.684055160365,
      -1979.3881338346814,
      -2017.6497991789197,
      -2055.415370773158,
      -2093.0000112760877,
      -2132.1648596037244,
      -2174.937000106654,
      -2215.53382475265,
      -2254.830455612025,
      -2296.747745345912,
      -2336.797939132533,
      -2376.700267623744,
      -2418.182475875697,
      -2458.31524259933,
      -2496.683536361537,
      -2534.135715316615,
      -2570.2658804167127,
      -2606.1583364714,
      -2641.9614370573377,
      -2675.6086920011853,
      -2711.622661422572,
      -2751.360553573451,
      -2790.6325796354627,
      -2829.7264974821423,
      -2868.7326772917127,
      -2909.3193472135877,
      -2953.5132101286267,
      -2997.567096542201,
      -3045.5293462980603,
      -3091.64426023849,
      -3137.580997299037,
      -3185.097286056361,
      -3231.2641256559705,
      -3275.6664541471814,
      -3322.6406744230603,
      -3373.7917440641736,
      -3422.967815231166,
      -3474.8214224089,
      -3524.806743453822,
      -3574.6442526090955,
      -3626.061626266322,
      -3676.129596542201,
      -3728.169925521693,
      -3779.771068404994,
      -3834.048648666225,
      -3888.0441778410295,
      -3945.620426009975,
      -4006.9979894865373,
      -4068.183055709682,
      -4128.960979293666,
      -4187.979823898158,
      -4249.565715621791,
      -4315.328212570033,
      -4385.1834524381975,
      -4453.36748869308,
      -4524.231212447963,
      -4593.225978683315,
      -4664.734935592494,
      -4736.024089645229,
      -4808.40964872726,
      -4881.053752731166,
      -4952.217616866908,
      -5023.216823409877,
      -5096.269771407924,
      -5167.728114913783,
      -5241.591579269252,
      -5319.618816207729,
      -5395.668102096401,
      -5471.538890670619,
      -5545.262828658901,
      -5621.487056564174,
      -5701.8863332975725,
      -5780.310603927455,
      -5860.223430465541,
      -5943.742473434291,
      -6027.121654342494,
      -6111.389491866908,
      -6195.00454313644,
      -6281.132076095424,
      -6365.454967330776,
      -6452.265193771205,
      -6538.866542648158,
      -6629.053340743862,
      -6719.079128097377,
      -6807.491054366908,
      -6895.76885588058,
      -6981.895458053432,
      -7070.52505094894,
      -7158.906810592494,
      -7248.388515304408,
      -7336.9336965788225,
      -7425.286952804408,
      -7515.2403372038225,
      -7603.831447433315,
      -7692.279048751674,
      -7782.317561935268,
      -7873.068813155971,
      -7963.105907272182,
      -8051.62661344894,
      -8139.893611739955,
      -8226.028056930385,
      -8314.521037887416,
      -8406.737193893276,
      -8498.7901724089,
      -8594.746379684291,
      -8688.856059860072,
      -8781.428310226283,
      -8873.051341842494,
      -8964.47280485519,
      -9053.75437528976,
      -9142.350200485072,
      -9233.294338058315,
      -9324.075481246791,
      -9414.338908981166,
      -9506.159572433315,
      -9597.48403532394,
      -9687.290950607143,
      -9779.49282438644,
      -9875.417415450893,
      -9975.130092452846,
      -10074.662654708705,
      -10172.537044357143,
      -10272.812724899135,
      -10372.220607589565,
      -10474.086269210658,
      -10574.116954635463,
      -10673.95472319015,
      -10775.392970870815,
      -10877.537669967494,
      -10978.096248458705,
      -11078.52341825851,
      -11178.863399337612,
      -11280.783977340541,
      -11382.198634933315,
      -11483.431697677455,
      -11584.577022384487,
      -11685.635631393276,
      -11788.274852584682,
      -11891.633632491908,
      -11993.407329391322,
      -12093.384364913783,
      -12195.703151534877,
      -12297.836467574916,
      -12403.562175582729,
      -12509.124965499721,
      -12614.228542159877,
      -12721.339153121791,
      -12827.559581588588,
      -12936.231014083705
    ],
    "is_0": null
  }
}
